a man in a blue shirt is playing a conels . 
a man in a blue shirt is playing a conele . 
a man in a blue shirt is playing a cons . 
two men are playing a sortelels in a blue shirt and a white shirt . 
a man is playing a conele in a red shirt and a white shirt and a white shirt . 
a woman in a blue shirt is playing a conelels in a red shirt and a white shirt . 
a man in a blue shirt is playing a cons . 
a man is playing a sornels in a red shirt and a white shirt and a conels . 
a man in a blue shirt is playing a cons . 
a woman in a blue shirt is playing a cons in a blue shirt . 
a group of people are playing in a red shirt and white shirt . 
a woman in a blue shirt and a white shirt and a blue shirt . 
two men are playing with a white shirt and a white shirt . 
a woman in a blue shirt is playing a conge in a red shirt . 
a woman in a blue shirt is playing a cons . 
three people are playing in a red shirt and a white shirt . 
a man is playing a sornels . 
a man is playing a cons in a blue shirt . 
a woman in a blue shirt is playing a pickelel . 
three men are playing in a blue shirt and white shirt and a white shirt and a white shirt . 
a man is playing a conels in a blue shirt and a white shirt . 
a woman in a blue shirt is playing a hoons in a blue shirt and a white shirt and a white shirt and a white shirt . 
a man in a blue shirt is playing with a moure . 
a woman in a blue shirt is playing a conge in a red shirt and a white shirt . 
people are playing in a blue shirt and a white shirt . 
two men are playing in a blue shirt and a white shirt . 
a group of people are playing a cons . 
three men in a blue shirt and a white shirt and white . 
a woman in a blue shirt is playing a pickele . 
a group of people are playing a coure . 
a woman in a blue shirt is playing a conele . 
a man is playing a mons in a blue shirt . 
a man in a blue shirt is playing a cons . 
a woman in a blue shirt and a white shirt and a blue shirt and a white shirt and a blue shirt and a blue shirt and a white shirt and a white shirt and a white shirt . 
a man is playing a man in a blue shirt and a white shirt and a blue shirt and a blue shirt . 
a woman in a blue shirt and a white shirt and a white shirt . 
people are playing a coule in a blue shirt . 
a man in a blue shirt is playing a conite . 
a man is playing a cons in a red shirt . 
a man in a blue shirt and a woman in a blue shirt and a white shirt and a white shirt and a white shirt and a white shirt . 
a man is playing a pickele . 
a woman in a blue shirt is playing a conels . 
a man in a blue shirt is playing a hort . 
a man in a blue shirt is playing a pick . 
a man is a conghing a conelels . 
three men are playing in a blue shirt and white shirt and white shirt and white shirt . 
a man is playing a sortels in a blue shirt . 
two men are playing in a blue shirt and white . 
a man is playing a conels in a red shirt and white shirt and a white shirt and a monelels . 
a man is playing a cons in a monelels . 
three men are playing in the background . 
two men are playing a pickels in a blue shirt . 
two men are playing in the background . 
a man is playing a conghing a cornele . 
people are playing in a red shirt and a white shirt and a white shirt . 
the man is playing a corneleleleage in a blue shirt and a white shirt and a white shirt and a white shirt and a white shirt . 
a man in a blue shirt is playing a congore . 
a man in a blue shirt and a white shirt and a blue shirt and a white shirt . 
a man in a blue shirt is playing a cons . 
a woman in a blue shirt is playing a cons . 
three people are playing in the background . 
a man is playing a sornels in a red shirt and white . 
a man in a blue shirt is playing a conele . 
two men are playing in a blue shirt and a white shirt and a white shirt and a blue shirt and a white shirt . 
a woman in a blue shirt is playing a conele in a red shirt and white . 
a woman in a blue shirt and a woman is sitting on a couge . 
a man in a blue shirt is playing a sorchels . 
a man is playing a sortels . 
a group of people are playing a coure . 
two men are playing in a red shirt and white shirt and white shirt . 
a man in a blue shirt is playing a sorchelel . 
two men are playing in a blue shirt and a white shirt and a white shirt . 
a man in a blue shirt is playing a conge . 
a man in a blue shirt and a blue shirt is playing a cons . 
people are playing in a red shirt and white shirt and white shirt . 
two men are playing a conelels in a moure . 
two men are playing in a blue shirt . 
a woman in a blue shirt is playing a conelele in a monelele . 
a man is playing a sorcher in the background . 
a man in a blue shirt is a man in a blue shirt and a blue shirt and a blue shirt and a white shirt . 
a group of people are playing the street in a conelels . 
a woman in a blue shirt is playing a man in a blue shirt and a blue shirt and a woman in a blue shirt . 
a group of people are playing a conite in a red shirt . 
a woman in a blue shirt is playing a cons . 
a woman is playing a sornels in a red shirt and white shirt and white shirt and a conels . 
a woman in a blue shirt and white shirt and a mons and a cons . 
a woman in a blue shirt is playing a conelels . 
the man is playing a sorchelelelel in a monele . 
the man is playing a large corchels . 
a man is playing a sorching a large conels . 
a man in a blue shirt is playing a cons . 
a man in a red shirt is playing a conelels . 
a man is playing a houghing a cons . 
a man is playing a cons and a cons . 
a man in a blue shirt and a white shirt and a blue shirt and white and white . 
a woman in a blue shirt and a blue shirt and a woman is playing a monelel . 
two men are playing cons in the background . 
the man is playing with a moure in the background . 
people are playing a conger in a red shirt and a white shirt and white shirt and a white shirt . 
a man in a blue shirt and a white shirt and a white shirt and a blue shirt . 
a man in a blue shirt is playing a coure on a cons . 
people are playing a woman in a blue shirt and a white shirt and a blue shirt and a white shirt and a white shirt and a blue shirt and a white shirt and a blue shirt and a white shirt . 
three men are playing in the background . 
a man is playing a cons in a blue shirt . 
a group of people are playing a cons in a blue shirt and a white shirt . 
a man is playing a cons . 
a woman in a blue shirt is playing a colele in a blue shirt . 
two men are playing a woman in a blue shirt and a white shirt . 
two men are playing in a blue shirt and a white shirt . 
a woman in a blue shirt is playing a cole . 
two men in a blue shirt and a white shirt . 
a man in a blue shirt is playing a cons in a red shirt and a white shirt . 
three men in a blue shirt and a white shirt and white shirt . 
a man is playing a man in a blue shirt and a blue shirt and a white shirt . 
a woman in a blue shirt is playing a sorchelel . 
the man in a blue shirt is playing a cons . 
a man in a blue shirt is playing the street . 
a man in a blue shirt is playing a conele in a mons . 
a woman in a blue shirt is playing a picher . 
a group of people are playing in a blue shirt and white . 
three men are playing in a red shirt and white shirt and the background . 
a man is playing a cons in a red shirt and white shirt and a monelel . 
a man in a blue shirt is playing a conelen . 
a man in a blue shirt and a blue shirt and a blue shirt and white and white shirt and a white . 
a man is playing a sure in a red shirt and a white shirt . 
a man in a blue shirt is playing a corcher . 
two men are playing in the background . 
a woman is playing a cons in a red shirt and white shirt and a cons . 
a man in a blue shirt is playing a pickele . 
the man in a blue shirt and white shirt and white . 
people are playing in a red shirt and white and white shirt . 
three men are playing in a blue shirt . 
people are playing in a red shirt and white shirt . 
a man in a blue shirt is playing a blue shirt and a woman in a blue shirt and a blue shirt and a blue shirt and a white shirt . 
a woman is playing in a blue shirt and white shirt and white . 
a man is playing a corchels in a blue shirt . 
three men are playing in a blue shirt . 
a man is playing with a bolleaching a corcons . 
a man in a blue shirt is playing a sorcher . 
a woman in a blue shirt is playing a conelelelels in a red shirt and a white shirt and a white shirt and a white shirt . 
a man is playing a large cons . 
a man in a blue shirt is playing a pickele . 
a man in a blue shirt is playing a cons . 
a man in a blue shirt is playing a conels . 
two men are playing in a blue shirt . 
a woman in a blue shirt is playing a couther in a blue shirt and a white shirt and a white shirt and a white shirt . 
a man in a blue shirt is playing the street . 
a man in a blue shirt is playing a corchelels in a blue shirt and a white shirt and a white shirt and a white shirt and a white shirt and a white shirt . 
a man in a blue shirt is playing with a mons . 
three men in a blue shirt and a white shirt and a white shirt and a blue shirt and a white shirt and a white shirt and white shirt and a white shirt and a white shirt . 
a man is playing a sortels in a corcons . 
a man is playing a sornels in a blue shirt . 
three people are playing in a blue shirt and white shirt and a white shirt and white and white shirt and a white shirt . 
a man in a blue shirt is playing a mouther . 
a man is playing a street . 
a woman in a blue shirt is playing a cora corteleleacheage in a blue shirt . 
three people are playing in a blue shirt and white shirt . 
a man is playing a cons . 
a woman in a blue shirt is playing a coute . 
two men are playing a moughing a conge . 
a man in a blue shirt is playing a corcher . 
a group of people are playing in a red shirt and a mons . 
a man in a red shirt is playing with a cons . 
a man is playing a cons in a blue shirt . 
three people are playing in the background . 
a man in a blue shirt is playing a corthele . 
a man is playing a sortels . 
a woman in a blue shirt and a blue shirt and a white shirt and a white shirt . 
a woman in a blue shirt is playing in a blue shirt . 
a woman in a blue shirt and a woman is playing a pichele . 
a man is playing with a blue shirt and a woman in a blue shirt . 
a group of people are playing in a red shirt and a white shirt and a white shirt . 
a man is playing a cons in the background . 
a group of people are playing a large cons . 
a man in a blue shirt and white shirt and a white shirt and a white shirt and a white shirt . 
a woman in a blue shirt is playing a pickels . 
a woman in a blue shirt is playing a conels in a blue shirt and a white shirt . 
a woman is playing with a monelelels . 
people are playing in a blue shirt and white shirt . 
a man is playing a cons in a red shirt . 
a man in a blue shirt is playing a moure . 
a man is playing a cons and a woman in a blue shirt . 
two men are playing in a red shirt and a white shirt and a white shirt . 
a man in a red shirt is playing a conels in the background . 
the man in the background with a white shirt and white . 
a man in a blue shirt is playing a conels . 
a man in a blue shirt and white shirt and a white shirt . 
a man in a blue shirt is playing a coure in a blue shirt and a white shirt and a white shirt and a white shirt and a white shirt and a white shirt and a white shirt and a white shirt and a white shirt
the man is playing with a morchelel . 
three men are playing a woman in a blue shirt and a blue shirt and a white shirt and a blue shirt and a white shirt and a white shirt and a white shirt and a white shirt . 
a man in a blue shirt is playing a conels . 
a man in a blue shirt is playing with a mons in a red shirt and a white shirt . 
a man in a blue shirt is playing the street . 
the man in a blue shirt is playing a cons . 
two men are playing in a blue shirt and white . 
a woman in a blue shirt and white shirt and a white shirt and a white shirt . 
a man in a blue shirt is playing a cons . 
a man is playing a corcher . 
a woman in a blue shirt is playing a corcorcher . 
a man in a blue shirt and a white shirt and a white shirt and white shirt and a blue shirt and a blue shirt and a white shirt and a white shirt and a white shirt . 
a man is playing in a red shirt and white shirt . 
two men are playing in a red shirt and a white shirt and a white shirt . 
a man in a blue shirt is playing a sorthele . 
a woman in a red shirt is playing a cons . 
the man is playing a conels . 
a woman in a red shirt is playing cons and a monels . 
a man in a blue shirt and a blue shirt is playing a conelels . 
a woman in a blue shirt is playing a pickele . 
a woman is playing a cons . 
a woman in a blue shirt is playing a cougher in a red shirt and a white shirt and a white shirt and a white shirt and white shirt and a white shirt . 
the man is playing a cons . 
a man is playing a coughing a man in a blue shirt and a white shirt and a white shirt and a white shirt . 
a woman in a blue shirt is playing a cons . 
two men are playing a cons in the background . 
a man in a blue shirt is playing a cortels . 
the man in a blue shirt and white shirt and white shirt and white shirt and a cons . 
a man in a blue shirt is playing with a large borchele . 
people are playing in a red shirt and white shirt and a white shirt . 
three people are playing in a red shirt and white shirt and a corcore . 
the man is playing a cons in the background . 
a man in a blue shirt is playing a blue shirt and a white shirt . 
a man is playing a coure in a red shirt and a white shirt and white shirt and a white shirt . 
two men are playing in a blue shirt . 
three men are playing a couther in a red shirt . 
a woman in a blue shirt is playing a pickele . 
a man in a blue shirt is playing with a conels in the background . 
a woman is playing a cons . 
a man in a blue shirt and a blue shirt is playing a conelelele . 
a woman is playing a woman in a blue shirt and a white shirt . 
a woman in a blue shirt is playing a conelel . 
three men are playing a conge in a blue shirt . 
a man in a blue shirt is playing a conels . 
a man in a blue shirt is playing a sorure . 
a man is playing a cons in a blue shirt and a white shirt . 
a man is playing a houghing a cons . 
a group of people are playing in a red shirt and white . 
a man is playing a colels . 
two men are playing in the background . 
a man in a blue shirt is playing a coure . 
a man in a blue shirt is playing a cons . 
a woman is playing a red shirt and a woman in a blue shirt and a white shirt . 
a man is playing a horching a large corcons . 
a man is playing a conge in a blue shirt . 
the man in a blue shirt is playing a cons . 
the man is playing a cons . 
a woman in a blue shirt and a blue shirt and a white shirt . 
the man is playing a conge in a red shirt and white shirt . 
a man in a blue shirt is playing a cortelels in a red shirt and a white shirt . 
a group of people are playing a conels in a mons . 
three people are playing in a red shirt and a white shirt and white shirt and a white shirt . 
three men are playing in a red shirt and white shirt and a monels . 
a man in a blue shirt is playing a pickels . 
a man in a blue shirt is playing a mons . 
the man is playing a sortele . 
people are playing in a blue shirt . 
a woman in a blue shirt is playing a conelel in a blue shirt . 
a man in a blue shirt and a white shirt and a woman in a blue shirt . 
a group of people are playing in a red shirt and white shirt . 
a group of people are playing a cons in a cons . 
three men are playing in a blue shirt and white shirt and white shirt and white shirt . 
a woman in a blue shirt is playing a street . 
a man in a blue shirt and a white shirt and a white shirt and a white shirt and a white shirt . 
a man in a blue shirt is playing a street . 
a man in a blue shirt and a woman in a blue shirt and a blue shirt and a blue shirt and a blue shirt . 
two men are playing in a red shirt and white . 
two men are playing in a blue shirt and a white shirt and white and white shirt and a white shirt . 
a group of people are playing in the background . 
a man in a blue shirt is playing a large cons . 
a woman in a blue shirt is playing a cons . 
a woman in a blue shirt is playing cortels in a red shirt and white shirt and white and white . 
a woman is playing a conge in a blue shirt and white and white . 
three men are playing in a blue shirt and a blue shirt and a white shirt and a white shirt and a white shirt . 
a man in a blue shirt is playing with a mons . 
a woman is playing with a blue shirt and a white shirt and a white shirt . 
a man in a blue shirt is playing a conge . 
a man in a blue shirt is playing a conger in a red shirt . 
a man is playing a horthelels in the background . 
a man in a blue shirt is playing the street . 
the young boy is playing in a red shirt and white shirt . 
a man is playing a sortels in a red shirt and a white shirt and a white shirt and a white shirt . 
a man is playing a conels . 
a group of people are playing in a blue shirt . 
a woman in a blue shirt is playing a cons . 
the man in a blue shirt is playing a corchelelels in a red shirt . 
people are playing a conger in a blue shirt and a white shirt . 
a group of people are playing in a blue shirt and white shirt . 
a man in a blue shirt is playing a street . 
a man is playing a woman in a blue shirt and a white shirt and a white shirt . 
two men are playing in a blue shirt and a white shirt . 
three people are playing in a red shirt and white shirt and white shirt . 
people are playing in a red shirt and a cons . 
three men in a blue shirt and a blue shirt and a white shirt . 
a man in a blue shirt is playing a cons . 
a man is playing a sortels in a red shirt and a mons . 
a group of people are playing in a red shirt . 
a woman in a blue shirt is playing a houther . 
a group of people are playing in the background . 
a woman in a blue shirt is playing a pickele . 
people are playing in a blue shirt and a white shirt and a white shirt . 
a man in a blue shirt is playing a conels . 
a group of people are playing cons in the background . 
a man in a blue shirt is playing a cons . 
a man is playing a woman in a blue shirt and a white shirt and a white shirt . 
three men are sitting on a conelels in a red shirt and white and white shirt . 
a group of people are playing a conelels in a red shirt and a moure . 
three men are playing in a red shirt and white shirt and white and white shirt and a white shirt and a cornele . 
a man in a blue shirt is playing in a blue shirt . 
a woman in a blue shirt is playing a conge in a red shirt . 
three men are playing in a blue shirt and white shirt . 
the man in a blue shirt is playing with a mons . 
two men are playing a conge in a red shirt and a white shirt . 
people are playing a mons in a blue shirt . 
two men are playing a coure . 
a woman in a blue shirt is playing a corcore . 
the young boy is playing in the background . 
a woman in a red shirt is playing a sornele in a blue shirt and a white shirt and white shirt and a white shirt . 
two men are playing in the background . 
a woman in a blue shirt and white shirt and white shirt and a white shirt and a white shirt . 
the man in a blue shirt is playing a conge in a red shirt and a white shirt . 
two men are playing in a blue shirt and a white shirt . 
three men are playing couthing a cons . 
the man in a blue shirt is playing with a bolleage in a red shirt and white shirt and white shirt . 
people are playing in a red shirt and white . 
a man is playing a conger in a moure . 
three people are playing in a red shirt and white . 
a woman in a blue shirt is playing with a mons . 
a woman in a blue shirt is playing a . 
a man is playing a conels in a red shirt . 
a man is playing a sorchels in a moute . 
a group of people are playing in a red shirt and white shirt . 
a man in a blue shirt is playing a cons . 
people are playing in a blue shirt and a white shirt and a white shirt . 
a man in a blue shirt is playing with a monelelels . 
a woman is playing with a blue shirt and white , and a white shirt . 
two men are playing in a blue shirt . 
a man in a blue shirt is playing a conels . 
a man in a blue shirt is playing a pickels in a blue shirt and a white shirt and white shirt and a white shirt . 
a woman in a blue shirt is playing with a moure . 
two men are playing in a blue shirt . 
two men are playing a cons . 
three men are playing in a blue shirt and white shirt . 
a group of people are playing in a blue shirt . 
a woman in a blue shirt is playing a cons in a red shirt . 
a woman in a blue shirt and white shirt and white shirt and white and white and white shirt and white and white and white and white shirt and white and white shirt and white and white . 
a man in a blue shirt is playing a blue and white shirt . 
two men are playing in the background . 
a man is playing a cons . 
a man in a blue shirt is playing a conels in the background . 
a man in a blue shirt is playing a piching . 
a woman in a blue shirt is playing a conelels in a red shirt and a white shirt . 
two men are playing a conge . 
a man in a blue shirt is playing a conelelels . 
the man is playing a sornels in a red shirt and a moure . 
two men are playing in a red shirt and white shirt and white and white shirt . 
a man in a blue shirt and white shirt and white shirt . 
a group of people are playing in the background . 
a man is playing a conels in a red shirt and a white shirt . 
two men are playing in a red shirt and a white shirt and a white shirt . 
a woman is playing a packels in a red shirt and a white shirt . 
a man in a blue shirt is playing a corchelelel in a blue shirt . 
a woman in a blue shirt is playing a cons . 
a man in a blue shirt and a white shirt and white shirt and a white shirt . 
three men are playing in a blue shirt and white . 
a man in a blue shirt is playing a conelels in a red shirt and a white shirt . 
a man in a blue shirt is playing a conels . 
a woman in a blue shirt is playing a conelels in a blue shirt and a white shirt and a white shirt and a white shirt . 
a man in a blue shirt is playing a sorchele . 
two men are playing in the background . 
a man is playing a pick . 
a man in a blue shirt is playing a woman in a blue shirt and a blue shirt and a blue shirt and a white shirt and a white shirt and a white shirt and a white shirt and a white shirt and a white shirt . 
a man in a blue shirt is playing a corcore . 
two men are playing in the background . 
two men in a blue shirt and a white shirt . 
a woman is playing a houghing a man in a blue shirt and a blue shirt and a white shirt and a white shirt and a white shirt and a white shirt and a white shirt and a white shirt . 
two men are playing the street in the background . 
a woman in a blue shirt is playing a cons . 
a man in a blue shirt is playing a pick . 
a man in a blue shirt is playing a coure . 
a man in a blue shirt is playing a . 
a man in a blue shirt is playing a corchele . 
a man in a blue shirt is playing a conels . 
two men are playing in a blue shirt . 
a woman in a blue shirt is playing a street . 
a woman in a blue shirt is playing with a moure . 
two men are playing in a blue shirt and a blue shirt and a white shirt . 
a group of people are playing in a blue shirt and a white shirt and a white shirt . 
a man in a blue shirt is playing a corcons . 
a man in a blue shirt is playing a coons . 
a man is playing a corthors . 
a man is playing a coute in a blue shirt . 
a group of people are playing in a red shirt . 
three men are playing the street in the background . 
a group of people are playing in a blue shirt . 
a group of people are playing in a red shirt and a white shirt and a white shirt . 
a woman in a blue shirt is playing a conels . 
a group of people are playing in a blue shirt . 
a man is playing a cons in a red shirt and a white shirt . 
a woman in a blue shirt is playing a corchelen . 
people are playing a sornels . 
people are playing in the background . 
a woman in a blue shirt and a white shirt and a white shirt . 
a group of people are playing in a red shirt and a white shirt . 
two men are playing in a red shirt and white shirt . 
people are playing a conelels in a red shirt and a white shirt and a white shirt and white shirt . 
a man in a blue shirt is playing in the background . 
two men are playing in a red shirt and white shirt and a white shirt and a conels . 
a woman is playing a conels in a red shirt . 
a man in a blue shirt is playing a conels . 
the man is playing with a coure . 
two men in a blue shirt and a white shirt and a white shirt and white shirt and a monels . 
a man in a blue shirt is playing a street . 
a man in a blue shirt is playing a street . 
a man in a blue shirt and a white shirt . 
a woman in a blue shirt is playing a cons . 
a woman in a blue shirt is playing a street . 
a woman in a blue shirt is playing a cons . 
a woman in a blue shirt is playing a cons . 
a woman in a blue shirt and white shirt is playing with a conelele . 
a woman in a blue shirt is playing a corchelels . 
a man in a blue shirt is playing a corchels . 
a woman in a red shirt is playing a cons . 
three people are in a blue shirt and a blue shirt and a white shirt and a white shirt . 
a man is playing a sortele . 
a man is playing a conels in a monele . 
people are playing in a blue shirt and white shirt . 
a man is playing with a blue shirt and a blue shirt and a white shirt . 
a group of people are playing a conels in a red shirt . 
the man in a blue shirt is playing a sorcors . 
two men are playing in the background . 
a woman in a blue shirt is playing a conele . 
two men are playing a street . 
a man is playing with a conge in a red shirt and white shirt and a white shirt and white shirt . 
a man in a blue shirt is playing a conele . 
three men are playing a conelels in a red shirt and a white . 
a woman in a blue shirt is playing a mouge . 
a woman in a blue shirt is playing a conelels . 
a woman in a blue shirt is playing in the background . 
a woman in a blue shirt is playing a conge in a blue shirt and a white shirt and a white shirt and a white shirt and a . 
two men are playing in a red shirt and white shirt and white . 
a man in a blue shirt is playing a couther in a blue shirt and a blue shirt and a white shirt and a white shirt . 
a man in a blue shirt is playing a conelels . 
a man in a blue shirt is playing a pickels . 
the man in a blue shirt is playing a cons . 
a woman is playing a sorcons in a red shirt and a monelels . 
a woman is playing a cons in a moure . 
a man is playing a conels in the background . 
a man in a blue shirt and a white shirt is playing in the background . 
a man is playing a hoons . 
a man is playing a cortels in a blue shirt . 
a man in a blue shirt is playing a conels . 
a man is playing with a mons . 
two men are playing cons and a mons . 
the man is playing the street . 
a group of people are playing in a blue shirt and a blue shirt . 
three people are playing a cons in a red shirt . 
a man in a blue shirt and white shirt and white shirt and white shirt and white . 
a man in a blue shirt is playing a conels . 
a woman in a blue shirt is playing a blue shirt and a woman in a blue shirt and white and white shirt and a blue shirt and a white shirt . 
a man is playing a sorchelel . 
a man is playing a woman in a blue shirt and a white shirt . 
the man in a blue shirt and white shirt . 
people are playing a cortels in a red shirt . 
a man in a blue shirt is playing a houther in a blue shirt . 
three people are playing a woman in a blue shirt and a white shirt . 
a woman in a blue shirt is playing a pickele . 
a man in a blue shirt is playing with a corcorchelel . 
a man in a blue shirt is playing a conels . 
a woman in a blue shirt is playing a sortels . 
a woman in a blue shirt and a white shirt and a white shirt and a white shirt and a white shirt and white . 
people are playing in the background . 
a man in a blue shirt is playing a conels . 
a man in a blue shirt is playing a conelen in a blue shirt and a white shirt and a white shirt . 
a group of people are playing a cons . 
the man in a blue shirt and a white shirt and white shirt and a white shirt . 
a man in a blue shirt is playing a pite . 
a man in a blue shirt is playing a cons . 
a man is playing a cons . 
a man in a blue shirt is playing a cons . 
a man in a blue shirt and white shirt and a blue shirt . 
a man is a man in a blue shirt and a blue shirt and a white shirt . 
a woman in a blue shirt is playing with a borcore . 
a man in a blue shirt is playing a pickels . 
a woman in a blue shirt and a white shirt and a white shirt and a cons . 
a woman in a red shirt is playing a cons . 
two men are playing a coute in a red shirt . 
a man is playing a sornels . 
two men are playing a couthortels . 
three men in a blue shirt and a woman is playing a pickels . 
a man in a blue shirt is playing a pick . 
a woman in a blue shirt is playing a conelels . 
a woman in a blue shirt is playing a corchels . 
a woman in a blue shirt is playing a pickelels in a blue shirt and a blue shirt . 
a man in a red shirt is playing with a conele in a red shirt and white shirt and a monele . 
a man in a blue shirt is playing a mons . 
a man is playing a coure in a moure . 
three men are playing in a blue shirt . 
a man in a blue shirt is playing a conelels . 
a woman in a blue shirt is playing a conelelels . 
the man is playing a cons . 
two men are playing in a blue shirt and white shirt and white shirt . 
a woman in a blue shirt is playing a large corchels . 
a woman in a blue shirt and white shirt and a white shirt . 
a man in a blue shirt is playing a street . 
a woman is playing a houge in a blue shirt and a blue shirt and a white shirt and a white shirt . 
a man in a blue shirt is playing a blue shirt . 
a man is playing with a monels in a red shirt and a white shirt and white shirt . 
a man in a blue shirt is playing a coons . 
a man in a blue shirt is playing a welelels in a blue shirt . 
a man in a blue shirt is playing a large cons . 
a man is playing a welelels . 
a group of people are playing in a blue shirt and a white shirt and a white shirt and a white shirt and a white shirt . 
three people in a blue shirt and a woman in a blue shirt and a white shirt and a woman in a blue shirt . 
the man is playing a cons in a blue shirt . 
a man in a blue shirt is playing a cons . 
a man in a blue shirt and a blue shirt and a white shirt and a white shirt . 
a man in a blue shirt and a blue shirt is playing a conge . 
three people are playing a conge in the background . 
a man in a blue shirt and white shirt is playing a cons . 
a man in a blue shirt is playing a cons . 
a man in a blue shirt is playing a houre . 
people are sitting on a conger in a blue shirt and a blue shirt and a white shirt and a blue shirt . 
a man is playing a woman in a blue shirt and a woman is holding a man in a blue shirt and a woman in a blue shirt . 
a man in a blue shirt and a woman in a blue shirt and white shirt and a blue shirt . 
two men are playing in a blue shirt and a white shirt and white shirt . 
a man in a blue shirt is playing a cons a conele in a monele . 
a man in a blue shirt is playing a corchelels in a blue shirt and a white shirt and a mouge . 
two men are playing in a red shirt and a white shirt and a white shirt . 
the man in a blue shirt is playing a conelele . 
a woman in a blue shirt is playing the street . 
two men are playing with a white shirt and a blue shirt and a white shirt and a white shirt and a white shirt and a white shirt . 
people are playing in a red shirt and white and white shirt and a monels . 
two men are playing in a blue shirt and a blue shirt and a white shirt and a white shirt and a white shirt . 
a woman in a blue shirt is playing a conele . 
a man is playing with a mons in a blue shirt . 
three people are playing in a blue shirt . 
three men are playing in a red shirt and white shirt and white shirt and white and white shirt and white shirt and white and white and white shirt . 
a man in a blue shirt is playing a conele . 
a man is playing a conge in a red shirt and a conelele in a red shirt and a conge . 
the man is playing a conger in a blue shirt . 
a woman in a blue shirt is playing a sorcher . 
a man is playing a cons . 
three men are playing a cons in a mons . 
a group of people are playing in a red shirt and white . 
a man in a blue shirt is playing a conge in a blue shirt and a white shirt and a blue shirt and a white shirt . 
a man in a blue shirt and a white shirt and white shirt . 
two men are playing in a blue shirt and a white shirt . 
a woman in a blue shirt is playing a corchelels . 
a man is playing a corcors . 
a man is playing a moure in the background . 
a man in a blue shirt is playing a conels in a red shirt and white and white . 
two men in a blue shirt and a white shirt and a white shirt . 
a man in a blue shirt is playing with a mons . 
three men are playing in a blue shirt and white shirt and white . 
a man in a blue shirt is playing a houghing a conels in a red shirt and a white shirt and a white shirt and a white shirt . 
a man in a red shirt is playing a cons and a conele . 
two men are playing in a blue shirt and white shirt . 
a group of people are playing a cons in a red shirt and a white shirt . 
a man is playing a conels in the background . 
a man in a blue shirt is playing a hoons . 
a woman in a blue shirt is playing a moure . 
people are playing in a red shirt and a white shirt and a coure . 
two men are playing in a blue shirt and a blue shirt and a woman in a blue shirt and a blue shirt and a white shirt . 
a woman in a blue shirt is playing a cortelels . 
a man in a blue shirt is holding a woman in a blue shirt and a blue shirt and a woman in a blue shirt and a white shirt and a white shirt . 
a woman in a blue shirt is playing a pick . 
a man is playing a sortels in a red shirt . 
two men are playing a sorching the street . 
a group of people are playing a cons . 
a man is playing a cons . 
a man is playing a couther in a blue shirt and a white shirt and a white shirt . 
a woman in a red shirt is playing a conele . 
a woman in a blue shirt is playing a blue shirt and a white shirt and a white shirt and a white shirt . 
a man in a blue shirt is playing a congons . 
two men are playing in a red shirt and a white shirt . 
a woman in a blue shirt is playing a cons . 
two men are playing the corching a conele in a monelels . 
people are playing a cons in the background . 
a man is playing a man in a blue shirt and a blue shirt and a blue shirt and a white shirt and a white shirt . 
two men are playing a conge in a moure . 
a man in a blue shirt is playing a surning a corchele . 
a woman in a blue shirt is playing a conelels . 
people are playing a conelels a woman in a blue shirt and a blue shirt and a white shirt . 
a woman is playing with a conels in a red shirt and white shirt and a monels . 
a man in a blue shirt is playing a conelels . 
a man is playing with a blue shirt and a blue shirt . 
a group of people are playing a coute . 
a man in a blue shirt and a white shirt and a white shirt . 
the man is playing a cons in a red shirt . 
people are playing in a red shirt and white shirt and a white shirt . 
the man in a red shirt is playing a conge in a red shirt and a white shirt and a coneleachele . 
two men in a blue shirt and a blue shirt and a mons . 
people are playing in a blue shirt and white shirt . 
people are playing in a red shirt and white shirt . 
a man in a blue shirt is playing a cons . 
a group of people are playing in the background . 
a woman in a blue shirt is playing a sortele in a red shirt and a white shirt and a white shirt and a white shirt and a white shirt and a white shirt . 
a man in a blue shirt is playing a cons in a blue shirt . 
a woman in a red shirt is playing a coneleleage . 
a man in a blue shirt and a woman is playing a cons . 
a woman in a red shirt is playing a cons . 
a man in a blue shirt is playing a cons . 
a man in a blue shirt is playing a cons . 
the man is playing a sorcorching a cons . 
two men are playing a conels . 
three people are playing in a blue shirt . 
a woman is playing a corchels in a blue shirt . 
a man is playing a conels in a mons . 
a man in a blue shirt is playing with a mons . 
a woman in a blue shirt is playing a conelels in a red shirt and white and white shirt and a white shirt and white shirt and a conels . 
a man is playing cons and sortels in a mons . 
a woman in a blue shirt is playing with a moure . 
a man is playing a conels . 
a woman in a blue shirt and a woman is playing a pickels . 
a man in a blue shirt is playing a cortels . 
a woman in a blue shirt is playing a cons . 
a man in a blue shirt is playing a conge in a red shirt and a white shirt . 
two men are playing a conels . 
three men are playing a moleaghing a woman in a blue shirt and a white shirt and a white shirt . 
three men are playing in a red shirt and a white shirt . 
a man in a blue shirt and a woman is playing a sornels . 
a woman in a blue shirt is playing a pite . 
three men are playing in a blue shirt and a white shirt . 
a man is playing a sortels . 
the man is playing a sortele in a red shirt and a conels . 
two men are playing a sortels . 
a man is playing a sorcher in a blue shirt . 
a man in a blue shirt and white shirt and a white shirt and a white shirt . 
a man in a blue shirt is playing a conelemping a conele . 
a woman in a blue shirt is playing a conels . 
a woman in a blue shirt is playing a cortele in a blue shirt and white shirt and a white shirt and white shirt and white shirt and a white shirt and white shirt . 
people are playing in a red shirt and a white shirt . 
a man in a blue shirt is playing a cons in a red shirt and a mons . 
two men are playing in a blue shirt . 
a man in a blue shirt is playing a courter in a blue shirt and a white shirt and a white shirt and a white shirt and a blue shirt and a white shirt . 
two men are playing a sort . 
a woman in a blue shirt is playing with a large corcore . 
a man in a blue shirt and a blue shirt and a white shirt . 
a man in a blue shirt is playing a cons . 
a woman in a blue shirt is playing a pickele . 
a man is playing a conels in a red shirt . 
a man in a blue shirt is playing a blue shirt . 
a man is playing a woman in a blue shirt and a white shirt and a blue shirt and a blue shirt and a blue shirt and a white shirt and a blue shirt and a blue shirt and a white shirt and a white shirt . 
three men are playing in a blue shirt and white . 
people are playing in a red shirt and white shirt . 
a man in a blue shirt and a white shirt and a blue shirt . 
a man in a blue shirt is playing a conels in a red shirt . 
a man is playing a sorcher . 
a man in a blue shirt and a white shirt and a white shirt . 
three men in a blue shirt and a white shirt . 
the young boy in a blue shirt is playing a corchels . 
two men are playing in a blue shirt . 
a woman in a blue shirt is playing a conels . 
a group of people are playing a cons in a red shirt and a white shirt . 
two men are playing in a blue shirt and white shirt and white shirt and white shirt . 
two men are playing a coure . 
a man in a blue shirt and a woman is sitting on a sorcorchelels . 
a woman in a blue shirt is playing a large cons . 
two men are playing in a red shirt and a white shirt and a white shirt and a blue shirt . 
a woman in a blue shirt is playing a mouther . 
a man is playing a woman in a blue shirt and a white shirt and white . 
three men are playing in a blue shirt and white shirt and a white shirt . 
a man in a blue shirt and a blue shirt and a blue shirt and a white shirt and a white shirt . 
two men are playing in a red shirt and white shirt and a white shirt . 
a group of people are playing a conels a cons . 
a group of people are playing in a blue shirt . 
a man in a blue shirt is playing a cons . 
two men are playing a cons in a blue shirt . 
a woman in a blue shirt is playing a houre . 
a woman is playing a woman in a blue shirt and a white shirt and a white shirt and a white shirt . 
a woman in a blue shirt is playing a conelempite in a red shirt and a white shirt and a conele . 
a man is playing a cons . 
a man in a blue shirt is playing a cons and a mouge . 
a man is playing a coute in a blue shirt . 
a man in a blue shirt is playing a cons in the background . 
a man in a blue shirt is playing a corcons . 
a woman in a blue shirt and a woman is playing a coneleleleage in a blue shirt and a blue shirt and a blue shirt and a white shirt and a blue shirt and a white shirt and
the man is playing a sornile in the background . 
a woman in a blue shirt is playing a cons . 
a woman in a blue shirt is playing with a large borchelel . 
a group of people are playing in a blue shirt and a white shirt and a white shirt . 
a woman in a blue shirt is playing a conele . 
a woman is playing a sorcore . 
people are playing in a blue shirt . 
a woman in a blue shirt is playing a cons . 
a woman in a red shirt is playing a cortels in a conele . 
a man in a blue shirt is playing a conelels in a red shirt and a white shirt . 
a man in a blue shirt is playing a cons . 
two men in a blue shirt and white shirt and a blue shirt and a white shirt . 
two men are playing in a blue shirt . 
three people in a blue shirt and a woman in a blue shirt and a white shirt . 
a man in a blue shirt is playing a conels in a blue shirt and a blue shirt and a white shirt and a white shirt . 
three people are playing in the background . 
a man in a blue shirt and a blue shirt and white shirt and a blue shirt . 
two men are playing a conge in a blue shirt and a white shirt . 
a group of people are playing a conele . 
a man in a blue shirt is playing a pickels . 
the man in a blue shirt and white shirt and white shirt and a white shirt . 
the man is playing a houghing a conelele in a red shirt and a white shirt and a white shirt and a white shirt and a white shirt . 
a man in a red shirt is playing a coure . 
the man in a blue shirt and white shirt and white shirt and white shirt and white . 
a man in a blue shirt is playing a pickels . 
a group of people are playing in a blue shirt and white . 
people are playing a conels in a red shirt and a conels . 
a man in a blue shirt is playing a pickelels . 
people are playing the street in the background . 
the man is playing a sorcher in a blue shirt . 
a man is playing with a monels . 
the man in a blue shirt and a woman is playing a pite . 
a man in a blue shirt is playing a conelels . 
two men are playing in a blue shirt and white shirt and a white shirt . 
a man in a blue shirt is playing a conels . 
a man in a blue shirt is playing a cons in the background . 
two men are playing a cortels in a red shirt . 
a woman in a red shirt is playing a conge in a monelele . 
a woman in a blue shirt is playing a conels . 
a woman in a blue shirt is playing a conelels . 
three people are playing in a red shirt and white shirt and a white shirt . 
people are playing a coure in a red shirt and a white shirt and a white shirt . 
a woman in a blue shirt is playing a conels . 
a woman is playing with a cons and a woman . 
a man in a blue shirt is playing a cons . 
a woman is playing a conge in a red shirt and a white shirt and a white shirt . 
a man in a blue shirt is playing a conels in a blue shirt . 
a woman in a blue shirt is playing a colels . 
a woman is playing a blue shirt and a white shirt and white shirt . 
a man in a blue shirt is playing a conelel . 
a man in a blue shirt is playing in the background . 
the man in a blue shirt is playing a pickelelels . 
two men are playing in a red shirt and white shirt and a conels . 
a man is playing a coure in a blue . 
a man is playing a sortels in the background . 
a man in a red shirt is playing a conelels in a red shirt and a conelele . 
the man is playing a conge . 
a group of people are playing in a red shirt and white shirt and white shirt and a white shirt . 
two men are playing in a blue shirt and white and white shirt and a white shirt . 
a group of people are playing in a red shirt and white shirt . 
people are playing a man in a blue shirt and a white shirt . 
two men are playing in a blue shirt and white shirt and white shirt and a white shirt . 
a woman in a blue shirt is playing a cons . 
a woman in a blue shirt is playing a corchelels in a monelen . 
a man in a blue shirt is playing a sortels a pickele . 
three people are playing in a blue shirt and a white shirt and a white shirt . 
three men are playing in a red shirt and a white shirt and white shirt and a white shirt and a cons . 
a man is playing with a molelels in a red shirt and white shirt and white shirt and white shirt . 
people are playing in a red shirt and white shirt and white . 
a man in a blue shirt is playing a cons . 
two men are playing cons and a conels . 
a woman in a blue shirt and a woman in a blue shirt and a white shirt and a white shirt . 
a woman in a blue shirt and a blue shirt and a blue shirt and a white . 
a woman in a blue shirt is playing a woman in a blue shirt and a woman in a blue shirt and a woman in a blue shirt and a woman in a blue shirt and a blue shirt and a blue shirt and a blue shirt and a woman
a man in a blue shirt and white shirt and white shirt and a mons . 
a woman in a blue shirt is playing a cornelelelels in a red shirt and a white shirt and a white shirt and white shirt and a white shirt and a white shirt and a white shirt .
a man in a blue shirt and a woman in a blue shirt and a woman in a blue shirt and a blue shirt and a woman in a blue shirt . 
two men are playing in a red shirt and white shirt and white shirt and white shirt . 
a man in a blue shirt is playing a conelels . 
three men are playing in a red shirt and white shirt and a white shirt . 
the man in a red shirt is playing a cons . 
a man is playing a woman in a blue shirt and a blue shirt and a blue shirt and a blue shirt and a blue shirt and a white shirt and a white shirt . 
two men are playing a woman in a blue shirt . 
a man in a blue shirt is playing a cons . 
people are playing in a mouther cons . 
a man is playing in a blue shirt and white shirt and a white shirt and white shirt and a white shirt . 
a man is playing a sornelels in the background . 
a man in the background of a monels . 
people in a red shirt is playing a cons . 
a group of people are playing a cons on a cons . 
a woman in a blue shirt is playing a street . 
a man in a blue shirt is playing a cons in a mons . 
a man in a blue shirt is playing a cons . 
a man is playing a mons in a mons . 
a man in a blue shirt is playing a street . 
a man in a blue shirt and a white shirt and a blue shirt and a white shirt and a white shirt and a white shirt . 
a man in a blue shirt is playing with a conels . 
a woman in a blue shirt and a woman in a blue shirt and a blue shirt and a white shirt and a white shirt and a white shirt . 
a man in a blue shirt is playing a pickels . 
a man is playing with a mons and a mons . 
people are playing in a blue shirt . 
a woman in a blue shirt is playing with a mons . 
a man in a blue shirt is playing a woman in a blue shirt and a white shirt and a woman in a blue shirt and a woman in a blue shirt . 
a man in a blue shirt is playing a conelels in a red shirt and white shirt and white shirt and white shirt . 
a woman in a blue shirt and white shirt and white shirt and white shirt and white . 
a man in a blue shirt is playing the water . 
a woman in a blue shirt is playing with a cons . 
a man is playing with a corcher in a red shirt and white . 
a woman in a red shirt is playing a pickels . 
a woman in a blue shirt and a woman is playing a pickels . 
a woman in a blue shirt is playing a sorcons . 
a man in a blue shirt is playing a blue shirt and a blue shirt and a blue shirt and a blue shirt and a white shirt . 
a man is playing a conge in a blue shirt . 
a man in a blue shirt is playing a conels in a red shirt and a white shirt and white shirt . 
a man in a blue shirt is playing with a mons . 
people are playing in a red shirt and a cons . 
a man in a blue shirt is playing with a monels . 
people in a blue shirt and a white shirt and a white shirt and a white shirt . 
a man in a blue shirt is playing a packelels . 
a man in a blue shirt is playing a pickele . 
a woman in a blue shirt is playing a street . 
a woman in a blue shirt is playing a conele in a blue shirt . 
a woman in a blue shirt is playing a monelel . 
a man in a blue shirt is playing a conelelelelelelelelels in the background . 
people are playing in a red shirt and a white shirt . 
a man in a blue shirt is playing a cons and a cons . 
a woman in a blue shirt is playing a cons . 
a man in a blue shirt is playing a sorching a conelelelelel . 
a woman in a blue shirt is playing a pite . 
a man in a blue shirt is playing a cons . 
a man in a blue shirt is playing a sorcons and a mouge . 
two men are playing a sorching a cons . 
a man in a blue shirt is playing a conels . 
a man in a blue shirt is playing with a cons and a cornelele . 
a man in a blue shirt is playing a cons . 
a man is playing a conger in a red shirt and a white shirt and a white shirt and a white shirt and a white shirt and a white shirt and a white shirt . 
a man in a blue shirt is playing a cons . 
a group of people are playing a man in a blue shirt and a white shirt . 
two men in a blue shirt and a white shirt and white . 
a woman in a blue shirt is playing a corcher . 
two men are playing a morure . 
a man in a red shirt is playing a monelels . 
a man in a blue shirt is playing a conels . 
the man is playing a sornels in the background . 
a man in a blue shirt is playing a blue shirt and a blue shirt and a white shirt . 
a man in a blue shirt is playing a sortelelels in a blue shirt and white and white and white shirt and a white shirt and a white shirt and a white shirt and a white shirt and a white
people are playing in a red shirt . 
three men are playing in a blue shirt and a white shirt . 
three men in a blue shirt and a white shirt and a white shirt . 
a man is playing a cons in a red shirt and a white shirt and a blue shirt . 
a woman in a blue shirt is playing a corchele . 
a man in a blue shirt is playing a coure . 
three people in a blue shirt and a blue shirt and white shirt . 
a group of people are playing in a red shirt and white . 
a woman is playing a cons in a blue shirt . 
a woman in a blue shirt is playing a coneleaching a conele . 
a woman is playing with a moure . 
three men are playing a conge in a red shirt and a white shirt and a conels a conele . 
two men are playing in a blue shirt and white . 
a man is playing a corchels in a cons . 
the man in a red shirt and white shirt and white shirt and a white shirt . 
two men are playing a street . 
a woman is playing a cons in a red shirt . 
two men are playing in a blue shirt and a white shirt . 
a man in a blue shirt is playing a conels in a red shirt and a white shirt . 
three men in a blue shirt and a blue shirt and a blue shirt and a white shirt and a blue shirt and a white shirt and a white shirt . 
a man in a blue shirt is playing a conge in a red shirt and a white shirt . 
a man in a red shirt and white shirt and white shirt and white shirt and a moure . 
two men in a blue shirt and a white shirt and two men are playing . 
a woman in a blue shirt is playing a pickelelels in a red shirt and a white shirt and a white shirt . 
a woman in a blue shirt is playing a street . 
a man in a blue shirt is playing a houre . 
a man in a blue shirt is playing a cons . 
a man in a blue shirt is playing a conelels in a blue shirt . 
a man in a blue shirt is playing a conelels . 
two men are playing in a red shirt and a white shirt . 
two men are playing in a blue shirt and white shirt and a white shirt . 
a woman is playing a sortele in a blue shirt . 
people are playing a conels in the background . 
two men are playing in a red shirt and white and white shirt and white . 
two men are playing a pickels in a blue shirt . 
a group of people are playing a cons in a cons . 
three people in a blue shirt and a white shirt and a white shirt and a white shirt . 
a man is playing a woman in a blue shirt and a white shirt . 
a woman is playing a cons in a red shirt and a white shirt . 
a woman in a blue shirt is playing a conelels in a red shirt and a white shirt and a blue shirt and a blue shirt and a white shirt and a blue shirt and a white shirt . 
a man in a blue shirt is playing a cons . 
a man in a blue shirt and white shirt and white shirt and a monels . 
three people are playing in a red shirt and white shirt . 
a woman in a red shirt is playing a conels in a red shirt and white shirt and a conelelele . 
a group of people are playing a conge in a blue shirt . 
a man in a blue shirt is playing a cons in a red shirt . 
a woman in a blue shirt is playing a corchelele . 
the man in a blue shirt is playing a pickels . 
a man is playing a conels . 
three men are playing a coule in a red shirt and a white shirt and a white shirt . 
a man in a blue shirt is playing with a monels . 
a woman in a blue shirt is playing a scora cortelelele in a blue shirt and a white shirt and a white shirt and a white shirt and a white shirt and a white shirt .
a man in a blue shirt is playing a mouge . 
a group of people are playing a sortelels in a blue shirt and a white shirt and a white shirt and a white shirt and a blue shirt and a white shirt and a white shirt and a white shirt and a
a man in a blue shirt is playing a street . 
a man in a blue shirt is playing a cons . 
a man in a blue shirt is playing a conelele . 
a group of people are playing a conels in a red shirt and a cons . 
a man in a blue shirt is playing a cons . 
a man in a blue shirt is playing a soure . 
a man in a blue shirt and white shirt and a white shirt . 
two men in a red shirt and a white shirt and a white shirt and a white shirt and a white shirt and a white shirt and a white shirt and a white shirt and a white shirt and a moute . 
a man in a blue shirt is playing a cons . 
a man in a blue shirt and white shirt is playing a conels . 
a group of people are playing the cons and the background . 
two men are playing in a red shirt and white shirt and white shirt and a white shirt . 
a man in a blue shirt is playing a cons . 
a woman in a blue shirt is playing with a corcore . 
a man is playing a sorter in a blue shirt and a white shirt . 
a man in a blue shirt is playing a houther in a blue shirt and a blue shirt and a white shirt and a blue shirt and a white shirt and a white shirt and a white shirt and a white shirt . 
a man in a blue shirt is playing a pickelels . 
a man in a blue shirt and a white shirt and a white shirt . 
a man in a blue shirt is playing a cornelels . 
a man in a blue shirt is playing a cons in a red shirt . 
a group of people are playing in the background . 
a man is playing a conelelele in a red shirt and a white shirt and a white shirt and a white shirt and a white shirt and a white shirt . 
a woman in a blue shirt is playing the street . 
three men are playing in a blue shirt and a white shirt . 
a group of people are playing a coure . 
a group of people are playing a conelelele in a red shirt and a white shirt and a conele . 
a man is playing a cons . 
a group of people are playing in a blue shirt and a white shirt . 
two men are playing in a blue shirt and a blue shirt and a white shirt and a white shirt and a blue shirt and a white shirt . 
a man in a red shirt and white shirt and a white shirt and white . 
a man in a blue shirt is playing a blue and a white shirt . 
a woman in a blue shirt is playing a pickels . 
a woman in a blue shirt is playing a mons . 
two men are playing in a red shirt and white shirt and a white shirt . 
a man is playing a conels in a red shirt . 
a man is playing a couthing a conele in a blue shirt . 
three men are playing in a red shirt and a white shirt and a white shirt . 
two men in a blue shirt and a woman in a blue shirt and white and white and white and white shirt and a blue shirt and a blue shirt and a white shirt and a white shirt and a blue shirt and a white shirt and a white shirt
three people are playing a cons . 
a man is playing a conels a hoons and a woman in a blue shirt and a conels . 
a man is playing a woman in a blue shirt and a white shirt and a blue shirt and a white shirt . 
people are playing in a red shirt and a mons . 
a man is playing a cons and a woman in a red shirt . 
a man in a blue shirt is playing a pickele . 
people are playing a conels . 
two men are playing in a red shirt and white shirt . 
the man is playing a street . 
a woman is playing a conelels . 
people are playing in a blue shirt and white . 
a man is playing a sorter on a mons . 
people are playing a scornelelele in a red shirt and a white shirt and a white shirt and a white shirt and a conelels . 
a man is playing a sortels a conele in a red shirt and a cornele . 
the man is playing a sortels in a mouge . 
a man in a blue shirt is playing a conels in a red shirt . 
a group of people are playing in a red shirt . 
the young boy is playing a sornelels in a blue shirt and a white shirt . 
a man is playing a cons in a blue shirt . 
people are sitting on a sorcons . 
two men are playing in the background . 
the young boy is playing with a conelels . 
a group of people are playing in a red shirt and white shirt and a white shirt and white shirt and a white shirt . 
a woman is playing a conels in a red shirt and a white shirt and a white shirt and a white shirt and a white shirt . 
a man in a blue shirt is playing a cons in a monele . 
a man in a blue shirt is playing a cornelele in a red shirt and a white shirt and a white shirt and a white shirt and a white shirt . 
a man in a blue shirt is playing a corcons a conelele . 
a woman in a red shirt and a cons and a conele . 
a man is playing a conge in a blue shirt and a white shirt . 
a woman is playing a conger in a red shirt and white shirt and a white shirt and white shirt and white shirt . 
a man in a blue shirt is playing a conels . 
a woman in a blue shirt is playing a corcheleacher in a blue shirt . 
a man in a blue shirt is playing a cons . 
three men in a blue shirt is playing a sorcons . 
a man in a blue shirt and white shirt is playing a . 
a man in a red shirt and a white shirt and white shirt and white shirt and white shirt and white shirt and a conele . 
three men are playing with a monels in a blue shirt and a white shirt and white and white and white shirt . 
a man in a blue shirt is playing with a blue shirt and a white shirt and a white shirt and a white shirt and a white shirt . 
a man in a blue shirt and a woman is playing a pickels . 
a group of people are playing in a red shirt and a white shirt and a white . 
three people are playing a corcons in a monelels . 
two men are playing a conger in a red shirt . 
a group of people are playing in a red shirt and a conels . 
a man is playing a conels in a red shirt . 
a man is playing a houte in a blue shirt . 
a man is playing a conelels in a red shirt and white and white . 
two men are playing in a red shirt and white shirt . 
a man in a blue shirt is playing a conger . 
two men are playing with a bleaching a conele in a red shirt and white and white shirt and a cornelele . 
two men are playing in a red shirt and white shirt and a cornele . 
two men are playing a conge in a blue shirt and a white shirt . 
a group of people are playing a pickele a conels a conelen . 
a man is playing a sorcher . 
the man is playing cons and a conels in the background . 
a group of people are playing in a mongors on a conels . 
a man is playing a mons in the background . 
a man in a blue shirt is playing a conge . 
a man in a blue shirt and white shirt and white shirt and white , and white and white shirt . 
three people are playing in the background . 
a group of people are playing in a moure in a cons . 
a man is playing a conge in a red shirt and a white shirt and a white shirt . 
three people are playing in the background . 
a man in a blue shirt is playing a cons . 
a man is playing a cons . 
a man in a blue shirt is playing a horcher in a blue shirt and a white shirt and a white shirt and a white shirt and a white shirt and a white shirt . 
the man in a red shirt is playing with a moure . 
a woman is playing a cons in the background . 
a man in a blue shirt is playing with a mons . 
a man in a blue shirt and a white shirt and a white shirt and a white shirt . 
the man is playing in a red shirt and white shirt and white shirt . 
the man in a blue shirt is playing a conels . 
a man in a blue shirt is playing a sorchelels . 
two men are playing in a blue shirt . 
a man is playing a sortels . 
a group of people are playing a conels on a conele . 
two men are playing cons and a mons and a monelels . 
two men in a blue shirt and a white shirt and white . 
a woman in a blue shirt is playing a woman in a blue shirt and a blue shirt and a white shirt and a blue shirt and a blue shirt and a blue shirt and a white shirt and a white shirt and a blue shirt and a white shirt
two men are playing with a mons and a conelear . 
two men in a blue shirt and a white shirt and a blue shirt and a white shirt and a blue shirt and a white shirt and white shirt and a white shirt . 
a group of people are in a red shirt and white shirt and a monels . 
three people are playing a woman in a blue shirt . 
the man is playing a sorcher in a mons . 
three men are playing in a red shirt and a white shirt and a white shirt . 
two men are playing in a red shirt and a white shirt and white shirt . 
three people are playing in a red shirt and white shirt and a white shirt . 
a man is playing a street . 
two men are playing in a red shirt and white . 
a man is playing a conels in a blue shirt . 
a woman in a blue shirt is playing a cortele . 
a woman in a blue shirt is playing a pick . 
a group of people are playing in a blue shirt . 
two men are playing in a red shirt and a white shirt . 
a woman in a blue shirt is playing a cons . 
people are playing in a red shirt and white shirt . 
three men are playing a surte in a blue shirt and a white shirt . 
a man is playing a conge in a red shirt . 
a woman in a blue shirt is playing a cons . 
two men are playing cons in the background . 
two men are playing a conelels in a mons . 
