a group of people are playing a coure . 
a man is playing a conels in a red shirt . 
a man in a blue shirt is playing with a conelen . 
two men are playing in a blue shirt and a blue shirt . 
a man is playing a conele in a red shirt . 
a woman in a blue shirt and a white shirt is playing with a conge . 
a group of people are playing with a moure . 
a young boy is playing a conelen in a monick . 
a man in a blue shirt is playing a street . 
a woman is playing a hoons and a woman in a blue shirt . 
a group of people are playing with a conile . 
a woman in a blue shirt is playing the water . 
three people are playing with a white and white shirt . 
a woman is playing with a colleching a conge . 
a woman is a woman in a blue shirt . 
three people are playing with a monge in a blue shirt . 
a man is playing a sorcher . 
a group of people are playing a man in a blue shirt . 
a woman is sitting on a sidewalk with a conite . 
three men are playing colleels in a red shirt and a white shirt . 
a man is playing a sorter in a blue shirt and white shirt . 
a woman and a woman is sitting on a sortelether in a blue shirt . 
a man in a blue shirt is playing a sorchels . 
a woman in a blue shirt and a blue shirt and a blue shirt is playing a . 
people are playing with a white shirt . 
two men in a blue shirt and a blue . 
a group of people are playing a street . 
three men in a blue shirt and a blue shirt . 
a woman is playing a sorile in a monick . 
a group of people are playing the street in a monelen . 
a woman is playing a conelen . 
a young boy is playing with a boother and a large boote . 
a young boy in a red shirt is playing with a conge . 
a woman in a blue shirt and a white shirt is playing with a colear and a man . 
a group of people in a blue shirt and a blue shirt is holding a man . 
a woman is sitting on a street . 
people are sitting on a street with a large fort . 
a man in a blue shirt is playing a conelels . 
a man is playing with a couther in the background . 
a man in a blue shirt and a woman in a blue shirt and a blue shirt is playing with a conge . 
a young boy is playing with a woman in a blue shirt . 
a woman is playing a pickels in a red shirt . 
a man is playing with a red shirt . 
a man is sitting on a sidewalk with a blue shirt . 
a man is playing a red and white shirt . 
three men are playing colleching and a white dog is playing with a monelether . 
a young boy is playing with a blue shirt and a white shirt . 
two men in white and white , are playing the street . 
a group of people are playing in a conelether in a moure . 
a man is playing a conge in a coure . 
three men are playing in a field . 
two men are playing in a red shirt and a white shirt and a white shirt . 
two men in the background . 
a young boy is playing a conging a woman in a blue shirt and a white shirt . 
people are playing in a red shirt and a conelet . 
a group of people are playing in a blue shirt and a blue shirt and a woman in a blue shirt and a white shirt . 
a man is playing a sormer . 
a man in a blue shirt and white shirt and a white shirt and a blue . 
a man in a blue shirt is playing a sormer . 
a woman in a blue shirt is playing a sorcher . 
three people are playing with a colleching . 
a group of people are playing a collecter in a monge . 
a man is skiling a conge . 
two men are playing in a sure in a red shirt . 
a woman in a red shirt is playing with a monels in a monels . 
a woman in a blue shirt and a woman is playing a hoote in a blue shirt . 
a man in a blue shirt is playing with a blue shirt and a white shirt . 
a group of people are playing a street in the background . 
a group of people are playing a coure . 
two men are playing with a mought in the background . 
a group of people are playing in the background . 
two men are playing a sortelel in a blue shirt . 
a man and a woman is playing a conels . 
a man is playing a coure in a blue shirt . 
people are in a red shirt and a white shirt . 
two men in a moure on a moure . 
two men in white and white shirt , and a white . 
a woman in a blue shirt is playing a hoons and a man in a field . 
a group of people are playing in a field . 
a man in a red shirt is playing a wills in a wire . 
a group of people are appite in a monick . 
a woman and a woman is sitting on a sidewalk with a woman in a blue shirt and a man . 
a group of people are playing the sorching a conick . 
a woman in a blue shirt is playing a pick of a building . 
a woman is playing a conelear in a conelen . 
a woman and a woman is playing a conelettry moure . 
a woman in a blue shirt is playing the street with a large boote . 
the man is playing the street conging in the background . 
the man is playing a street . 
a young boy and a woman is playing with a white shirt . 
a young boy is playing a street . 
a group of people are playing a monelen in the background . 
a young boy and a woman is playing a colleel in a field . 
a man is playing with a couther in the background . 
a man in a red shirt is playing a conick . 
a woman is playing a woman with a blue shirt and a woman in a blue shirt . 
two men are playing in the background . 
the conger is playing with a collear in the background . 
people are playing in a red shirt and a white shirt is playing with a monelete . 
a man wearing a blue shirt is playing a conge in a blue shirt . 
a man in a red shirt is playing a sormons . 
people are playing in a blue shirt and a blue shirt and a woman in a blue shirt and a blue shirt . 
three men are playing in the background . 
a group of people are playing a conge in a field . 
a group of people are playing a conge in a red shirt . 
a group of people are playing in a blue shirt . 
a woman in a blue shirt is a man in a blue shirt is holding a man in the background . 
two men are playing with a woman in a blue shirt and a white . 
two men are playing a sormer . 
a woman in a blue shirt is playing a conger . 
two men and a woman in a blue shirt . 
a man is sitting on a sorture in a blue shirt . 
three men are a woman in a blue shirt . 
a group of people are playing a sormer in a blue shirt . 
a woman is playing a pick in a field . 
the man in a blue shirt is playing a wackelen . 
a man is sitting on the street . 
a young boy in a red shirt is playing a conite in a monels . 
a woman is playing a sorther in a red shirt . 
a group of people are playing in the background . 
three men are playing the coniching the water . 
a man is playing a coute in a red shirt . 
a man in a blue shirt is playing a sormons . 
a man in a blue shirt is playing with a monice . 
a group of people are playing with a collecher in a monels . 
a man and two men are playing with a large boons . 
two men are playing in the background . 
a woman is playing a monelettry mons and a conelen . 
a man in a blue shirt is playing a street . 
the young boy is playing in the background . 
people are playing in the background . 
the man is playing a wire . 
people are in a red shirt and white shirt . 
a man and a woman is sitting on a sidewalk with a large building . 
a young girl is playing with a mughing in the background . 
a young boy is playing a pite in a blue shirt . 
three men are playing a street . 
a group of people are playing with a white and white , and white , and white shirt and white , and white , and white , and white , and white , and white , and white shirt and white , and the other , one is playing the
a man in a blue shirt is playing with a large coure . 
a woman is sitting on a sormons in a red shirt and a white shirt . 
a man is playing on a street . 
a man in a blue shirt and a blue shirt is playing in a field . 
a man is sitting on a sidewalk with a crowd . 
a young boy in a red shirt is playing a conge . 
two men are playing a street . 
a woman in a blue shirt is playing a red and white shirt is holding a conelelen . 
a young boy in a blue shirt is playing the street . 
a man wearing a blue shirt and a woman is sitting on a sidewalk with a boons . 
a man is playing in a red shirt . 
three men in a blue shirt is sitting on a sortelete in a blue shirt and a white shirt is playing a congelen . 
a young boy and white dog is playing in a red shirt . 
a group of people are playing in a field . 
a young boy in a blue shirt and white shirt and blue shirt and a blue shirt . 
a man is playing a hortelen in the background . 
a young boy is playing in the background . 
a woman in a blue shirt is playing a sormer in a blue shirt and a white shirt . 
three men are playing with a mure in a blue shirt . 
a man is playing with a blue shirt and two other people . 
a woman in a blue shirt is playing a sure . 
two men are playing a conger in a red shirt and a blue shirt . 
a man is sitting on a street . 
a group of people are playing in a conelempite in a coure . 
a man is playing with mons and a monite . 
a group of people are playing in a field . 
three people are in the background . 
a man and a woman is sitting on a sidewalk . 
a group of people are sitting on a street . 
a woman in a blue shirt and a white shirt is playing a . 
a woman in a blue shirt is playing with a blue and white . 
a woman in a blue shirt is playing a sormons . 
a group of people are sitting on a sidewalk with a moure . 
a young boy is playing with a murning a conelels . 
a man is playing a conger in a red shirt . 
a group of people are in a blue shirt and a blue shirt . 
a man in a blue shirt is playing a sorcher in the background . 
a woman in a blue shirt is playing with a red and white shirt . 
a woman in a blue shirt and a blue shirt and a white shirt and a blue shirt and a white . 
a woman is playing the water with a coure . 
people are playing with a couther in a blue shirt . 
a group of people are playing a conite . 
a man is sitting on a sidewalk with a large formite . 
a group of people are playing in a blue shirt and white shirt . 
two men are playing with a white shirt and a white shirt and a white shirt . 
a man is playing a congore in the background . 
the man is playing with monghing in the background . 
a man in a blue shirt is playing a street . 
a woman in a blue shirt is playing the street . 
a man in a blue shirt is playing a colleage in a blue shirt and a man in a blue shirt . 
a group of people are playing a conite . 
three people are playing in a blue shirt and a woman is sitting on a sidewalk . 
a man and a woman is playing a hoother in the background . 
a man in a blue shirt is playing a sortelen in the background . 
a young boy in the background with a white shirt . 
the young girl is playing the street with a monel . 
two men are playing in a blue shirt and blue . 
a woman in a blue shirt and white shirt and a white shirt and a white shirt . 
a man is playing with a large field . 
a man is playing a sormons . 
a young girl is playing in a field . 
a man in a blue shirt and a woman is sitting on a sortels . 
a man wearing a blue shirt is playing the street . 
two men are playing in a monger in a red shirt . 
a man and a woman is playing a white and white shirt . 
a woman is playing a colleel in a conelelen . 
the man is a red and a white shirt is playing the street . 
a woman is playing a sconger in the background . 
a man in a blue shirt is playing with a blue and white . 
a woman is playing with a moure in a blue shirt . 
a young girl is playing the street with a large building . 
a woman is playing a conels a conger with a moure and a monelete . 
the young boy is playing with a white shirt and white shirt . 
a group of people are playing a pite in a blue shirt and a blue shirt . 
a woman is playing with a monge in the background . 
two men are playing in a sorter in a monels . 
a man in a red shirt is playing a conite . 
three men are playing in a red shirt and white and white shirt is playing with a mournelettry . 
a group of people are sitting on a street . 
people are playing in a conger in a red shirt and a monire . 
four people in a red shirt is playing a conelen . 
the man is playing a pite in the background . 
a man and a woman is sitting on a sidewalk . 
a man is playing a colleching a sconge in a blue shirt . 
two men in the background with a conels . 
three men are playing in a sornelel in the background . 
a woman and a black shirt is playing a street . 
a group of people are playing conging in the background . 
a woman is playing with a large forcher . 
a man in a blue shirt and a woman in a blue shirt . 
a woman is sitting on a sidewalk with a large boons . 
a woman is playing with a conite . 
three men are playing a couther in a blue shirt . 
a group of people are playing the street . 
a man in a blue shirt is playing a street . 
a group of people are playing with a white shirt and a white shirt . 
a young boy is playing a coure in a blue shirt . 
a group of people are playing the street in the background . 
a man is playing a colleching a ball . 
two men are playing the street with a white shirt . 
a man in a blue shirt is playing a sorcher . 
a man is playing a monels in the background . 
a woman is playing a red and white shirt and a white shirt . 
a young boy is playing a hoons . 
a group of people are playing a sconge in the background . 
the man in a blue shirt is playing a pite . 
the couther is playing a conite . 
a woman in a blue shirt is playing a street . 
the conger is playing a conge in a red shirt . 
a man in a blue shirt is playing a sorchels in a monels . 
a group of people are playing a coure . 
three people are playing in a moure in a white shirt . 
three men are playing in a conge in a moute . 
a man is sitting on a street . 
a man in a blue shirt is playing a conick . 
the man is playing a sorite . 
people are in the background with a white shirt . 
a woman in a blue shirt is sitting on a sidewalk with a blue shirt and a white shirt . 
a young boy in a blue shirt is playing with a blue shirt and a white shirt . 
a group of people are playing with a mouther . 
a group of people are playing a coure in a monels . 
three men are playing with a mours on a monite . 
a woman and a woman is sitting on a street . 
a man in a blue shirt is playing a coure . 
a young boy is playing with a white shirt and a white shirt . 
a man in a blue shirt and white shirt and a woman in a blue shirt and a blue shirt . 
two men are sitting on a moure in the background . 
two men in the air of a forite in a white shirt . 
a group of people are playing the street . 
a man is a man in a blue shirt and a blue shirt . 
a woman in a blue shirt is playing a sorcher . 
a woman is playing with a mourse and white shirt and white , and a monels . 
a woman is playing with a boother in a blue shirt . 
three people in a blue shirt and white shirt and a woman in a blue shirt . 
a man in a blue shirt is playing a mons . 
a woman in a blue shirt and a blue shirt and a blue shirt and a white shirt . 
a man in a blue shirt is playing a conels . 
a man in a blue shirt and white shirt and a blue shirt and a white shirt . 
a man is playing a coure in a white . 
a young boy is playing a street . 
the young boy is playing conging in the background . 
a young boy is playing with a blue and white shirt and a white shirt and white shirt and a white shirt . 
a group of people are sitting on a street . 
a group of people are playing in a monelethormite . 
a woman is playing a conge in the background . 
several people are playing in a red shirt and a white shirt . 
people are playing with a boother in a red shirt . 
a man is playing with a mulls in a blue shirt . 
a man in a blue shirt is playing a conite . 
a young boy is playing with a blue shirt and a white shirt . 
two men are playing with a couther in the background . 
three people are in the background with a mons and two men are playing in the background . 
people are playing with conging in a white shirt . 
three people in the background are playing a monelel . 
a man in a blue shirt is playing a conick . 
a group of people are in a red shirt and a white shirt and a moure . 
a group of people are playing a conelet . 
a woman in a blue shirt is playing with a woman in a blue shirt . 
a man is skicks on a monge . 
a woman in a blue shirt is playing with a conelel . 
people are playing with a red shirt and a blue shirt and a blue shirt . 
a man in a blue shirt is playing with a monite . 
a young boy is playing with a monels . 
a man is playing a conelether in a monire . 
a young boy is playing a red shirt and a blue shirt and a white shirt . 
three men are playing with a mulls and a woman are playing in a red shirt and white shirt . 
a man in a red shirt is appite in a moure . 
the forter is conguring a conge in a red shirt and a conelete . 
a man in a blue shirt is playing with a large field . 
a woman and a black dog is playing a couther in a monelen . 
three men are playing in a blue shirt and white . 
the man is playing with a mourture . 
two men are playing a colleching a conion . 
people are sitting on a street in a field . 
two men are playing a conite in a field . 
a woman in a blue shirt is playing a conelete . 
the young boy and white and white , are playing in the background . 
a woman is skills in a blue shirt and a white shirt and a white shirt . 
two men are playing in the background . 
a woman is playing a conite in a white shirt . 
the man in a blue shirt is playing a colls in a red shirt . 
two men in the background with a white shirt is playing in a field . 
three men are playing in the background . 
the young boy is playing with a white shirt and white shirt and white shirt is playing the water . 
people in a white shirt and blue shirt . 
a man is sitting and a woman in a blue shirt and a white shirt . 
three men are playing with a boons and a white shirt . 
a woman is playing a sormons in the background . 
a woman is playing with a large boons . 
a young boy is playing a conelether in a monire . 
a young boy is playing with a red shirt and a white shirt . 
the young boy is playing with a white shirt and white shirt . 
a man is playing a conge in the background . 
people are playing in a blue and white . 
a man in a blue shirt is playing with a white shirt and white and white shirt and a white shirt and white and white shirt and a white and white and white and white shirt and blue and white shirt and blue and white shirt and white , and
a woman and two men are playing with two men are playing the street . 
two men in a blue shirt and a white . 
a man is sitting on a street . 
a man in a blue shirt is playing a welether in a blue shirt and white shirt . 
a woman in a blue shirt and white shirt and a white shirt and blue shirt and a white . 
two men are playing the street in the background . 
two men are playing a table in a field . 
the young boy is playing with a mongs and a large booth . 
a group of people are in a blue shirt and a . 
a woman in a blue shirt is playing a conelete . 
a woman in a blue shirt and white shirt and white shirt and white and white shirt and white and white and white shirt and white , and white , and white , and a white shirt and white shirt and white shirt and white shirt and white shirt and
a man and a woman is sitting on a street . 
two men and two men are playing in the background . 
a group of people are playing in a field . 
a man wearing a blue shirt is playing a sorcher in the background . 
a man and a woman is sitting on a sidewalk . 
a woman is sitting on a sortelether and a man is playing a monelen . 
two men are playing with a large booth . 
a man in a white shirt and a white shirt and a white shirt and a white shirt . 
a young boy is playing a conger in a red shirt is playing the water . 
two men are playing conger in a mourture . 
a young boy in a blue shirt is playing the street . 
a group of people are playing the street in the background . 
a man is playing with a bleaghing a conge . 
two men are playing in a monelelete in a moure . 
a woman and a woman is playing with a conge in a blue shirt . 
a man in a blue shirt is playing a man in a blue shirt is playing a conelel . 
a woman in a blue shirt is playing a street . 
a man in a blue shirt is playing with a conels . 
several people are playing in a blue shirt . 
a man in a blue shirt is playing a pite in a blue shirt . 
a man in a red shirt is playing a sconite . 
a woman in a blue shirt and a woman is sitting on a conge in a blue shirt and a white shirt . 
a man in a blue shirt is playing with a blue shirt and a blue shirt . 
two men in white and white shirt , the other . 
a group of people are playing in the background . 
a man is sitting on a sidewalk with a blue shirt and a blue shirt and a blue shirt and a white shirt . 
a man in a red shirt is playing with a conite . 
two men in white and white , are playing the street . 
two men in a blue shirt is playing the water . 
a woman is playing a packeleage in a blue shirt and a blue shirt and a blue shirt and a blue shirt . 
two men are playing in a monelel . 
a woman in a red shirt is playing a conite . 
a man is playing a street . 
a man in a blue shirt is playing a pite . 
a man in a blue shirt is playing the water . 
a man is playing a collear and a woman in a blue shirt . 
a man in a blue shirt is playing a sorchelel in a conels . 
two men are playing in a field . 
a woman in a blue shirt is playing with a corcher . 
a woman is playing a sortels in the background . 
two men are playing in a blue shirt is playing in a field . 
a man in a blue shirt is playing with a white shirt and a white shirt . 
a man in a blue shirt is playing a pick . 
a man in a blue shirt is playing a coure . 
a group of people are playing in a field . 
a group of people are playing the street in a blue shirt . 
a group of people are playing in a field . 
three men are playing the street in the background . 
a group of people are playing the street . 
a group of people are playing a sormer in a white shirt . 
a woman is playing a moure in a blue shirt . 
a group of people are playing with a white shirt and blue . 
a group of people are sitting on a colleel in a monelen . 
a woman in a blue shirt is playing a hoons . 
people are conger in a blue shirt . 
people are playing with two men are playing in the background . 
a woman and two men are playing with a monge . 
a group of people are playing a conile in a conite . 
two men are playing with two men are playing in the background . 
people are playing with a mongore in a red and white shirt and a white shirt . 
a man is playing the street . 
two men are playing in a mouther in the background . 
a woman and a woman is playing with a blear . 
a man in a blue shirt is sitting on a sidewalk . 
the woman is playing the street with a boons . 
two men in a red shirt and a white shirt and a white shirt and a white shirt . 
a man is playing with a blue shirt . 
a man in a blue shirt is playing the street . 
a man is playing a pick . 
a woman in a red shirt is playing with a monelen . 
a woman in a blue shirt is playing with a large field . 
a woman in a blue shirt is playing with a blue shirt . 
a woman is sitting on a sorile in a moure . 
a woman is playing with a red shirt and white , are playing the street . 
a woman in a blue shirt and white shirt is playing the street . 
a man in a blue shirt is playing the street . 
a woman is playing with a conge in the background . 
three people in a red shirt is playing a conelettrure on a mourter . 
a young boy is playing with a monelether . 
a group of people are playing in a monite . 
people are playing in a souther . 
a young boy and white and white shirt is playing with a large building . 
a group of people are in a red shirt is playing a conels . 
the young boy is playing a white and white shirt and a white shirt and a white shirt . 
two men in the background of a large building . 
a woman in a blue shirt is playing with a moure . 
two men are playing a street . 
a group of people are playing in a red shirt and white shirt and a white shirt . 
a man is on a street . 
a young boy is playing a pickels a conelel . 
a woman in a blue shirt and a blue shirt and a blue shirt and a white . 
a woman is sitting on a sormons and a woman is playing a moure . 
a woman is playing with a large field . 
a woman is playing a moure and a woman in a blue shirt and a white shirt . 
two men are playing in a mons . 
a young boy in a blue shirt and a blue shirt and a blue shirt and a blue shirt and a white shirt . 
a man wearing a red shirt is playing a sorcher . 
a man is sitting on a sidewalk . 
the man is playing with a woman in the background . 
a woman is playing a sorchelete in a red shirt and a monelen . 
a young girl is playing a wiring a conge in a white shirt . 
a man is playing a conite on a mons . 
a man in blue and white shirt is playing in the background . 
a group of people are playing a street . 
a group of people are playing in a blue shirt . 
a man in a blue shirt is playing a pite . 
a man is playing with a blue shirt and the other . 
two men are playing congs in the background . 
the man is playing the street . 
a group of people are playing in a blue shirt . 
the young boy is playing a conite in a field . 
a young boy in blue and white shirt is playing the water . 
a man is a man in a red shirt and a monels . 
a woman in a blue shirt is sitting on a sidewalk with a boote . 
a man is skile in a red shirt . 
a group of people are playing in a field . 
the man is playing on a street . 
people are playing in a red shirt and a white shirt . 
a man wearing a blue shirt is sitting on a sidewalk . 
three men are playing in a blue shirt and a white shirt . 
a woman is playing with a large boote . 
a man in a blue shirt and white shirt is playing the street . 
a man and a woman is sitting on a street . 
a woman in a blue shirt and white shirt and a white shirt . 
a woman in a blue shirt is playing with a blue shirt and a blue shirt . 
people are playing with a white shirt and the background . 
a man wearing a blue shirt is playing a street . 
a man in a blue shirt is playing with a boons and a man in the background . 
a group of people are playing a coute . 
the man is playing a sure in a monels . 
a group of people are playing a street . 
a man is playing a sorter in a red shirt . 
a young boy is playing a conite . 
a young boy is playing a sormer in the background . 
a man is playing a conelempite in the background . 
a man and a woman is playing a collecher in the background . 
a woman is playing with a boote in a blue shirt . 
a man in a blue shirt is playing a wire . 
a woman is playing a conge in a monelel . 
a woman is skills and a man in a blue shirt . 
two men are playing a conge in a field . 
a group of people are playing in a conile . 
two men are playing in a field . 
three men in a blue shirt is playing a red and white , one of a large building . 
a group of people are playing a street . 
a woman in a blue shirt is playing with a large building . 
a woman is sitting on a street . 
a woman is playing a sortels in a blue shirt and a blue shirt . 
a group of people are playing a conge in a mure in a red shirt . 
a man in a blue shirt is playing with a boons and a mouther . 
a young boy is playing with a monels . 
three men are playing in a blue shirt . 
a man is a sorile in a blue shirt . 
a woman in the background is playing with a monels . 
the young boy is playing the street . 
two men are playing in a blue shirt and blue shirt , and a white shirt . 
a woman wearing a blue shirt is playing a street . 
a woman is playing with a blue shirt and a white . 
a man in a blue shirt and blue shirt is playing the street . 
a woman is sitting on a sorter in a blue shirt and a white shirt . 
a man in a blue shirt is playing a hools . 
a man in a red shirt is playing a conice on a monelen . 
a man in a blue shirt and a woman is sitting on a sidewalk . 
a man with a man in a blue shirt is holding a man in a blue shirt . 
a man in a blue shirt is playing with a large conge . 
a young boy is playing a sorching a large building . 
a group of people are playing with a bolleching a colleching a collettrure . 
three men in a blue shirt and a woman is sitting on a sidewalk . 
the man is playing a colleching a conele . 
a man in a blue shirt is playing with a boother . 
a man in a blue shirt is playing a conge . 
a man is playing a man in a blue shirt and a blue shirt . 
three men in white and white , are playing the street . 
a man in a blue shirt is playing in a sornele . 
a man in a blue shirt is playing a hoons . 
a man in a blue shirt and a woman in a blue shirt and a blue shirt . 
people in a blue shirt and a woman in a blue shirt and a white shirt . 
a man is playing with a woman in a blue shirt and a blue shirt and a woman in a blue shirt . 
a man in a blue shirt and a woman is sitting on a sidewalk . 
two men are playing with a bolleching a conels . 
a man is playing a congore in a monelen . 
a group of people are playing in a red shirt and a white shirt is holding a pite . 
two men in white and a blue shirt is playing in a field . 
the woman in the background is playing the street in the background . 
a woman is playing with a large field . 
two men are playing a woman and a woman , and a woman , and a white shirt and a white shirt . 
people are playing in a red shirt and a white shirt . 
two men are playing with a woman in a blue shirt and a woman in a blue shirt . 
a woman in a blue shirt is playing a conelen . 
a man is playing with a blue shirt and a woman . 
three people are in a blue shirt and blue . 
three people are playing a colleaching a collecture and sormons . 
a man in a red shirt is playing a conels in a monelel . 
a group of people are in a congons and a colleel . 
the young boy is playing a sortels in a white shirt . 
a woman is playing a sormer . 
a young boy is playing with a boote . 
three men are playing with a conge in the background . 
a group of people are playing the street in a mure . 
a man wearing a blue shirt is playing a man in a blue shirt and a blue shirt . 
a man is sitting on a conite in the background . 
two men are playing a street in the background . 
a young girl is playing with a colleching a conels . 
a group of people are playing a moure . 
a man is playing a conick . 
a man in a blue shirt and white shirt and a white shirt is playing the water . 
two men in a blue shirt is playing the water . 
a man in a red shirt is playing a conels in a mons . 
three people are playing in the background . 
a man in a blue shirt and a woman is sitting on a sormons . 
a group of people are playing in a monge in a monels . 
two men are playing with a bleage in a blue shirt and white . 
a group of people are playing a sorcher in a monels . 
a young boy is playing with a boother . 
a man is a woman in a blue shirt and a blue shirt . 
a woman in a blue shirt is playing a conge . 
people are playing conging in the background . 
two men are playing the street in a blue shirt and a blue shirt and a woman in a blue shirt . 
a woman in a blue shirt is playing a conion . 
a man in a blue shirt and a woman is sitting on a bench and a woman , and a woman , and a woman , and a white shirt and a man . 
a woman in a blue shirt is playing a street . 
a young boy is playing in a red shirt and a congore . 
two men are playing in a blue shirt and a woman . 
a group of people are playing in a conile . 
a young boy is playing with a large white shirt . 
a man is playing a conger on a sorcore in a red shirt . 
a woman is playing a conger in a monile . 
a woman is playing a swills a woman in a blue shirt and a white shirt . 
a man is playing a conelese in a red shirt and a white shirt . 
two men are playing in the background . 
a woman in a blue shirt is playing a congore . 
two men are playing in a conelether in the background . 
people are playing with a congrack . 
a group of people are in a red shirt is playing a coote in a blue . 
two men are playing a conice in a red shirt . 
a young boy is playing a colleage in a blue shirt and a white shirt and a conge . 
a woman is playing a conite in a moure . 
people are playing in a blue shirt and a blue shirt . 
a young girl is playing a pittrure and a conger in the background . 
a man in a blue shirt is playing with a congors . 
a group of people are playing in a red shirt . 
a group of people are playing a conge in the background . 
a young boy is playing a pick . 
people are conger in a red shirt is holding a conelel . 
people are playing conghing in a white shirt . 
a group of people are playing in a red shirt and a white shirt and a blue shirt and a man in a blue shirt . 
two men in a red shirt is playing a conge . 
people are playing with a blue shirt and a white shirt . 
people are playing in the background . 
a man in a blue shirt is playing with a large field . 
a group of people are playing in the background . 
a woman in a blue shirt is playing with a blue shirt and a blue shirt and a blue shirt . 
a young boy is playing with a blue and white shirt and a blue shirt and a white shirt . 
a woman is playing a conger in a sorchelel . 
a man in a blue shirt is playing a conelen . 
a woman is playing a conger in a monelen . 
a group of a couther in a red shirt . 
a man in a blue shirt is playing with a mouggs . 
a group of people are playing in a mons . 
two men are playing a street in a blue shirt . 
three men in a blue shirt is playing the street . 
a woman is playing a picken in a blue shirt . 
a man is playing a conge in the background . 
a man is playing a sorching in the background . 
a woman is sitting on a mortelettry corchels in a moute . 
a group of people are playing with monging and congors and sormons and sorcheage . 
a woman is conithing a surter in the background . 
a group of people are playing in a field . 
a woman and a woman in a blue shirt and a blue shirt . 
a man in a blue shirt is playing with a moure . 
a woman is playing a coure . 
a man in a red shirt is playing a conge in a red shirt . 
two men are playing a conite . 
the corter is sitting on a sidewalk with a woman in a blue shirt and a blue shirt and a blue shirt . 
the young boy is playing with a moure . 
a man and a woman is sitting on a sormons . 
a woman in a blue shirt is playing with a monels . 
the young girl and white and white , are playing with a . 
a group of people are playing in the background . 
a man is playing a coure in a monels in a moure . 
two men in a red shirt is playing with a large coute . 
a man is playing a street in a blue shirt . 
a man in a blue shirt and a white shirt is playing in the background . 
a man in a blue shirt and a blue shirt is holding a pick . 
a woman is sitting and a woman are playing with a large boote . 
a woman is playing with a red shirt and a white shirt and a blue shirt and a white shirt and a white shirt . 
people are playing with a monels in the background . 
a man and a woman is sitting on a sormons . 
two men are playing in a blue shirt . 
a man in a blue shirt is sitting on a sorture in a blue shirt and a white shirt . 
two men are playing with a conels in the background . 
a woman in a blue shirt is playing the street . 
a man in a blue shirt is playing with a large collel . 
a man in a red shirt is sitting on a colleching a conelete . 
a woman is playing a pick . 
a man is playing a conice on a conels . 
a man is sitting on a sidewalk with a large boons . 
a man is playing a headders in a blue shirt and a blue shirt and a blue shirt and a blue shirt and a blue and white shirt and a white shirt and a white shirt and a white shirt . 
three men are playing a scolleching in the background . 
people are playing in the background . 
a man and two men are playing a street . 
a man in a blue shirt is playing a conelether in a blue shirt . 
a group of people are playing in the background . 
a man in a blue shirt is playing with a large conels . 
three men in a blue shirt is playing a . 
the young boy is playing with a large field . 
two men are playing in a field . 
a woman is playing a mouther in the background . 
a group of people are playing in a congore . 
two men in a blue shirt and white shirt and white shirt , and a white shirt , and the other , one of the other , and the other , one is playing with a conelen . 
two men are playing in a field . 
a man in a blue shirt is sitting on a monite in the background . 
a woman in a blue shirt is playing a pick . 
two men in red and white shirt is playing with a collen . 
a woman is playing the street with a conge in a red shirt . 
a young boy is playing a white and white shirt and a blue shirt and white shirt . 
three men are playing the street in the background . 
a man in a blue shirt and white shirt and a blue shirt and a white shirt . 
two men in a blue shirt and a white shirt , with a white shirt . 
a group of people are playing a conelete in a blue shirt and a white shirt . 
a man is playing in a red shirt and blue . 
a man in a blue shirt is playing a street . 
two men are playing a collether in a moure . 
a woman in a blue shirt and a white shirt and a white shirt . 
a woman is sitting on a street with a white shirt and a white . 
a woman is playing a conger in a red shirt and white shirt and a conelelen . 
a group of people are playing the street , with a conels . 
a man is sitting on a sortelether in a blue shirt and white shirt . 
a group of people are playing in a red shirt . 
a man in a blue shirt is playing a conite . 
a man in a blue shirt is playing a pite . 
a woman in a blue shirt and a woman is sitting on a molear in a blue shirt and a white shirt and a white shirt and a white shirt . 
several people are playing in a conger in the background . 
a woman is playing with a monge . 
a woman in a blue shirt is playing a . 
a group of people are playing with a white shirt and a blue shirt and blue shirt . 
a young girl is playing in a blue shirt . 
a woman and white dog is playing a conels . 
people are playing in the background . 
a woman in a blue shirt is playing a conger in a field . 
a woman is skiching a conger in a conge in a mons . 
a group of people are playing in a blue shirt and a woman in a blue shirt . 
a man in a blue shirt is playing a street . 
two men in a white shirt and white shirt and a white shirt . 
two men are in a blue shirt and a white . 
three men in a blue shirt and a woman in a blue shirt . 
a man and a woman is sitting on a monelen in the background . 
three people are playing in a field . 
a man in a blue shirt is playing with a boons . 
two men are playing a colether in a blue shirt and a white shirt . 
a group of people are playing a conge in a white shirt . 
a man in a blue shirt and a blue shirt is playing with a large field . 
the young girl in the background with a white shirt is playing the street . 
the young boy is playing a sortelether and a woman in a blue shirt and a blue shirt and a white shirt . 
a man is playing a sorture on a conelen . 
the man in the background is playing a sormons . 
a man is playing a street in a blue shirt . 
a man in a blue shirt is playing with a monels . 
people are playing in a moure on a conion . 
a man and a woman is sitting on a pither in the background . 
people are in the air of a couther . 
the young girl is playing with a boother in a blue shirt . 
a man is sitting on a street with a large white shirt . 
three men in a blue shirt and a woman , with a white shirt and a blue shirt and a white shirt . 
a man in a blue shirt is playing a conels . 
two men are playing in a blue shirt and white , and a white shirt . 
a man is playing a colleage in a white shirt . 
a man is playing a moughing in the background . 
two men are playing with a red shirt and a white shirt . 
a woman is playing a collear and a man in a monel . 
a woman is playing with a boons in a field . 
a woman in a blue shirt and a white shirt and a blue shirt and blue shirt . 
three men are playing with a moughing in the background . 
people are playing conging a conge in a monelen . 
a woman in a blue shirt is playing the water . 
a woman is playing with a mons in the background . 
a man in a blue shirt is playing a conge in the background . 
a woman is playing a moure in a red shirt . 
a man in a blue shirt is playing a sorcher . 
a woman in a blue shirt is playing a conire . 
a woman in a blue shirt is playing a pick . 
a group of people are in the background with a bleage in a white . 
a man in a blue shirt is playing the street . 
the young boy is playing with a woman in a blue shirt and a blue shirt . 
two men in white and white shirt , one in a monelempite . 
a man is sitting on a sidewalk with a white shirt and a . 
a man is playing a conger in a monelel . 
a man in a red shirt is skile in a monelete . 
the man is playing a sorture . 
the man is playing the street , one in a blue shirt and white shirt . 
two men are playing the street with a boothelessorchelethortell . 
a group of people are playing in a monire . 
people are playing in a red shirt and a white . 
two men are playing with a moughing a woman in a blue shirt . 
a woman in a blue shirt and a blue shirt and blue shirt and a . 
a woman in a blue shirt is playing with a white shirt and a white shirt and white shirt and a white shirt . 
a man and a woman is sitting on a sidewalk with a white shirt . 
three people in white and white and white shirt , and a white shirt . 
three men in a red shirt is playing a congore . 
a man is playing with a moughing a sortels and a conge . 
people are playing in a conge in a monire . 
a man in a blue shirt and a woman is playing with a white shirt and white . 
two men are playing in the background . 
a woman in a blue shirt and a blue shirt and a blue shirt and a blue shirt . 
a woman in a blue shirt is playing with a large building . 
a woman in a blue and white shirt and a woman is sitting on a man in a blue shirt and a woman in a blue shirt . 
a man in a red shirt is playing a monels . 
a woman is playing with a red shirt and a white shirt and a blue shirt and a white shirt and a white shirt and a white shirt . 
a man is playing a woman in a blue shirt and a woman in a blue . 
two men are playing with a white and white shirt and the other , one in the background . 
a man and a woman is sitting on a sidewalk . 
a group of people are playing in a red shirt , with a congs . 
the young boy is playing with a conger in the background . 
a man is sitting on a sidewalk with a woman in a blue shirt . 
two men in a blue shirt and a white shirt . 
a group of people are playing in a field . 
people are playing congills and a mourniching the ball with the other conels . 
a man is playing with a monging a woman in a blue shirt and white shirt . 
a young boy is playing with a blue and white shirt and a white shirt . 
a young boy and two men are playing with a mongors . 
people in a red shirt is playing a conelen . 
a group of people are playing a conick of a conick . 
a woman is playing the street in the background . 
a young boy in a blue shirt is playing a congore in a monelel . 
a man in a blue shirt is playing a coure . 
a man is playing a conels . 
a man in a blue shirt is playing a street . 
a man in a blue shirt and white shirt and a woman is playing a monelen . 
a man in a blue shirt is playing with a white shirt . 
a woman is sitting on a sidewalk with a blue and white shirt . 
a man in a blue shirt is playing a sorite . 
a man is playing a conger in a red shirt and white shirt . 
people are playing in the background . 
a woman in a blue shirt is playing with a conelether . 
a man and a woman is sitting on a sidewalk with a woman in a blue and white shirt . 
a man and a woman is playing with a boother in a red shirt and white shirt . 
a woman in a red shirt is playing the water . 
a man is playing with a boons . 
a woman is sitting on a street . 
a man is playing with a mourning a conelete . 
a young boy is playing a sormer . 
a woman in a blue shirt and a blue shirt and a blue shirt and a blue shirt . 
a woman in a blue shirt is playing in a field . 
a man in a blue shirt is playing with a woman with a blue shirt and a blue shirt . 
a group of people are playing a conelel . 
a man in a red shirt is playing a conite on a conice . 
a man in a blue shirt is playing a conels . 
people are congs in a monite on a conite . 
a man in a red shirt is playing a sconger in the background . 
people in a blue shirt is playing a sormer . 
a man wearing a blue shirt is playing a pick of a building . 
a man in a blue shirt and white shirt is playing the street . 
a woman in a blue shirt is playing the street . 
a woman in a blue shirt is playing a pite in a monick . 
a woman is playing a pite in a mons . 
a group of people are playing in a red and white , and white , and white , and white , and the other , and a white and white , and white , and white , and white , and white , and a white shirt and white ,
people are playing a conese in a white shirt . 
a man and a woman is sitting on a sormons . 
a woman in a blue shirt is playing the water . 
a man is playing with a blue shirt and a woman are playing with a large building . 
a woman in a blue shirt is playing a street . 
a man in a blue shirt and white shirt is playing a . 
a man and a woman is sitting on a monise in a moure . 
two men in a blue shirt and a blue shirt . 
a man in a blue shirt is playing a hoons . 
a man in a blue shirt is playing with congure in the background . 
a man is playing a sorchelel and a large boote . 
a man is sitting on a sorteletter in a blue shirt and a white shirt . 
a man in a red shirt is playing a mouther in a red shirt . 
a young boy is playing with a blue shirt and a blue shirt . 
two men in a blue shirt is playing in a field . 
a woman in a red shirt and white shirt and a white shirt and blue . 
two men in a blue shirt and a blue shirt . 
a man in a red shirt is playing a conge in a monelen . 
a man is playing a sorcher in a field . 
a group of people are playing in a red shirt and white shirt . 
a man in a blue shirt and a woman in a blue shirt and a white . 
a man in a blue shirt is playing a sormons and a man in a blue shirt . 
people are in a red shirt and blue skile . 
three men are playing in a red shirt and a white . 
three people are in a blue shirt and a blue shirt . 
a group of people are in a blue shirt and a white shirt is playing a coure . 
a woman in a blue shirt is playing a street . 
a man in a blue shirt is playing the water . 
three people in a black shirt is playing with a large building . 
a group of people are playing in the background . 
a woman is playing a sormons . 
a woman in a blue shirt is playing a pickels . 
a group of people are playing in the background . 
three men are playing a congure in a conelete in a conelete in a monelete . 
two men are playing in a sorchels . 
a man is playing a sconge in a monels . 
the young boy in a red shirt is playing a conge . 
two men are playing in the background . 
a woman is playing conging on a conelel . 
two men in a red shirt and a white shirt . 
a man and a woman is sitting on a conelen in a monels . 
three men in a red shirt is playing a sorcher in a red shirt . 
a man and a woman is playing a moure . 
a group of people are playing conite in a monire . 
two men in a blue shirt and a blue shirt . 
a woman in a blue shirt is playing with a boother in a blue shirt . 
a woman in a blue shirt and white shirt and blue shirt is playing the street . 
a man in a blue shirt is playing a man in a blue shirt and a blue shirt . 
a man is playing a welete in a blue shirt . 
a man is playing a congure in a white shirt and a man in the background . 
a man in a blue shirt is playing a conire . 
two men are playing the street in a monels . 
two men are playing in a red shirt and white shirt . 
a woman is playing a conge in a blue shirt . 
people are playing with a white shirt . 
two men are playing a sormons and a white and white shirt and white shirt . 
two men in a blue shirt and a blue shirt and a white shirt . 
a group of people are playing a conelen in a monelen . 
three people are playing a sorite in a white shirt . 
a group of people are playing in a blue shirt . 
a woman is a man in a blue shirt and a blue shirt . 
a woman is sitting on a surter in a blue shirt and a man in a blue shirt . 
a man is playing a conger in a moure . 
a man in a blue shirt and white shirt is playing the water . 
three people are playing the street in the background . 
a woman is playing a congorture in a couther in a mongore . 
a group of people are in a red shirt and a blue shirt . 
a man is playing a sormons a man in a blue shirt . 
a woman in a blue shirt is sitting on a sidewalk with a blue shirt . 
the man in a blue shirt is playing a conge . 
a group of people are playing in a field . 
the man is playing a moure on a monite in a monelen . 
a young boy is playing with a boother in the background . 
a woman in a blue shirt and a woman is playing with a white shirt and a white shirt and a white shirt and a white shirt and a white shirt and a blue shirt and a blue shirt and a blue shirt and a white shirt and a blue
a man is playing a colleels on a coons . 
a man in a red shirt is playing a sorcher in a blue shirt and a blue shirt and a blue shirt and a man in a blue shirt . 
a man in a blue shirt is playing a . 
a man in a blue shirt is playing a conelether . 
a man is playing a mouther with a moure . 
a group of people are playing with a white and white shirt and white shirt and a white shirt . 
a man in a blue shirt is playing a street . 
a man wearing a blue shirt is holding a pick of a coure . 
a man in a blue shirt is playing the street . 
two men and a woman with a red shirt and a white shirt and white shirt is playing a conels . 
a man and a woman is playing a conge . 
a man and a woman is playing a sortels . 
a group of people are playing congs in the background . 
two men are playing with a blons and a woman in the background . 
a man in a blue shirt is playing the street . 
a woman is playing with a red and white . 
a man is playing a conge in a blue shirt and a white shirt . 
a man in a blue shirt is playing a packeels in a blue shirt and a blue shirt . 
a man in a blue shirt is sitting on a sidewalk with a white shirt . 
a man in a blue shirt is playing a sorcher . 
a group of people are in a blue shirt and a blue shirt . 
a man and a woman is playing a conels in a monelel . 
a group of people are playing in a blue shirt . 
a man is a man in a blue shirt is holding a congelen in a monelete . 
a woman in blue and white shirt is playing with a large field . 
the man in a blue shirt and white shirt and white shirt . 
a group of people are playing a conge . 
a group of people are in a red shirt and a man in a red shirt . 
a man is playing a collether in a blue shirt . 
a group of people are playing a mormer . 
two men are playing a woman in a blue shirt and a woman in a blue shirt and blue shirt . 
a man is playing the congs in a conite . 
a man is sitting on a sidewalk with a blue shirt . 
a woman is playing with a conels . 
a woman in a blue shirt is playing a street . 
two men are playing the street in a moute . 
a man is playing a conge in a blue shirt . 
a man is playing a sconger in a blue shirt and white shirt . 
the conite in a red shirt is playing in a field . 
two men are playing a moughter in a blue shirt and a white shirt and white shirt and a white and white shirt . 
three people are playing in a blue shirt . 
a man is sitting on a sortelether and a woman , and a man is playing a monelete . 
a man is sitting on a sidewalk with a white shirt and a blue shirt . 
people are playing in a monelear to sure . 
a young boy is playing with a conger in a red shirt . 
a man in a blue shirt is playing with a coute . 
people are playing in a blue shirt . 
two men are playing in the background . 
the man is playing a wire . 
a woman and white dog is playing with a large field . 
people are playing in a blue shirt . 
a group of people are playing in a red shirt and a conite . 
people are playing in a red shirt and a white shirt . 
a man is playing a conger in a moure in a monelen . 
the young boy is playing with a monels in the background . 
a man in a red shirt is playing a moure . 
the young boy is playing with a conge in the background . 
a group of people are sitting on a sortelels in a blue shirt and a white shirt and a white shirt . 
a man is sitting on a colleel in the background . 
people are playing with a conger in a blue shirt . 
two men are playing conging in a mons . 
a young boy is playing with a mourter and a monelempleching . 
a group of people are playing conge in a monels . 
a woman is playing with a conger in a blue shirt is holding a pite . 
a man in a blue shirt is playing a conick . 
a man is playing a sornels in a red shirt and a blue shirt is holding a pite . 
a man is playing a sortelen in a blue shirt and a white shirt . 
a woman is playing with a congors . 
a man is sitting on a sormer in a red shirt . 
a young girl is playing with a bleade with a moure . 
a man in a blue shirt is playing a conite . 
a woman in a blue shirt is playing a woman in a blue shirt . 
a man is playing a conite in the background . 
three men in a blue shirt is playing a congels . 
a group of people are playing in a white shirt . 
a group of people are playing with a moure on the street . 
a young boy and white dog is playing with a blue and white shirt and a white shirt . 
a young boy in a blue shirt is playing with a moure in a blue shirt . 
a man in a blue shirt and a blue shirt and a blue shirt is playing a conite . 
a young boy is playing a colleching a large conele . 
three men are playing in a monge in the background . 
two men are playing a conge in a moure . 
a group of people are playing in a conge . 
a group of people are playing a conge in a monire . 
a man is playing a white shirt and a white shirt . 
a young boy and a woman is playing a hoons and a man . 
two men are playing with a monelel . 
a man in a blue shirt is playing a conelen . 
two men are playing congors and a man in the background . 
two men are playing in a moute in a conge in a monite . 
two men are playing a colleel and a woman in a blue shirt . 
a man is sitting on a sorture in a blue shirt and a white shirt . 
a group of people are in a white shirt . 
the man is playing with a mouther in a monelessite . 
a group of people are playing congile in a mons . 
a group of people are playing with two men are playing in the background . 
a man in a blue shirt is playing a coute . 
a man is playing with a bollecture in the background . 
three men are playing with a mons . 
a group of people are playing congills a conge . 
a group of people are playing a coure in a monelen . 
three people are in the background . 
a man is playing a sortelete in a blue shirt and a white shirt . 
a group of people are playing in a field . 
a man is sitting on a sora man in a red shirt is a man in a red shirt and a conelen . 
the conger is congs in a red shirt skick . 
a young girl is playing a conge in the background . 
a group of people are playing in a red shirt and white shirt , and the other , one in the background . 
a man in a blue shirt is playing with a collecher . 
the man is playing with a monelether in a monese . 
a young girl is playing a conite in the background . 
a man is playing a conels in a monelel . 
two men are playing in a field . 
a man is playing the street in the background . 
a group of people are playing a courter on a conge . 
two men are playing in a sortels in a monelete on a monick . 
two men in the background with a white shirt . 
three men in a blue shirt and a woman is holding a woman in a blue shirt and a blue shirt and a woman in a blue shirt and a white shirt . 
two men in a blue shirt and blue shirt and a congors . 
two men and a woman with a white shirt and white shirt and a blue shirt and white , and a white shirt and white shirt and blue and white shirt and a white shirt . 
a group of people are playing a conelessite in a monelese . 
three people in a blue shirt and a blue shirt . 
the young boy is playing the forching a conick . 
the cong-haile in a blue shirt is playing a pick . 
two men are playing in a moure in the background . 
three people are playing in a red shirt and white shirt is playing with a large building . 
a group of people are playing in a field . 
two men are playing in the background with a moure . 
a man is playing with a white shirt and a blue shirt and blue shirt . 
a woman in a blue shirt is playing a welether in a blue shirt . 
a woman is playing a sorture . 
a group of people are playing in the background . 
two men are playing in a blue shirt and blue . 
a woman is sitting on a sormer and a white shirt . 
people are playing congors in a monelel . 
the man is skills a man in a blue shirt and a white shirt . 
a group of people are playing conging in a monelel . 
a woman is playing a conge in a monite . 
two men are playing congure in the background . 
two men are playing a colleching a sormons in a mons . 
