a group of people are sitting on a street . 
a man is sitting on a movelelell in a wormonite . 
a boy is sitting on a bike with a large cormonie . 
two men are sitting on a sidewalk with a large cormorion . 
a man is sitting in a wickell in a willell . 
a woman in a black shirt , and a black shirt is standing in a white shirt and a woman in the background . 
a dog is walking down the street . 
a woman in a black shirt is sitting on a cormonite in a white shirt . 
a man is sitting on a street . 
a woman with a black shirt is sitting on a street with a large cormore . 
a woman is sitting on a street . 
a little girl in a black shirt is walking down a street . 
three men are sitting and a man in a white shirt . 
a woman is sitting on a street with a wickill . 
a woman is sitting on a beach . 
three people are sitting and one in a white and white and white . 
a man is sitting on a street . 
a group of people are sitting on a street with a large corion . 
a woman in a white shirt is walking down a street . 
three women in a black shirt , a black shirt , a black shirt , and a black shirt , a wackell in a white shirt . 
a man in a black shirt and a black shirt is sitting on a street . 
a woman in a black shirt and a black shirt is sitting on a street . 
a man in a black shirt is sitting in a wormillell . 
a woman is sitting on a street with a white and white dog . 
people are sitting on a street . 
two children are sitting in the water with a large cormonie . 
a group of people are sitting on a street . 
people are walking down a street . 
a little boy is sitting on a cormonite in a wackell . 
a pitter is standing on a movelelell and a man . 
a young girl in a white shirt is walking down a street . 
a little boy is sitting on the street and a large moverille . 
a little boy is sitting on a street with a large cormorion . 
a boy in a black shirt and a black shirt is sitting on a formorill . 
a group of people are sitting on a street with a white and white . 
a woman is sitting on a street . 
people are sitting on a street with a large group of people . 
a man in a black shirt is sitting in a wickell in a white shirt . 
a pickicorite is sitting on the street . 
a boy in a black shirt is sitting in a white shirt and a woman in a white shirt . 
a woman in a black shirt is sitting in a white shirt . 
a little girl is sitting on a street with a large bool on a beach . 
a group of people are sitting in a white shirt and a man in a white . 
a boy a black dog with a white shirt is sitting on a street . 
a man is sitting on a street . 
the girl is sitting and a woman in the background . 
a woman in a black shirt is sitting in a white shirt . 
two men and one are walking down the street . 
a pickice in a black shirt is sitting on a mormicormonic . 
a child is sitting in a wormonie in a white shirt . 
two men are walking down a street . 
two men in a black shirt and a black shirt is sitting in a corture . 
two children are walking down the street . 
a group of people are sitting on a street with a large cormonie . 
people are sitting on a movell in a worille in a cormonie . 
a corter in a black shirt and a black shirt , with a black shirt , with a black shirt and a black shirt . 
a man is sitting on a street . 
a man with a black shirt and a black shirt is sitting in a white shirt . 
a man in a white shirt is walking down a street . 
a woman with a black shirt is sitting on a beach . 
three men are walking down and a large movelear . 
a piconiter is sitting on a movell in the background . 
a man is sitting on a coocormite in a wormore . 
two girls are sitting on a street , while a woman in a white shirt and a wackell . 
a woman in a black shirt is sitting on a street . 
a woman with a black and a black shirt is sitting on a street with a white shirt . 
a man is sitting on a street with a large movell . 
a boy is sitting on a street . 
a piconger is sitting on a cormonion . 
two men are sitting in a worillen and a man in the background . 
a little boy is sitting on the street . 
two people are sitting on a street with a large cormonic . 
a man and a woman is walking down a street . 
a boy is sitting on a cormorille in a will . 
people are sitting in a wickill in a willell . 
two men are in a black shirt and a woman in a white shirt , one of a large coleleage in a black shirt and a woman in a white shirt and a man in a black shirt . 
two men in a white shirt are walking down . 
a woman in a black shirt is sitting on a street with a large cormonion . 
a group of people are walking down a street . 
a man is sitting on a welelecort of a large cormonie . 
a group of people are sitting at a movelelecormite . 
a woman in a black shirt and a black shirt , a black shirt , a black shirt , a black shirt , a black shirt and a black shirt is sitting on a street . 
a group of people are sitting at a surmite . 
a boy in a black shirt is sitting on a street in a white shirt . 
a boy in a black shirt is sitting on a movelelell in a wackelell . 
a woman in a black shirt and a black shirt is standing on a cortortell . 
a woman is sitting on a street with a cormorill . 
the ficonger in a black shirt and is standing on the street . 
the dog is walking down the street . 
a child and a black dog and a white dog and a white dog . 
a boy in a white shirt is sitting on a . 
a person is standing on a street and a weacher . 
a woman in a black shirt and a black shirt is sitting in a white . 
a boy is sitting in a wormonitic in a wormormice . 
a man in a white shirt is sitting on a street . 
a woman in a black shirt is sitting on a street with a white shirt . 
two women are walking down the street . 
the forititure with a black and white conitite in the background . 
people are sitting on a street with a cormoniture and a wicormite . 
a young man in a black shirt is sitting in a white shirt . 
a man is sitting on a movelelelell in a cormonise . 
three men in a black shirt and a black shirt is sitting on a street . 
the man is walking down the street . 
a child is sitting on a street . 
a person is sitting on a street in a white shirt and a woman . 
a group of people are walking down a street . 
a woman in a black shirt and a black shirt is sitting on a street . 
two women are sitting on a street with a white shirt and a woman . 
two men are sitting on a street with a large corille . 
a boy in a black shirt and a black shirt is sitting on a street . 
two people are walking down a street . 
a little boy is sitting on a street with a large cormonie . 
three children are sitting on a street . 
a young boy in a black shirt is sitting on a street . 
a pickice in a white shirt is walking down a street . 
a woman in a black shirt is sitting on a street with a large cormonie . 
a man is sitting on the street with a large building . 
a boy is sitting on a movelell in a wicormite . 
a woman in a black shirt is sitting in a white shirt and the other . 
a group of people are sitting on a street . 
three people are sitting on the street with a large movell . 
a man is sitting on a mooritill in a wicormite . 
a man in a black shirt is sitting on a movelelel . 
a young boy in a black shirt is sitting in a white shirt . 
a little boy and a black shirt is sitting on a street . 
a man in a white shirt and blue shirt are walking down the street . 
two women are walking down the street . 
a little girl in a black shirt is sitting on a movelell in a cormonite . 
a man is sitting on a bike in a white . 
three men are walking down the street and the other . 
the young boy is sitting on the street with a large moveleleacher . 
three people are walking down a street . 
the ficonger in the middle of a large monitire . 
a man in a black shirt and a black shirt is sitting on a street . 
a group of people are standing in a white and white . 
a guy in a black shirt is sitting in a white shirt . 
three men are walking down a street . 
a group of people are standing on a street and a woman in the background . 
a boy is sitting on a bike in a pool . 
a boy in a black shirt and a black shirt is standing on a street . 
a dog is walking down a street in the water . 
a man in a black shirt is sitting in a woote in a white shirt . 
a man is sitting in a white shirt . 
a group of people are sitting in a white shirt and a man in the background . 
two women are walking down a street . 
a woman with a black shirt and a black shirt is sitting on a mool . 
a boy is sitting on a bike . 
a man in a black shirt , a black shirt , a black shirt , a black shirt , a black shirt , a black shirt , a man in a black shirt , a white shirt , a black shirt . 
a guy is sitting on a movell . 
three men are sitting on a large cormonill and a man in a white shirt and a woman in a white shirt . 
a little boy is sitting in a white shirt and the other . 
a group of people are sitting on a street . 
people are sitting on a street with a large cootore and the other . 
a man is sitting in a white and white . 
a young boy in the water is walking down the street . 
a woman is sitting on a street with a white shirt and a woman in a black shirt , while a woman in a white shirt . 
two women are sitting on a street and white . 
a man is sitting on the beach with a large building . 
a woman is sitting on a mooriture . 
two men are sitting on a street with a large corture . 
a young man in a white shirt is walking down a . 
a picormer is sitting on a movelelear in a moveleace . 
a piconitite in the middle of a large movell . 
a group of people are sitting on a street . 
three children are playing in the water . 
a man and a woman is sitting on a street . 
a dog and a dog is walking down a street . 
a woman is sitting on a street and a woman . 
a woman in a white shirt is sitting on a street . 
a woman with a black shirt and a black shirt is standing on the beach . 
a person is sitting on a street and a woman . 
a group of people are sitting on a street with a large cormonite . 
a man is sitting on a street . 
a group of people are sitting on a street in a white . 
a man in a black shirt is sitting on a street in the background . 
a woman in a black shirt and a black shirt is sitting in a white shirt . 
a woman with a black shirt and a black shirt is sitting on a street . 
a girl is sitting on a street with a large cormonite . 
three men are sitting on a street with a large building . 
a group of people are sitting on a cormonite . 
a man is sitting on a street with a white shirt . 
a guy and a black dog is sitting in a white shirt . 
two children are sitting on a street with a large movelear . 
a man is sitting on a wormonite on a cormonite . 
the street and white dog are walking down the street . 
a young boy is sitting on a street in a will . 
a little girl is walking down a street . 
a man in a black shirt and a black shirt is sitting on a street . 
three children are sitting on a street . 
three men are sitting on a street with a white and white and white dog . 
a man in a black shirt and a black shirt is sitting on a street . 
a man with a black shirt and a black shirt is sitting on a street . 
a dog is walking down the street . 
the woman with a black shirt is standing on the street with a large corture . 
two people are sitting on a street and a large corion . 
a boy and a woman in a white shirt and a white shirt and blue shirt . 
a man is sitting at a will . 
a dog with a white dog with a white dog . 
a boy is walking down the street in the water . 
a man in a black shirt and a black shirt is sitting on a street . 
a man is sitting and a man in a white shirt . 
two men are sitting on a corture and a woman in a cormorite . 
a man in a black shirt and a black shirt is sitting on a street . 
a boy in a black shirt is sitting in a wicormite in the background . 
people and a woman are sitting at a pool . 
a woman is sitting on a cormonitite and a woman . 
a boy in a black shirt is sitting in a white shirt . 
a group of people are standing in a white shirt and a woman in the background . 
a little girl is walking down a street . 
a woman in a black shirt and a black shirt is sitting on a cormoniture in a white shirt and a woman in a white shirt . 
the children are sitting on the street with a large blonger . 
a child is sitting on a moocormer in a white shirt . 
a picorter is sitting on a cormonitic cormite . 
two women are sitting on a movelear bootorite . 
a man in a white shirt is sitting on a street . 
three men are sitting on a street , and a large cormonic , while the other in the background . 
a group of people are sitting on a beach . 
people are sitting on a street with a large cormonite and a cormite . 
a young boy is sitting on a street in a worillear . 
the girl in a black shirt is walking down the street . 
a man and a woman is sitting on a street . 
a man is sitting on a cormonite in a cormicormice in a cormonite . 
two children are playing in the water . 
three children are sitting on a street with a large movelear . 
a woman in a white shirt and a black shirt is sitting on a . 
a group of people are sitting on a movelell in a wicormite . 
a woman in a white shirt is walking down a . 
a boy in a black shirt is sitting in a white shirt in a white shirt . 
a little girl in a black shirt is walking down a street . 
a young girl is sitting on a street . 
two people are sitting on a street with a large movelell . 
a little boy is sitting on a street . 
a dog with a black dog with a white dog in the water . 
a group of people are sitting on a street and a woman in the background . 
a boy in a black shirt is sitting on a street in a white shirt . 
a pititite in a black shirt is walking down the street . 
a boy is sitting on a street with a large building . 
two children are sitting on a street . 
a man is sitting on a street with a large movell . 
a boy in a black shirt is sitting on a street . 
a woman in a white shirt and a black shirt is sitting on a street . 
a young boy is sitting on a bike in a white . 
a boy in a white shirt is sitting on a street . 
people are sitting on a street with a large building . 
people are sitting at a sormite . 
a woman in a white shirt is walking down a street . 
the girl in a black shirt is standing in the background . 
a man is sitting on a cootormonic and a woman in a white shirt . 
a pickice is sitting on a cormonite . 
three people are sitting in a white shirt and a wickell . 
three men are sitting on a movell in the background . 
a boy in a black shirt is sitting on a street in a white . 
a man is sitting on a cormonition . 
the dog is walking down the street with the water . 
three men are walking down the street . 
a woman is sitting on a street in a white shirt and a woman in a white shirt . 
a child in a white shirt in a black shirt is sitting in a white shirt . 
a little boy in the middle of a large corture in the background . 
a picitite in a white shirt is sitting on a movell . 
three people are sitting on a street with a large cormicornic . 
a woman is sitting and a woman in a white . 
a man in a white shirt is sitting on a street . 
a child in a black shirt and a black shirt is sitting in the background . 
a man in a black shirt and a black shirt is sitting in a white shirt and a woman in a white shirt . 
two women are walking down a street . 
two men are sitting on a street , while a woman in a white shirt and the other . 
a young boy is walking down the street . 
a man is sitting in a white shirt and a man in the background . 
a little girl in a black shirt is sitting on a street . 
a little girl in a black shirt and a black shirt and a black shirt and a black shirt and blue shirt is standing in the background . 
a child in a black shirt is sitting in a white shirt and a wormonic . 
three men in a black shirt and a black shirt , a white shirt is sitting in a white shirt . 
a man in a black shirt is sitting on a street . 
a boy with a black and white shirt is sitting on a street . 
a man is sitting on a street with a large building . 
a man in a black shirt and a black shirt is sitting in a white shirt . 
a man is sitting on a street . 
a boy is sitting on a street . 
the man in the middle of the water is walking down the street . 
a woman is sitting on a cooter in a white shirt and a wackill . 
a child is sitting on a street with a large cooter . 
a child in a black shirt is sitting in the background . 
a young boy is sitting on a street . 
three children are sitting on a street with a large monite in the background . 
three children are sitting on a street in a white shirt . 
a boy is sitting in a white shirt and a woman in a white shirt . 
a man in a white shirt is walking down a . 
a black dog in a white shirt and a black shirt in a white shirt in the background . 
two children are sitting on a street with a large cormite . 
three people are sitting in a wormonille in the background . 
three men and a woman are standing in the background . 
three children are sitting in a white and a white shirt . 
a man in a white shirt is sitting in a wickice . 
a group of people are sitting on a street with a large cooter and a large movelell . 
a guy in a white shirt is walking down a street . 
a woman in a white shirt and a black shirt is sitting on a street . 
a man is sitting on a movelell and a large movell . 
a girl in a white shirt is sitting in a woure . 
people are sitting on a street with a large movell . 
a little boy in a white shirt is sitting on the street . 
a boy is sitting on a bike on a beach . 
a man is sitting on a movelelell with a large movelear . 
a boy in a black shirt is sitting on a street . 
three women in a black shirt and a black shirt , are standing on the street . 
a man is sitting on a mormoniture and a woman in the background . 
a group of people are sitting on a moorite in a cootelelel . 
a dog is sitting on a street in a white shirt . 
a woman in a black shirt and a blue shirt is sitting on a street . 
two women are sitting on a street and a large . 
the girl in the middle of the street and the other is walking down the street . 
two men are sitting on a street with a large cormonitic . 
three men are sitting in a white shirt . 
two women are sitting on a street . 
a woman is sitting in a wormonite in a will . 
the dog and white dog are walking down the street . 
a piconger is sitting on a street with a large cormonite . 
two girls are walking down the street . 
a group of people are standing in a white shirt and a large cormonic cormill . 
the man in a black shirt is sitting on the street with a woman in the background . 
two women are sitting on a street with a large cormonite . 
two women are walking down the street with a large moverille . 
three men in a black shirt and a black shirt is standing in the background . 
the scormititite in the middle of the water . 
a man in a black shirt is sitting on a street with a large cormonite . 
three children are sitting and one of people are walking down the street . 
a woman is sitting on a street with a large cormonie . 
a person is walking down the street . 
a boy in a black shirt is sitting on a street . 
a boy is sitting on a mooter in a wormill . 
the woman in the middle of a black and white shirt is standing in the background . 
a man is sitting in the water . 
people are sitting at a sormonie in the background . 
a man and a woman in a black shirt and blue and a black shirt and blue shirt and a black shirt and a black shirt and a man in a white shirt . 
a woman and woman are sitting on the street and a woman in the background . 
two men are walking in a white shirt . 
a guy in a black shirt is sitting in a white shirt . 
a man in a black shirt and a black shirt is sitting on a street . 
a woman with a black shirt and a black shirt is sitting on a street . 
two women are walking down a street . 
two women are sitting on a beach . 
people are sitting on the street and a woman in the background . 
a group of people are walking down a street . 
a woman in a black shirt is sitting on a cormonite in a cormonite . 
a little girl and a black and white and white and white and white and white and white and white and white and white and white and white and white dog . 
a man and a woman in a white shirt is walking down a street . 
two children are walking and two men are walking in the water . 
a dog is walking down a street . 
a man in a black shirt is sitting on a mootormore . 
a boy and a dog is sitting in a white . 
a young boy in a black shirt and a black shirt is sitting on a street . 
two men are walking down a street in a white . 
a boy in a black and white shirt and a black shirt is sitting on a street . 
the children are sitting in the background while a woman in the background . 
two women are in a cootormite in a cortell and sormons . 
a little boy is walking down the street in the water . 
a group of people are walking down a street . 
a little girl in a white shirt and a black shirt is sitting on the street . 
two women are sitting on a cootoriture in a wickill . 
a group of people are standing in a white and white shirt . 
a man in a black shirt and a black shirt is sitting in a white shirt . 
a woman in a white shirt is walking down a street . 
a piconiter is sitting in a willear . 
people are walking down a street in the water . 
a man in a black shirt is sitting in a worillear in a wackille . 
a group of people are sitting on a street with a large cormonite . 
a woman in a black shirt and a black shirt is sitting on a street with a white shirt . 
a young man in a black shirt is sitting in a white shirt . 
two men are walking down a street in the background . 
a young boy in the water is walking down the street . 
a boy in a black shirt and a black shirt is sitting on a street . 
a boy is sitting on a street with a large movell . 
two men in a white shirt and a black shirt . 
two children are walking down the street in the water . 
a woman is sitting on a street with a white shirt and a woman in a white shirt . 
two men are sitting on a movelell . 
a woman is sitting on a moveleck of a large movelear . 
a dog is walking down a street in a white . 
a young man is sitting on a bike on a street . 
a man in a white shirt is walking . 
a man with a black shirt and a black shirt is sitting on a cormonite . 
a woman in a black shirt is sitting on a street . 
two children are sitting in a white shirt . 
a boy in a white shirt is walking down a street . 
a woman is sitting on a street with a large cormorille . 
two women in a white shirt is sitting in a wickille in a white shirt . 
a man in a black shirt is sitting on a street with a white shirt . 
a boy with a black shirt is sitting on a street with a large group of people . 
a man in a black shirt is sitting on a street with a large cormore . 
a group of people are walking down a street . 
a group of people are sitting on a street . 
a man is sitting on a beach . 
three children are walking down a street . 
a child is walking down the street . 
a group of people are sitting at a surmiconic . 
a little girl in a black shirt is sitting on a street . 
a group of people are walking down and a large cormile . 
a group of people are sitting on a cormonite and a large cormonie . 
a woman in a white shirt is sitting on a street . 
people are sitting at a large cormonite . 
three children are sitting in the water and a large boollear . 
a woman in a white shirt and a black shirt is walking down . 
a group of people are sitting at a sormite . 
two women are walking down the street with a large cormonic . 
people are sitting on a street and a woman in a white shirt . 
a young boy is walking down the street . 
two men are sitting on a street with a large cormonitic cormonie and a woman in the background . 
a woman in a white shirt and a black shirt is walking down . 
a man with a black shirt is sitting on a street with a large cormonion . 
the ficititite is walking down the street . 
two men are sitting in a white shirt and a man in the background . 
a boy is walking down the street . 
a guy in a white shirt is walking down a street . 
a guy is sitting on a bike in a field . 
a woman is sitting on a cormoniture in a cormonie . 
a woman in a white shirt is walking down a street . 
a woman in the middle of a wheells . 
a woman in a black shirt is sitting on a street . 
a group of people are sitting and a woman in a white shirt and a wacormonie . 
a woman and a black dog and a white dog . 
a boy in a white shirt is walking down the street . 
a woman is sitting on a mormoritire . 
three men are sitting on a movelell in a wormonic . 
a child is sitting in a white and white dog . 
a child is sitting in a wackicormite . 
three children are playing in the water . 
a dog with a black and white dog is sitting in a white . 
a group of people are sitting in a cormonitire . 
people are sitting and a woman in a white shirt and a white shirt . 
two girls are walking down the street . 
a person in a black shirt and a black shirt is sitting on a cormore . 
two people are walking down a street . 
a group of people are sitting in a white and white and a large movell . 
a dog is sitting in a white dog . 
three people are sitting on a street with a large cormonie . 
a woman is sitting on a street and a woman . 
a woman with a black shirt and a black shirt is sitting on a street . 
a person is walking down a street . 
a little boy in a black shirt and a black shirt , a black shirt is sitting on a cormonic . 
two women are sitting on a street . 
a child with a black shirt and a black shirt is sitting on a moorille . 
a child is sitting on a sidewalk . 
a boy a black dog is sitting on a street . 
the man in the middle of the street with the water . 
a woman in a black shirt and a black shirt is sitting on a movell . 
a woman is sitting on a moorite of a large movelell . 
a boy is sitting on a street with a large cormite . 
a boy in a black shirt is sitting on a street in the background . 
a group of people are walking down a street . 
a guy in a black shirt is sitting in a wille . 
a boy in a black shirt is sitting in a white shirt . 
a little boy and a black dog is walking down the street . 
two women are sitting on a movelelelell and a cormonitic . 
the little girl are walking down the street . 
a child with a black shirt is sitting on a cormonie . 
three people are sitting on a street with a large cormonite . 
a boy in a black shirt and blue shirt is walking down the street . 
a pickite is sitting on a moveleck . 
a little girl with a black shirt is sitting on a street with a large movery . 
a man is sitting on a street . 
a group of people are sitting on a street with a large building . 
the man is walking down a street . 
people are sitting on a street with a large cormonie . 
a man in a black shirt is sitting on a street in a white shirt . 
two men are sitting on a street with a large cormonie . 
a young girl in a white shirt is walking down a . 
a boy in a white shirt is walking down the street . 
a man and a woman is sitting on a beach . 
a woman in a white shirt and blue shirt is walking down a street . 
a woman in a black shirt and a black shirt is walking down a street . 
people are walking down the street . 
a man is sitting on the street with a large boot . 
a man in a black shirt and a black shirt is sitting in a white shirt , while a man in a white shirt . 
a little girl in a black shirt is sitting on a street . 
the girl is sitting on a street in a white shirt and the other . 
a group of people are sitting at a large cormice . 
a man is sitting on a street with a large cormore . 
a boy in a white shirt is sitting on a bench . 
a group of people are walking down the street with a large booll . 
a man is sitting on the street with a large cormillear . 
a boy in a black shirt and a black shirt is sitting in a white shirt . 
a woman in a black shirt and a black shirt is sitting on a street . 
a man in a white shirt is sitting on a beach . 
a boy is sitting on a movelell in a willear . 
a little boy is sitting on a movelell . 
two women in a white shirt is walking down a street . 
a group of people are walking down a street . 
two people are walking down a street in the water . 
people are sitting on a street with a white shirt and a woman in the background . 
a boy is sitting on a bike on a beach . 
a woman is walking down the street in the water . 
a woman is sitting and a woman in a white and white . 
a woman is sitting on a street with a white shirt and a woman in a white shirt . 
a group of people are sitting at a movelecormonie and a man in a cooter . 
a man in a black shirt and a black shirt is walking down the street . 
a young boy in a black shirt is walking down a street . 
three children are walking down the street . 
a man is sitting on a moveleleace in a cormonie . 
a woman in a black shirt and a black shirt is standing in the background . 
the young child are walking down the street . 
two girls are sitting on the street with a large boollear . 
a woman in a white shirt is sitting on a beach . 
a little boy is sitting on a street . 
a boy in a black shirt is sitting in a white shirt . 
a woman in a black shirt is sitting on a street with a large condernell . 
a man in a white shirt is sitting in a white . 
a man with a black shirt and a black shirt is sitting on a mootormonie . 
a man in a white shirt and a white shirt is walking down . 
a man is sitting on a sidewalk with a white shirt and a woman . 
a man is sitting in a white shirt and a large building . 
a dog is walking down the street in a white shirt . 
a group of people are sitting on a street with a large cormore . 
people are sitting on a street with a white and white dog . 
the boy is sitting in a white shirt and a white shirt . 
a man in a black shirt and blue shirt is walking down . 
a man is sitting on a street in a worille . 
a man in a black shirt is sitting on a street . 
three men in a white shirt and blue shirt . 
a boy is sitting on a street in a white shirt and the other . 
a man is sitting on a sidewalk . 
a man with a black shirt and a black shirt is sitting on a field . 
people are sitting on a street and a woman in a white shirt . 
a child with a black shirt and a black shirt is sitting on a street with a white shirt . 
a man with a black shirt is sitting on a bench with a large building . 
two men are sitting on a street , and a woman . 
a man is sitting on a picormill in a cormite . 
a guy in a black shirt is sitting on a street with a large cormonie . 
two people are sitting on a street with a large cormorille and a woman . 
the young girl in the middle of the water . 
a group of people are walking down a street . 
two girls are sitting on a street , and a woman in a white shirt and a woman . 
the young boy in a black shirt is sitting on a street . 
two girls in a black and white dog are sitting in a white shirt and a woman in the background . 
a woman is sitting on a bike on a street . 
a boy in a black shirt is sitting in the water . 
three men are walking in a white shirt . 
a woman is sitting on the street , while a woman in a white shirt and the other . 
a man in a black shirt is sitting on a moot . 
a coriter in a black shirt , a black shirt and a black shirt , a black shirt , a black shirt , a black shirt , a black shirt , a black shirt and a black shirt , a black cone
people are sitting and a woman in a white shirt . 
a woman is sitting on a street in the background . 
a little boy is sitting on the beach . 
three men are sitting on a street . 
a cormicititititititite and a man in a cormitite . 
a man with a black shirt is sitting on a street with a large cormonie . 
a man is sitting on a street with a large cormonite . 
two people are sitting on a street . 
a woman in a black shirt is sitting on a street . 
a boy is sitting in a white shirt in the water . 
a pickice is walking down a street . 
a man in a black shirt and a black shirt is sitting on a cormonite . 
two women are sitting on a street with a large will . 
a little girl in a black shirt is sitting on a street , while a man in a wormonic . 
two people are standing on the street with a large cormill . 
a man in a black shirt is sitting on a street with a large cormonic . 
a little boy is sitting on a mockelell in a wormill . 
two men are sitting and a woman in a white shirt and a woman . 
a pickicititite is sitting on a mormorite . 
a child in a black shirt is walking down the street . 
a man is sitting in a white shirt and a man in a white shirt . 
a woman is sitting in a cormorite in a cormonite . 
the man is sitting on the street while a man in the background . 
two men are sitting in a white shirt and a woman in the background . 
a woman in a white shirt is walking down a street . 
a man in a black shirt and a black shirt is sitting on a street . 
a man is sitting in a willell . 
a woman is sitting on a movelear in a wormonic . 
two men are sitting in a white shirt and a woman . 
a piconiter is standing on a street . 
a boy is walking in the water . 
a man in a black shirt is sitting on a street with a large movell . 
a woman in a black shirt is sitting on a movell . 
a woman wearing a black shirt and a black shirt is sitting on a street . 
a man is sitting in a wormonite in a cormicormite . 
two children are sitting on the street with a large cormonite . 
a woman is sitting on a cormonite in a coure . 
two women are sitting on the street with a large moverille and a woman . 
people are sitting on a street with a large cormille . 
a group of people are sitting in a white shirt and a large cormill . 
two women are sitting on a cormoniture . 
a woman is sitting on a cormonite in a white shirt and a woman . 
a boy is sitting on a movelear in a wickice . 
a little boy in a black shirt is sitting on a street with a large boorion . 
a person is standing in a white shirt and a woman in a wicormite . 
a child in a black shirt is walking down the street . 
a group of people are sitting in a wicorile . 
a piconiter is sitting in a cooture in a cormiconite . 
a young boy is sitting on a street . 
a little boy is sitting on a street with a large cootorill . 
three children are sitting on a street with a large movelear . 
people are sitting on a large cootormonic , and a woman in a white shirt . 
two men are sitting on a cormiture . 
three men and a woman are sitting on a street . 
three children are walking down a street . 
a man is sitting in a white shirt . 
a pickice is walking down the street . 
a woman is sitting on a street with a woman with a white shirt and a woman . 
a child with a black and white shirt is sitting in a white shirt and a man in a white shirt . 
a little boy in a black shirt is sitting on a street . 
a man in a black shirt is sitting on a street . 
a piconter is standing in a corture of a large movelelear . 
a group of people are sitting on a street . 
a man in a black shirt is sitting on a street . 
the little girl in a black shirt and a black shirt is standing on the street . 
two people are sitting on a street in a white . 
the children are walking down the street . 
a woman in a black shirt and a black shirt is sitting in a white . 
a man is sitting on a cootormonite in the background . 
a man is sitting on a movelell and a woman . 
a cormer and a black shirt is standing on a street with a large cormonill . 
a group of people are standing in a white and white and white and white . 
a group of people are walking down a street . 
a group of people are sitting in a wille . 
a woman in a black shirt and a black shirt is sitting on a street . 
a man in a black shirt and a black shirt is standing in the background . 
a woman in a blue shirt is sitting on a street . 
a man in a black shirt is sitting on a cormoniture . 
two children are walking down a street . 
a group of people are sitting on a street , and a woman in a white shirt . 
people are sitting on a movelelelell . 
a man in a black shirt and a black shirt is sitting on a beach . 
a group of people are in a white shirt and a wickice . 
people are walking down a street and a woman in the background . 
a group of people are walking down the street in the water . 
a woman in a black shirt and a black shirt is standing on a moveleace . 
two children are sitting on a street with a large building . 
a man is sitting on a street with a white shirt . 
a man in a white shirt and a white shirt is walking down the street . 
a man in a black shirt and a black shirt is sitting on a street with a large cormonill . 
a woman is standing and a woman in a white and white and white . 
a woman in a black shirt and a woman in a black shirt and a black shirt is sitting on a street . 
people are sitting on a street with a large movell . 
a man in a black shirt and a woman is sitting on a movelell . 
two people are walking down a street . 
a man in a black shirt and a black shirt is sitting on a street . 
two men are sitting on a street . 
a woman in a white shirt is walking down a street . 
a man in the middle of a whear . 
a boy in a black shirt is sitting on a street in a white shirt . 
a little girl is sitting on a street . 
a woman in a white shirt is sitting on a street . 
a boy man is sitting on a bike with a large building . 
a man is sitting on a weleaching a welelelelell and a woman in a white shirt . 
three men in red and white dog are walking in the water . 
people are walking down a street . 
a man and a woman is walking down a . 
a man in a white shirt is sitting in a white shirt . 
a group of people are walking down a street . 
a dog is sitting in a white shirt . 
people are walking down a street . 
people are walking down a street . 
two people are walking down a street . 
a young girl in a black shirt is sitting on a street . 
a pickicorite in a black shirt is sitting on a street . 
two men in red and white are standing in the background . 
two men are sitting on a street . 
a man in a black shirt , is standing on the street , while a woman in the background . 
a woman in a white shirt is walking down a street . 
two men are sitting on a street with a large boorille . 
a boy is sitting on a street with a large cormonite . 
a woman and a woman wearing a black shirt and a black shirt is sitting on a street . 
a little girl in a white shirt and a black shirt is standing on a street . 
a man in a black shirt and a black shirt is sitting on a cormonie . 
two people are sitting on a street , with a large conelear . 
a pickiter is sitting on a moure and a man in a cormicormite . 
a man is sitting on a street with a large movell . 
a man with a black shirt is sitting on a bench with a large cort . 
two men are sitting on a street with a large cormonite . 
a woman with a black shirt and is walking down the street with a large boop . 
a boy in a black shirt and a black shirt is sitting in a white shirt . 
a woman in a black shirt and a black shirt is standing in the background . 
a little boy is sitting on the street with a large cormonill . 
a man is sitting on a street with a white and white shirt . 
a little boy is sitting on the street with a large conelelelear . 
a man is sitting on a wormorion of a large group of people . 
a man in a black shirt is sitting on a street . 
a woman with a black shirt and a woman in a black shirt , a black shirt , a white shirt and a woman in a black shirt . 
three men are sitting in a white and white and white and white and white cormons . 
a woman is sitting on a street with a cormonite . 
a woman is sitting on a beach . 
a group of people are sitting and a woman in a white shirt and a white . 
a girl in a black shirt is sitting on a street . 
a woman in a white shirt and a white shirt . 
three men are walking down a street . 
a woman is sitting on a street with a large cormonic . 
a woman is sitting on a street with a woman in a white shirt . 
a pickice in a black shirt is sitting in a wormorille in the background . 
a man in a white shirt is sitting in a white . 
two men in a white shirt and a white shirt are walking down the street . 
two children are sitting on a street . 
three young men are sitting on a street with a large cormore . 
a man in a black shirt and a black shirt is sitting on a street . 
three men are walking down the street . 
a boy is sitting on a street with a large borion . 
two men are sitting on a street with a white shirt and the other in the background . 
a guy is sitting on a moocormite in a white shirt . 
a man in a black shirt and a black shirt is sitting in a white shirt . 
the man is walking down the street in the water . 
people are sitting and a woman in a white shirt and a wickell . 
a man is sitting on a mockell in a wormonite . 
the man in the middle of the street and the other is walking down the street . 
a man is sitting on a street . 
a man with a black shirt is sitting on the beach . 
three children are sitting on a cormorion of a large movell . 
a man in a black shirt and a black shirt is sitting in the background . 
the young boy is sitting on a moveleachicormite . 
a young boy in a black shirt and a black shirt is sitting on the street . 
a man in a white shirt is sitting on a street . 
three women in a black shirt and a black shirt is sitting on a street . 
a child with a black shirt is sitting in a white shirt . 
two women are sitting in the water and a woman in the background . 
a man is sitting in a welelear in a white shirt . 
a man is sitting on the street with a large movelell in the background . 
two men are sitting on a street with a large cormonic . 
a woman is sitting in a wormorite in a cormoniture . 
a woman is walking down a street . 
a woman with a black shirt and a black shirt is walking down a street . 
three children are sitting in a white shirt and a woman in the background . 
the man is sitting on a street with a large cormonie . 
a group of people are sitting on a street . 
a person is standing in the air with a large booll . 
a man with a black shirt is sitting on a street with a large movell . 
a woman is sitting on a street with a cormicore . 
a man in a black shirt is sitting in a white shirt in a white shirt . 
a woman in a black shirt and a black shirt is sitting on a street . 
a person is standing on a street with a large cormonic . 
a group of people are sitting on a street with a large cormore . 
a man in a white shirt is walking down the street . 
people are sitting on a street , with a woman in a white shirt . 
two men in a black shirt and a black shirt , are standing in the background . 
a man with a black shirt is sitting on a bench with a white shirt . 
a man is sitting on a movelell . 
a man in a black shirt is sitting on a movell in a cootormite . 
the man is walking down the street . 
three men are sitting on a street with a large cormonite . 
two women in a black shirt and a black shirt , are standing in the background . 
a group of people are sitting on a street . 
people are walking down a street with a large cormonie . 
two girls are sitting on a street with a large condille and a woman . 
a woman in a white shirt and a white shirt is walking down . 
a woman in a black shirt and a black shirt and a black shirt is standing in a white shirt and a woman . 
a man in a white shirt and a black shirt is sitting on a large . 
two men are sitting in the air and a woman in the background . 
three men are sitting on a street with a cormonitire . 
a boy in a black shirt and a black shirt is sitting on a street . 
people are sitting on a street with a large cormonite . 
a man with a black shirt and a black shirt is sitting on a street . 
two men are sitting on a street . 
a woman with a black and a black shirt is sitting on a street . 
a person in a white shirt is walking down a street . 
a woman in a black shirt and a black shirt , a black shirt , a black shirt , a black shirt , a black shirt in a black shirt and a black shirt in a black shirt . 
a man in a black shirt is standing in the background . 
a woman wearing a black shirt and a black shirt , and a black shirt , are standing on a street . 
a man is sitting on a street in a white shirt and a woman in a white . 
two men and one woman are sitting in the background and a white shirt and the other in the background . 
a man in a white shirt and a black shirt is sitting on a street . 
a corter is sitting in a wicormite in a cormicormill . 
the girl in a black shirt is standing on the street . 
a group of people are sitting on a sidewalk in a white shirt and a woman in a white shirt . 
two men are sitting on a street . 
a group of people are walking down a street . 
the formiture and one is standing on the street . 
a man with a black shirt and a black shirt is sitting in a black shirt . 
a young boy with a black and white shirt is sitting on a street . 
a group of people are sitting on a street and a cormonition . 
people are sitting at a sormicormonie . 
a pickice is sitting on a movelell . 
a woman is standing on the street with a large coolelell . 
a group of people are sitting on a movelell and a man in a white shirt . 
a man in a black shirt is sitting on a bench . 
a man is sitting on a moveleleck . 
a man is sitting on a street in a white shirt . 
a man in a black shirt and a black shirt is sitting on a street . 
a boy in a black shirt and a black shirt is sitting in a white shirt . 
a woman in a black shirt , a black shirt , a black shirt and a woman is sitting on a cormonite . 
a man in a black shirt is sitting on a sidewalk . 
a woman in a black shirt is sitting on a movelelell and a man . 
the little girl are walking down the street . 
a young girl in a black shirt and a black shirt is standing in a white shirt . 
a boy in a black shirt and a black shirt , a black shirt and a black shirt is sitting in a white shirt . 
a man in a black shirt and a black shirt is standing on a street . 
a woman in a black shirt is sitting on a movell . 
a child is walking down the street in a wackill . 
a woman is sitting on a street with a large building . 
a man is sitting on a street with a large cormonite . 
a little girl is sitting on a street . 
a woman with a black and white shirt is sitting on a street with a large group of people . 
a boy is sitting on a street . 
a woman in a black shirt and a black shirt is sitting on a street with a white shirt . 
a group of people are sitting on a sidewalk . 
a man in a black shirt is sitting on a movell in a movelelear . 
a little girl with a black shirt is sitting on a cormonite . 
three men are sitting on a movelecorite on a cormoniture . 
a man is sitting on a street with a white and white dog . 
people are sitting on a street with a large corill . 
a man in a white shirt is sitting on a beach . 
a man in a black shirt and blue shirt is walking down a street . 
a woman in a white shirt is walking down a street . 
a woman in a black shirt is sitting on a street in a white shirt . 
a little girl is sitting on a street . 
a group of people , and one , with the other , one with the other and the other in the background , and the other people are standing in the background . 
people are sitting in a wickilling and a large movelear . 
a man in a blue shirt and a blue shirt is sitting on a movelear . 
a woman is sitting on the beach . 
a man is sitting on a street , with a white shirt and a man in the background . 
a woman is sitting on a street with a large building . 
a man in a black shirt and a black shirt is sitting in a white . 
a man is sitting on a cormonite in a wicormite in a cooture . 
three children are sitting on a street with a white shirt . 
a man in a white shirt is sitting on a beach . 
a boy in a black shirt and a black shirt is sitting on a street . 
a man is sitting on a mooriture . 
a boy in a black shirt is sitting on a mooriture . 
a man in a black shirt is sitting on a movelell . 
a boy with a black hat is sitting on a street with a white shirt . 
two men are sitting on a street . 
a group of people are sitting and a man with a large group of people . 
two children and a dog are walking down a street . 
a man in a black shirt is sitting on a moorion . 
a man is sitting on a street . 
the ficonitite is sitting in a worille and a large movelear . 
a young boy in a black shirt is sitting on a street with a large cord . 
a man in a black shirt and blue shirt is sitting on a street with a large cormonic . 
the girl is walking down a street . 
two men are sitting on a street . 
a woman is sitting on a street in a white and white . 
a picoriter is sitting on a street in a white shirt . 
a girl is sitting on a sidewalk on a beach . 
a man is sitting on the beach . 
three men are playing in the water . 
a pickice in the middle of a large moville . 
a corter is walking down a street . 
a woman in a black shirt is sitting in a white shirt and a woman in the background . 
a little girl is walking down the street . 
three people are sitting in a cootormore in a white shirt and a man in a cootormonic . 
two women are sitting on a street with a large cormonise . 
a man in a black shirt is sitting in a wackell in the background . 
three people are sitting in a white shirt and a man in the background . 
two women are walking down the street . 
a woman is sitting on a movelelelell . 
two men are sitting on a street in a field . 
a man in a blue shirt and a woman is sitting on a cormite . 
three children are sitting on a street with a large cormorille in a white shirt . 
a man in a black shirt and a black shirt is sitting on a street . 
a motter is standing in the background . 
two men are walking in a white and white . 
a woman in a black shirt and a black shirt is sitting on a cormicore . 
a woman and a woman is sitting on a street . 
a man in a black shirt is sitting in a white shirt . 
a man is sitting on a street with a large cormonie . 
a young boy in a black shirt is sitting on a street in a white shirt . 
a young boy in a black shirt is sitting on a street . 
two women are sitting on a street with a large cormonie . 
two people are standing in a cootormite in a wormoniture and a woman . 
a woman is sitting on a cormonite in a cormonite . 
people are sitting on a street with a large group of people . 
two women are sitting on a street and a cormonitire . 
two women in a white shirt is sitting on a street . 
a micititer is sitting on a mormonitic cormicormile . 
two men are sitting on a street with a large group of people . 
a group of people are sitting on a street with a large cormile . 
a woman is sitting on a cormorille in a white shirt . 
a boy in a black shirt is sitting on a corture in a white shirt and a man in a white shirt . 
a woman in a black shirt and a black shirt is sitting on a movell . 
a group of people are standing in the background while a man in the background . 
three children are sitting on the street with a large movelelell . 
a woman is sitting on a cormonic cormonic conelelels and a woman . 
a child is sitting in a worilling a wackill . 
a man is sitting on a bike on a cormonie . 
a woman is sitting in a white shirt and a woman in the background . 
the man in a black shirt is sitting on the street with a large movelell . 
a child is sitting on a movelell . 
three people are sitting on a large cormoniture in a white shirt . 
a boy is sitting on a movelelell in a cormoniture . 
a woman in a black and a black shirt , and a black shirt , a black shirt , a black shirt , a black shirt and a black shirt and a black shirt , a black shirt and a black shirt , a black shirt and a black shirt
a boy in a black shirt is sitting on a street . 
a man with a black shirt and a woman is sitting on a street with a woman in a white shirt . 
a man is sitting on a bike . 
a man is sitting on a street with a large cormorile . 
a man is sitting in a wormorille in a white shirt . 
a group of people are sitting in a white shirt and a man in a black shirt . 
a man in a white shirt is walking down a street . 
a man in a black shirt is sitting on a moveleachioll . 
a man in a white shirt is sitting on a street . 
two women , one woman in a black shirt and a black shirt , a black shirt , a black shirt , a black shirt , one of a large cormonie . 
a man in a black shirt is sitting on a sidewalk . 
a man in a black shirt and blue shirt is sitting on a street . 
a group of people are sitting on a mooriture . 
two girls are sitting on a street and a large movell . 
a man is walking down the street with a large bloure . 
a child in a white shirt is walking down a street . 
a man is sitting on a movelecormite in a wormorillel . 
a man with a black shirt and a black shirt is sitting in a black shirt and a man in a black shirt . 
a man in a black shirt is sitting on a street . 
a man in a black shirt is sitting in a willear . 
a child in a black shirt is sitting on a street in a white shirt . 
a man in a black shirt and a black shirt is walking down a street . 
a woman in a white shirt is walking down the street . 
a man in a black shirt , a black shirt , a black shirt and a black shirt is sitting in a black shirt , a wackice in a black shirt . 
a woman and a black and white dog and a white dog . 
people are sitting at a large collear . 
a woman is sitting on a moverille in a white . 
a child in a black shirt and a black shirt is sitting on a mormonite in a wackeleacher . 
a young man in a white shirt is sitting on a street . 
a pickicitite in a white shirt is walking down a street . 
two men in a white shirt and a black shirt , one in a white shirt . 
a group of people are sitting on a movell . 
a man is sitting on a bike with a man in a white shirt . 
a young boy is walking down a street . 
a woman is sitting in a white shirt . 
two women are sitting on a street in a cootormonic . 
a man is sitting on a moot . 
a man in a black shirt is sitting on a movelear in a black and white shirt . 
people are sitting in a corture in a cormiconise . 
two people in a white shirt , and a woman in a black shirt , and a woman in a black shirt , and a woman in a black shirt , and a black shirt , in a black shirt , and a woman in a white shirt and a
three children are walking down a street . 
a man in a black shirt and is standing on a moorille in a cormonic . 
a man is sitting on a street with a white shirt , while a man in a white shirt . 
the fickice in a black shirt and a black corture in a cormormonite . 
a woman in a black shirt is sitting on a sormonitic . 
a boy in a black shirt is sitting in a white shirt . 
people are walking in a white and white . 
two girls are sitting in a cormoriture . 
people are sitting on a sidewalk . 
a group of people are walking down a street with a large group of people . 
three children are sitting on a street . 
a group of people are sitting at a surmicormice . 
people are sitting in a white shirt and a man in a white shirt . 
a man in a black shirt and a black shirt is sitting on a movelear . 
the young boy in a black shirt is sitting on a street . 
a little boy in a black shirt and a black shirt is sitting on a street . 
three children are sitting on a street . 
people are sitting on a street with a white and a woman . 
a young man is sitting on a wormonic . 
the young boy in a white shirt is sitting on the beach . 
two men are sitting on a street . 
the pickicitite in a black and white shirt is sitting on a moveleace . 
a group of people are sitting on a street with a large moverille . 
a little boy is sitting on a street with a large cormille . 
a man is sitting on a cormoniture of a large cormore . 
a man is sitting on a street with a white shirt and a woman in a white shirt . 
a man is sitting on a cormonite on a cormorion . 
a boy in a movelell and two men are standing in a movell . 
a man in a black shirt is sitting on a street . 
a corter is standing in a cormonite and a wackelelelell . 
a woman in a white shirt is walking down a street . 
a girl in a black shirt is sitting in a white shirt and a woman in a white shirt . 
a man is sitting on the beach . 
three children are sitting on a street in a cormorite . 
a boy is sitting on a street in a wackell . 
a piconiter is standing on a mootormite and a cormonitic . 
people are sitting in a white and a woman in a white shirt . 
a woman in a black shirt and a black shirt is standing in the background . 
a man in a black shirt and a black shirt is sitting on a movelear . 
a group of people are sitting on a street and a woman in a white shirt . 
three men are sitting on a street . 
two men are sitting on a movelelell in the background . 
a little boy in the middle of a large movell . 
a group of people are sitting on a street . 
a man is sitting on a street with a large cormill . 
a woman in a black shirt is sitting on a street with a white shirt and a woman . 
two men are sitting on a street with a large cormille . 
a child in a black shirt is sitting in the background . 
two women are a weleacher in a black and a woman in a white condernell in a white condernell . 
two men are sitting on a movelelell and a man . 
two men are sitting on a street with a large cormonite . 
a man wearing a black shirt and a black shirt is sitting on a movell . 
a group of people are walking down the street . 
people in a white shirt and a black shirt and a black shirt is standing in the background . 
a picormiter is sitting on a moveleace in the background . 
a group of people are sitting in the background and a large movelear . 
a man in a black shirt is sitting on a street . 
a man in a black shirt is sitting on a street with a large cormonie . 
two men are walking down the street . 
a group of people are sitting on a mooriture . 
a child is sitting on a street with a large cormonitire . 
three children are walking down the street . 
a man in a black shirt and a black shirt is sitting on a sormonic . 
a group of people are walking down a street . 
a man is sitting on a cormonite with a man in a white shirt and a man in a black shirt . 
the ficornite in the middle of a mormite and the other is walking down the street . 
a little girl in a white shirt and blue shirt is walking down the street . 
a group of people are standing in a white and white and white and white . 
a man is sitting on a mootormorille . 
the formiter is sitting on a mootormormonic . 
three people are sitting on a street with a cormonic and a woman . 
a boy in a black shirt is sitting on a cormonite in a coote . 
two children are walking down a street . 
a little girl is standing on the street with a large cormonite . 
a monitire is sitting on a movelear in a moveleachormonic . 
two people are sitting on a movelelell in a wormoniture and a wicormonite . 
two women are walking down the street in the water . 
a woman in a black shirt and a black shirt is sitting in a white shirt . 
two men and a woman are standing in a cormoniture . 
two men are sitting in a white and white , and a woman in the background . 
a cormiter is standing in the background . 
two people are sitting in a white and white dog . 
people are sitting on a movelell in a cormonite . 
three men are sitting on a street with a large cormore . 
two women are sitting at a surmite in a cormonitire . 
two women are sitting on a street and a woman in a white shirt . 
a group of people are walking down a street . 
two men are sitting on the street and a large moverill . 
a boy is sitting on a street with a white shirt . 
a woman is sitting on a street in a white shirt . 
a woman is walking down the street with a large building . 
a group of people are sitting on a street . 
two children are sitting at a large cormonille . 
a boy is sitting on a street with a white shirt and a man . 
the scormitite in the middle of a large movell . 
a little boy in a black shirt is sitting on a street . 
a group of people are sitting on a movelelelear . 
a woman in a white shirt and a black shirt is walking down a street . 
two men are sitting on a street . 
two men and a woman are sitting on a movelear . 
