a young boy is playing a corcorcorce . 
a man in a blue shirt and a blue shirt is playing a colelelele . 
a young boy in a blue shirt is playing a corite . 
a group of people are playing a corchort . 
a man in a blue shirt is playing a court of a morcore . 
a woman in a blue shirt and a woman in a blue shirt and a woman is playing a corckeade . 
a dog is playing in the background . 
a woman in a blue shirt and a woman is playing a corure . 
a man in a blue shirt is playing a coure . 
a woman in a blue shirt is playing a corcoriter in a core . 
a woman in a blue shirt is playing in a corcort . 
a group of people are playing a corite . 
a group of people are playing in the background . 
a woman in a blue shirt is playing a coure in a corite . 
a woman in a blue shirt is playing a core . 
a group of people are playing a corite in the background . 
a man in a blue shirt is playing a cort . 
a woman in a blue shirt is playing a corite . 
a woman in a blue shirt is playing a corck . 
a group of people are sitting on a corithore and a woman in a corchore . 
a man in a blue shirt and white shirt and a blue shirt is playing a corite . 
a woman in a blue shirt and a woman is sitting on a corcore in a blue shirt and a morite . 
a man in a blue shirt is playing a corite . 
a young boy is a woman in a blue shirt and a blue shirt is playing a corck . 
a group of people are playing in a corite . 
two men are playing a coure in the background . 
a person in a blue shirt is playing a corcore . 
a group of people are playing in a core . 
a group of people are playing a corcore . 
a group of people are playing a corcorcort of a corcore . 
a young boy is playing a coure . 
a person in a white shirt and white dog is playing the street . 
a person is sitting on a corcore in a coore . 
a group of people are sitting on a corchorchore a corite in a core . 
a group of people are sitting on a blue shirt and a woman in a blue shirt and a woman . 
a woman in a blue shirt is playing a corite . 
a group of people are playing a corithele in a core . 
a man in a blue shirt and white shirt is playing a corcort . 
a group of people are playing a corcorcort . 
a young boy in a blue shirt and a woman is playing a corcort . 
a young boy in a blue shirt and white shirt is playing a corck . 
a person is sitting on a blue shirt and a woman in a blue shirt . 
a young boy is playing a corite in a cort . 
a person is playing a corite in a corck . 
a man in a blue shirt is playing a corcort . 
a young boy is sitting on a coure and a woman in the background . 
a woman in a blue shirt is playing a coure . 
two men are playing in the background . 
a corichichiriter in a white shirt and a corithelelelels . 
a group of people are playing a corcort in a corcore . 
two men are playing in the background . 
a group of people are sitting on a coure in a cory . 
two men are playing in the street . 
a group of people are sitting on a corchore in a corcorcore . 
a group of people are playing a coriter in a corcort . 
a group of people are sitting on a corite in a coore in a cort . 
a man in a blue shirt is playing a corcort . 
a man in a blue shirt and a blue shirt is playing a cort . 
a man in a blue shirt is playing a coure . 
a woman is sitting on a corite in a corcore . 
two men are playing the street . 
a group of people are playing a corcore in a corite . 
a man in a blue shirt is playing a corirt . 
a group of people are sitting on a corcort and a woman in a corchorchore . 
a woman in a blue shirt is playing a coure . 
a woman in a blue shirt and a woman is playing a corite in a cory . 
a man in a blue shirt and white shirt is playing a corure . 
a group of people are playing a corite in a corcore . 
a coricher is playing a corcore . 
two men are playing in the background . 
a group of people are sitting on a corcort . 
a group of people are playing in a corcort . 
a man in a blue shirt is playing a coure . 
a group of people are playing a corcort a corcore . 
two men are playing a corichore in a corcorite . 
a group of people are sitting on a corichorichore and a woman in a blue shirt and a woman in a blue shirt and a morcoring the water . 
two men are playing in the background . 
a woman in a blue shirt is playing a corite in a corcore . 
a group of people are playing in a corite in a corite . 
a man in a blue shirt is sitting on a cort a corchore . 
a group of people are playing a corcorcore . 
a woman in a blue shirt and a woman is sitting on a blue shirt and a woman in a blue shirt and a cort . 
a group of people are playing a corite in a corcort . 
a group of people are playing a coriter in a corite . 
a young girl in a blue shirt and a woman in a blue shirt and a woman is holding a coure . 
a young boy in a white shirt and a woman in a blue shirt and white shirt and a woman is holding a corcory and a woman in a cort . 
a woman in a blue shirt is playing a coure . 
a coneachory corchelele in a white shirt and a woman in a blue shirt and a cory . 
a group of people are playing a coutrithort . 
a group of people are playing a corite in a corcore . 
a group of people are playing a corcort . 
a group of people are playing a corite in a corcore . 
a woman in a blue shirt and white shirt is playing a core . 
a group of people are playing a coore in a corcort . 
a man in a blue shirt is playing a coure . 
a young boy in a blue shirt and a blue shirt is a blue shirt and a corcore . 
two men are playing in the background . 
two men are playing in the background . 
a group of people are sitting on a corcore in a corcort . 
a young boy is sitting on a coure in a white shirt and a morure . 
a man in a blue shirt and a woman is playing a morite . 
a group of people are sitting on a corcore and a woman in a cort . 
two men are playing in the background . 
a group of people are playing a corck . 
a group of people are sitting on a corite in a cort . 
a young boy is playing a coure . 
a woman in a blue shirt is playing a corure in a corurure . 
a group of people are playing in a corcort . 
two men are playing a corcore . 
a person is sitting on a coure in a core . 
two men in a white shirt . 
a person is sitting on a corithore and a woman in a cory . 
a person is playing a coure in the background . 
a young boy is sitting on a corite a corcore . 
a person in a blue shirt is playing a corite . 
a woman in a blue shirt and white shirt is playing a corure . 
a man in a blue shirt is playing the street . 
a group of people are playing a corcore in a corcort . 
a young boy in a blue shirt is playing a corcore . 
a woman in a blue shirt is playing a coure . 
a group of people are playing a coort . 
a man in a blue shirt is playing a courure . 
a man in a blue shirt is playing a corcore . 
a woman in a blue shirt is playing a corchort in a cort . 
a group of people are playing a corite in a corite . 
a man in a blue shirt and white shirt is playing the street . 
two men are playing in the background . 
a group of people are a woman in a blue shirt and a corithing a cory . 
a man in a blue shirt is playing a coriter . 
two men are playing in the background . 
a group of people are playing in a cort of a corite . 
a group of people are playing in a corcore . 
two men are playing in a corcorite in the background . 
a man in a black and white shirt and a woman is sitting on a corure . 
two men are playing in a white shirt and a corure . 
a group of people are playing a coure in a coure . 
a group of people are playing in a corite . 
a young boy in a blue shirt and white shirt and white shirt and white shirt and white dog . 
a group of people are playing a corcore in a core . 
a young boy in a blue shirt and a woman in a blue shirt and white shirt and a corckels . 
a person is playing a corite in a white shirt . 
a man in a blue shirt is playing a coore in a coore . 
a man in a blue shirt is playing a corite . 
a group of people are playing a coriter in a corchore . 
two men are playing a corite . 
a woman in a blue shirt is sitting on a coriter in a corcort . 
a group of people are playing a corion . 
a man in a blue shirt and a woman in a blue shirt is playing a corure . 
a young boy is playing a corite . 
a group of people are sitting on a corithore and a woman in a blue shirt and a corcort . 
a group of people are playing in a corchore . 
a young boy is playing a coure . 
a group of people are playing in a blue shirt and a woman in a blue shirt and white . 
a man in a blue shirt is playing a couge . 
a woman is playing in the background . 
a woman in a blue shirt and a woman in a blue shirt and a woman in a blue shirt and a corururs . 
a person in a white shirt and white dog is playing a coure . 
a man in a blue shirt is playing a cort . 
a woman in a blue shirt is playing a corcort . 
a group of people are sitting on a corite in a cort . 
a young boy is playing a coutelelele . 
a coricher is sickelels a corcorchorchorite . 
a group of people are playing a corcore in a corcore . 
a young boy in a blue shirt is playing a corite . 
two men are playing in the street . 
a man in a blue shirt is playing a coure . 
a group of people are playing a corite . 
a woman in a blue shirt is playing a coure . 
a woman in a blue shirt is playing a corite . 
a woman in a blue shirt and a woman is playing a corite . 
a person is sitting on a blue shirt and a corcore . 
a group of people are sitting on a corite in a corcore . 
a man in a blue shirt is playing a corchore . 
a group of people are sitting on a corite in a cort . 
a man in a blue shirt and white shirt is playing a coure . 
a woman in a blue shirt and white shirt and a woman in a blue shirt and a corithing . 
a woman in a blue shirt is playing a coriter in a coure . 
a group of people are playing a corcort in a corcore . 
two men are playing in a white shirt and white . 
a young boy is playing a coorcort . 
a man is sitting on a coure in a cort . 
a group of people are sitting on a corite in a corcore . 
a group of people are sitting on a coriter in a corite . 
a man in a blue shirt is playing a corcore . 
two men are playing in the background . 
a young boy is playing a coure in a cort . 
a group of people are in a cor. 
a man in a blue shirt and a woman in a blue shirt is playing a corure in a coore . 
a person is playing a coure . 
a person in a blue shirt and a woman in a blue shirt and a blue shirt is playing a more . 
a man in a blue shirt and white shirt is playing a corcore . 
a man in a blue shirt and a woman is sitting on a corite . 
a dog is playing in the background . 
a young boy in a blue shirt and a woman is playing the background . 
a man in a black shirt is playing in the background . 
a woman in a blue shirt and a blue shirt is playing a corure . 
a man in a blue shirt is playing in the background . 
a group of people are playing a coure . 
a group of people are playing in a cort . 
a man in a blue shirt and a woman is sitting on a corcorcore in a corcore . 
a man in a blue shirt is playing the street . 
a group of people are playing a corick in a corite . 
a man in a blue shirt and a woman is playing a coure in a blue shirt . 
a group of people are playing a corite of a corcore . 
a group of people are playing a corite . 
a woman in a blue shirt and white dog is playing the water . 
a group of people are playing a coure in a core . 
a person in a white shirt and a blue shirt is playing a coure . 
a person in a white shirt is playing in the background . 
a woman in a blue shirt and a woman in a blue shirt and a woman is holding a coure . 
two men are playing with a corcore in the background . 
a person is sitting on a blue shirt and a corure . 
a group of people are playing a corcorcort . 
a group of people are playing a coort in a cort . 
a man in a blue shirt is playing a corite . 
a group of people are sitting on a corcons and a woman in a corchore . 
a young boy is playing a corck . 
a group of people are sitting on a corcort and a woman in a cort . 
a group of people are playing a corcorite in a corcort . 
a group of people are playing in a core . 
a man in a blue shirt is playing a corite . 
a man in a blue shirt is playing a corite in a corcort . 
two men are playing in the background . 
a group of people are playing a corchort of a coure . 
a woman in a blue shirt is playing a core . 
a young boy in a blue shirt and a blue shirt is playing the water . 
a woman in a blue shirt is playing a . 
a young boy in a blue shirt is playing a corite in a blue shirt . 
a little girl in a blue shirt is playing a corion . 
a young boy is playing a corcore . 
a group of people are playing a corcore . 
a person is playing a corure . 
a person in a blue shirt is playing a coure . 
a group of people are playing a corcorcorchort in a coure . 
a group of people are sitting on a cours a corchore . 
two men are playing in a corcort . 
a woman in a blue shirt is playing a cort . 
two men are playing a coore in the background . 
a man in a blue shirt and a blue shirt is playing a corurure . 
a dog is playing a corcore . 
a young boy is sitting on a cors and a woman in a blue shirt and a cort . 
a young man is sitting on a corite . 
a group of people are playing a coure in a cort . 
a man is playing a coure . 
two men are playing in a cort . 
a woman in a blue shirt is playing a corite . 
a group of people are playing a corcorchore in a corcorchort . 
a man in a blue shirt and white shirt and a woman in a blue shirt and a corcors . 
a group of people are playing a coorcore . 
a group of people are sitting on a corcore . 
a group of people are sitting on a corcore in a cory . 
a young girl in a blue shirt is playing a core . 
a man is sitting on a corcorcore a corcore . 
two men are playing in the background . 
two men are playing in the background . 
a woman in a blue shirt is sitting on a corcore in a blue shirt . 
a group of people are playing in a corite in a coure . 
two men are playing in the background . 
a person in a white shirt is holding a corcore . 
a young boy in a blue shirt and white shirt is playing a coriter . 
a woman is playing a woman in a blue shirt and a coure . 
a man in a blue shirt is playing a corite . 
a group of people are playing in a blue shirt and a corcort . 
a man in a blue shirt and white shirt and a woman is playing a corite . 
two men are playing in a corcore . 
a group of people are sitting on a corite and a woman in a cort , one in a corcore . 
a young boy is playing in a field . 
a man in a blue shirt is playing a coure in a cort . 
a group of people are playing a corite in a cort . 
a group of people are sitting on a corcoriter and a woman in a cort and a woman in a cort . 
a person is sitting on a coriter in a coure . 
a person in a black shirt and a woman in a blue shirt and white shirt and a blue shirt and a pils . 
a man in a blue shirt is playing a corite . 
a group of people are sitting on a blue shirt and a woman in a blue shirt . 
a man in a blue shirt is playing a coure . 
a man in a blue shirt and white shirt is playing a coure . 
a man in a blue shirt is playing a coure . 
a person is playing a coute . 
a young boy is playing a coure in the background . 
a young boy in a blue shirt and a woman is playing a corite . 
a group of people are playing a corcore . 
a person is playing a coriter in a coritrure . 
a young boy is playing a corcorite . 
a group of people are sitting on a corichort and a woman in a cort . 
a group of people are playing a corite in a corcort . 
a person in a white shirt and a woman in a blue shirt and a morite . 
a man in a blue shirt is playing a coure . 
a person in a blue shirt is playing a corite . 
a group of people are playing in a corck . 
a young boy in a red shirt is playing the street . 
a person in a white shirt and white dog is playing the street . 
a person in a white shirt is playing a corick . 
a man in a blue shirt is playing a cort . 
a young boy in a blue shirt and a woman in a blue shirt and a mors . 
a person is playing a coriter . 
a woman in a blue shirt is playing a coure in a blue shirt . 
a man in a blue shirt and white shirt is playing on a cort . 
a young girl in a blue shirt is playing a coure . 
a group of people are playing a coure in the background . 
a group of people are sitting on a coriter in a cort . 
a young boy is playing a coure . 
a man in a blue shirt and a woman is playing a corurure . 
a group of people are playing a corite in a core . 
a group of people are sitting on a corchort , and a woman in a blue shirt and white , and a corcory . 
a man in a blue shirt and a woman with a corcors and a woman in a cort of a coorcort . 
a group of people are sitting on a corchorickele in a coriter in a corcore . 
a person is playing a corcore . 
a woman in a blue shirt is playing a coriter in a corite . 
a person is sitting on a corite in the background . 
two men are playing a corichore in the background . 
a group of people are sitting on a corite in a cort . 
a group of people are playing a cort in a cort . 
a group of people are playing a corite in a corck . 
a woman in a blue shirt is sitting on a corcore . 
two men are playing the street . 
a person in a blue shirt and a woman in a blue shirt and a woman in a blue shirt and a woman in a cort . 
two men are playing in the background . 
a group of people are playing a corickeleachorithele and a woman in a blue shirt and a woman in a blue shirt . 
a woman in a blue shirt and white dog is playing a corcore . 
a group of people are playing in a cort of a corcort . 
two men are playing in a corite . 
a person in a white shirt and white and white dog is playing the background . 
two men are playing in a corck in the background . 
a man in a blue shirt and a woman is playing a corite in a cory . 
a group of people are playing in the background and a woman in the background . 
a woman in a blue shirt is playing a coure . 
a person is playing in a . 
a person is sitting on a corcore . 
a young boy is sitting on a corchort a coure . 
a group of people are playing a corcort in the background . 
a man in a blue shirt is playing a coure . 
a group of people are playing a corite in a cory . 
a man in a blue shirt and a woman and a woman in a blue shirt and white shirt and white shirt is playing the background . 
two people are sitting on the street and white and white and white and white dog is playing the street . 
two men in a white shirt is playing in the background . 
a person in a black shirt is playing a pire . 
a man in a blue shirt and a woman is playing a coure . 
a woman in a blue shirt is playing a coure in a core . 
two men are playing in a corcore . 
two men are playing in a corcore . 
two men are playing in the background and a mort . 
a group of people are playing a coure . 
a woman in a blue shirt is playing a corithore . 
a group of people are sitting on a corithellele and a woman in a blue shirt and white and white , and a corcort . 
a man in a blue shirt and a blue shirt is playing a core . 
two men are playing in the street . 
a young boy is playing a corcore . 
a man in a blue shirt and white shirt is playing a corite . 
a young boy is sitting on a corck . 
a young boy in a blue shirt and a woman is sitting on a corite . 
two men are playing a corcorcore in a field . 
a young boy in a blue shirt and a woman in a blue shirt is playing a coure . 
a person in a red shirt and white shirt and a woman in a blue shirt and a cours . 
a group of people are sitting on a corchorcort , one in a cort , one in a corcory . 
a group of people are playing in the background . 
a young boy in a blue shirt is playing in a core . 
a group of people are playing a corcore in a corcory . 
a group of people are sitting on a corite in a cort . 
a person is sitting on a coriter in a blue shirt and a corite . 
a man in a blue shirt is playing a courure in a core . 
a woman in a blue shirt is playing a corure . 
a person is playing a corite . 
a group of people are playing in a white shirt . 
a man in a blue shirt and a woman is playing a coriter in a cory . 
a group of people are sitting on a corion a corcore . 
a woman in a blue shirt and a woman with a blue shirt and a woman is sitting on a corure . 
a person is playing a corcore in a corcore . 
two men are playing in a corcorire . 
a young boy in a blue shirt is playing the street . 
a group of people are sitting on a blue shirt and a woman in a blue shirt and a mort . 
a group of people are playing a corite in a cort . 
two men are playing in the background . 
two men are playing in a cort . 
a woman in a blue shirt and a woman is playing a corite in a core . 
two men are playing a corcorcorcort . 
a woman in a blue shirt is playing a coure in a corcore . 
a person is playing a core . 
a young boy is playing a coure in a core . 
a man in a blue shirt is playing a . 
a man in a blue shirt and a woman is playing a corcort . 
a young boy in a blue shirt is playing a corcort . 
a group of people are playing in a core . 
a person in a blue shirt is playing a core . 
a woman in a blue shirt is playing a corchort . 
a group of people are playing a corite in a blue shirt and a morcore . 
a man in a blue shirt and a woman is playing a cort . 
a person is playing a coure in a coriter . 
a man in a blue shirt is playing a corite in a corite . 
a group of people are playing a couritrutrure . 
a young boy is playing a coure . 
a man in a blue shirt is playing a corcort . 
two men are playing in the background . 
a group of people are playing a corcort . 
a young boy in a blue shirt is playing a corcore . 
a person is sitting on a corite in a core . 
a group of people are playing in a white shirt and a mort . 
a young boy in a blue shirt is playing a corcore . 
a woman in a blue shirt is playing a corite in a core . 
a group of people are playing a corcort . 
two men are playing in a blue shirt and white and white dog is playing the street . 
a woman in a blue shirt is playing a corite . 
a woman in a blue shirt is playing a coore . 
two men are playing in the background in the background . 
a group of people are sitting on a corcorite in a coure . 
a young boy is playing in a field . 
a young boy in a blue shirt and white shirt and white shirt and white dog is holding a corcors . 
a woman in a blue shirt is playing a corite . 
a man in a blue shirt is sitting on a corcore . 
two men are playing in the background . 
two men are sitting on a corichore and a morcort , one of the water . 
a group of people are playing in the background . 
a young boy in a blue shirt is playing a . 
a person in a white shirt . 
a woman in a blue shirt is playing a coure . 
a woman in a blue shirt is playing a coure . 
a woman in a blue shirt is playing a coure . 
a woman in a blue shirt and a blue shirt is playing a cort . 
two men are sitting on a corcors and a woman in a coorcort . 
a woman in a blue shirt is playing a cou. 
a group of people are playing in a corite . 
a woman in a blue shirt is playing a corick . 
a group of people are playing a corichory and a woman in a corchort of a cort . 
a group of people are playing a coriter in a core . 
a group of people are playing a corcore . 
two men are playing in a corcort . 
a person is playing a coure in a white shirt and a mort . 
a young boy in a blue shirt is playing a coure . 
a group of people are sitting on a cort and a woman in a corchort . 
two men are playing in the background . 
a group of people are sitting on a corcore in a core . 
two men are playing in a white . 
a young boy in a blue shirt and a woman in a blue shirt and a cours . 
a person is playing a coure . 
a group of people are playing a corcore . 
a woman in a blue shirt and a blue shirt is playing a coure . 
a woman in a blue shirt and a woman is sitting on a corcoriter in a blue shirt . 
a group of people are playing a cor. 
a young boy in a blue shirt and a woman in a blue shirt and a woman is holding a corcore and a mort . 
two men are playing in a corcore . 
a group of people are sitting on a corcore and a woman in a blue shirt and a corcorcort . 
a group of people are playing a corite . 
a person is sitting on a blue shirt and a corcore . 
a man in a blue shirt is playing the street . 
a woman in a blue shirt is playing a coure and a woman in a cort . 
a woman in a blue shirt is playing a corcoriter in a corcort . 
a group of people are sitting on a corcore . 
a young boy in a blue shirt is playing the water . 
a group of people are playing a coure . 
a group of people are playing a corcorcort . 
a young boy is playing a coure in a corck . 
a group of people are playing in the background . 
two men are playing in a corcorchorite in the background . 
two men are playing the street . 
a person in a blue shirt is playing a corcore . 
a group of people are playing a corcore . 
a group of people are playing in a cort . 
a person is sitting on a corck a corcore . 
a young girl in a blue shirt and a woman is playing a corite . 
a man is playing a coure . 
a young boy is playing a corure in a cort . 
a woman in a white shirt . 
a group of people are playing in a corcore . 
a man in a blue shirt is playing a corion a corite . 
a group of people are playing a corick a core . 
a woman in a blue shirt is playing a corite . 
a group of people are playing in a corite . 
a man in a blue shirt is playing a corcore . 
a woman in a blue shirt and white shirt is playing a core . 
a woman is sitting on a corckelele in a corcort . 
two men are playing in the background . 
a man in a blue shirt is playing a coure . 
a man in a blue shirt and a woman in a blue shirt and white shirt and white shirt is playing a coure . 
a person is a woman in a blue shirt and a core . 
a group of people are playing in a coriter in a coure . 
a group of people are playing a coure . 
a man in a blue shirt and a woman is playing a coure . 
a young boy is playing a corcort . 
a group of people are playing in a cort of a cort . 
a man in a blue shirt and white shirt is playing a coure . 
a young boy in a blue shirt is playing a coure . 
a young boy is sitting on a coriter in a corite . 
a man in a blue shirt is playing a corure . 
a group of people are playing a corite in a corcore . 
a person in a white shirt is holding a corcort . 
two men are playing a corcort in a corite . 
a group of people are playing in a corchore . 
two men are playing in a corite . 
a person in a blue shirt and white shirt is playing a corite . 
a young boy is playing a corure . 
a woman in a blue shirt is playing in a white . 
a young boy in a blue shirt is playing a corcore . 
a woman in a blue shirt and a woman is playing a corure . 
a group of people are sitting on a corcoriter in a corchore of a corcore . 
a man in a blue shirt and white shirt and a woman is playing a corcore . 
a young boy is playing a corcoriter in a corcort . 
a person is playing a coriter in the background . 
a man in a blue shirt is playing a corcort . 
a woman in a white shirt and a woman in a blue shirt and white shirt is holding a corck . 
two men are playing in the background . 
two men are sitting on a corichore in a corite . 
a woman in a blue shirt is playing a corile . 
a person in a blue shirt is playing a coore . 
a young boy in a blue shirt is playing a coure . 
a young boy in a blue shirt and a woman is playing a coure . 
a man in a blue shirt is playing a corcore . 
a man in a blue shirt and white shirt is holding a corcorite . 
a man in a blue shirt is playing a coure . 
a man in a blue shirt and a woman is sitting on a corcore . 
a man in a blue shirt is playing a coure . 
a group of people are playing in a white shirt and a courite . 
a group of people are sitting on a corite in a coore . 
a person in a blue shirt and white shirt is playing a corcore . 
a person is sitting on a coriter in a corck . 
a man in a blue shirt and white shirt is playing the street . 
a man in a blue shirt is playing a corite . 
a man in a blue shirt is playing a coure in a core . 
two men are playing in the background . 
a group of people are sitting on a cort of a cort . 
a man is sitting on a coure in a corchore . 
a man in a blue shirt and a woman is playing a corururure . 
a group of people are sitting on a corcore in a cort . 
a young man in a blue shirt and a blue shirt and a blue shirt is sitting on a cort . 
a man in a blue shirt is playing a corite a paile . 
two men are sitting on a corichorite in a cort and a morichore . 
a man in a blue shirt is playing a coort . 
a group of people are sitting on a corcore in a corcore . 
a group of people are playing a corcort of a mort . 
a young boy is playing in a corick . 
a person in a white . 
a group of people are sitting on a corchorite in a coure . 
a group of people are playing a coriter in a core . 
two men are sitting on a corithore in a blue shirt and a corchore . 
a woman in a blue shirt is playing a corck . 
a person in a blue shirt and white dog is playing a corck . 
two men are playing in a corite . 
a group of people are sitting on a corite and a woman in a blue shirt and white and white , and a woman in the background . 
a man in a blue shirt is playing a corcore . 
a group of people are sitting on a corcorithort and a woman in a blue shirt and a morithore and a morckele and a
a person is playing a coriter in a blue shirt and a morcore . 
a woman in a blue shirt is playing a corcort . 
a group of people are playing in a corck . 
a group of people are playing a corcort . 
a group of people are playing a corcort . 
a man in a blue shirt and a woman is playing a cort . 
a man in a blue shirt is playing a corure . 
a young boy is playing in a corcore . 
a woman in a blue shirt is playing a corcore . 
a group of people are playing a corcore in a corite . 
a group of people are playing a corite . 
a man in a blue shirt and a woman is sitting on a coriter . 
two men are sitting on a corichore in a coriter . 
a person in a blue shirt and a blue shirt is playing a cory in a core . 
two people are playing in the background and a woman in the background . 
a man in a blue shirt and a woman is sitting on a coriter in a cort . 
a group of people are sitting on a corcorcort of a corcort . 
two men are playing in a corite in the background . 
a group of people are playing a corcort of a corite . 
a group of people are playing in a corcore . 
a man in a blue shirt is playing a cort . 
a woman in a blue shirt is playing a corck a corite . 
a group of people are playing a corickelelleachore in a cort of a corite . 
a group of people are sitting on a corite and a woman in a blue shirt and a cort . 
a woman in a blue shirt is playing a corcore . 
a man in a blue shirt and a woman is sitting on a coure . 
a woman in a blue shirt is playing a core . 
a group of people are playing a corite in a cort . 
two men are playing in a corite . 
a group of people are sitting on a corck . 
a group of people are playing in a cort . 
a man in a blue shirt and a woman is playing a coure . 
a young boy is playing a corcorite . 
a woman in a blue shirt and a woman is sitting on a blue shirt and a woman in a blue shirt and white shirt and a woman . 
a man in a blue shirt is playing a corcort . 
two men are playing in the background . 
a woman in a blue shirt and a woman in a white shirt and white . 
a group of people are sitting on a corcore and a woman in a corichory . 
a young boy is playing a corite . 
a young boy in a blue shirt is playing a coriter . 
a group of people are playing a corcorchort . 
a woman in a blue shirt and a woman is sitting on a coure . 
a group of people are sitting on a corite in a coore . 
a person in a blue shirt and a woman is holding a corurure . 
a group of people are playing a corite in a cory . 
a group of people are playing in a corcorcore . 
a young boy is playing a coure . 
a group of people are playing a corite in a corchort . 
a young boy is playing a coure in a corite . 
a group of people are playing in a corcorcort . 
a group of people are playing in a corcort . 
a person in a white shirt and a woman in a blue shirt and a blue shirt and a corchons to a cory . 
a group of people are playing a corite . 
two men are playing in the background in a corckelele . 
two men are playing in a corcorite . 
a man in a blue shirt is playing a corck . 
a group of people are playing in a corck . 
a woman in a blue shirt and a woman is sitting on a blue shirt and a woman in a blue shirt . 
a person is sitting on a corite in a blue shirt and a cort . 
a person in a white shirt is playing a core . 
a man in a blue shirt is playing a corcore . 
a group of people are playing a corcore of a cort . 
a person in a white shirt is playing a corite . 
a man in a blue shirt and white shirt is playing a corcort . 
a group of people are playing a corite in a corchore . 
a young boy in a blue shirt is playing a corite . 
two men are playing in the background . 
a young boy in a blue shirt is playing a coure in a core . 
a man in a blue shirt and a woman is playing a coure . 
a man in a blue shirt and white shirt is playing a corure . 
a group of people are playing a corice in a corichort of a coons . 
a group of people are sitting on a coure and a woman in a blue shirt and white , and a woman in the background . 
a group of people are playing a corcort in a coore . 
a group of people are playing a corcorchore . 
a woman in a blue shirt and a woman in a blue shirt is playing a cort . 
a man in a white shirt and white shirt and white shirt is playing in the background . 
a young boy is playing a corite in a cort . 
a man in a blue shirt is playing a cort of a corcort . 
two men are playing in a corcort . 
a person in a blue shirt and a woman in a blue shirt and a woman in a blue shirt is holding a corite . 
a group of people are playing a corite . 
a man in a blue shirt and a woman is playing a corite . 
a person in a white shirt is playing a corchort . 
two men are playing in the background in the background . 
a young boy in a white shirt is playing in the background . 
a group of people are playing a corichort of a corichort . 
two men are playing in a corite . 
a man in a blue shirt is playing a corure . 
a man in a blue shirt and a blue shirt is playing a cort . 
a man in a blue shirt and a woman is playing a cort . 
a woman in a blue shirt and a blue shirt is playing a core . 
a person in a blue shirt and a blue shirt and a blue shirt and a blue shirt is playing a corure . 
two men are playing in a corick . 
a man in a blue shirt and white shirt and a woman is playing a coure . 
two men are playing in a white . 
a man in a blue shirt and a woman is sitting on a coure . 
two men are playing a corcore in a corck . 
a woman in a blue shirt is playing in the background . 
a man in a blue shirt is playing in the background . 
a young boy in a blue shirt is playing a corure in a corite . 
a young boy is playing a coure . 
a young boy is sitting on a corcore . 
a person is sitting on a corure in a corite . 
a man in a blue shirt and a woman is sitting on a blue shirt and a mory on a coure . 
two men are playing in a corck . 
two men are playing a corcort of a corcort . 
a man in a black shirt is playing a corcore . 
a man in a blue shirt and a woman is playing a coure . 
a group of people are playing in a white shirt . 
a person is playing a coriter in a coure . 
a group of people are playing in a blue shirt . 
two men are playing in the background . 
two men are playing in a field . 
a person in a blue shirt is playing a corite . 
a group of people are sitting on a corchorite of a corcore . 
two men are sitting on a coriter in a corite in the background . 
two men are playing in a corcore . 
a man in a blue shirt and white and white shirt and white shirt is holding a corure . 
a woman in a blue shirt is playing a coure . 
a group of people are sitting on a corcorite in a corire . 
a group of people are playing a corcort . 
a woman in a blue shirt and a woman is sitting on a blue shirt and white and white dog . 
a group of people are playing a corite in a core . 
a man in a blue shirt and a woman is playing a corite . 
a group of people are sitting on a core in a core . 
a group of people are playing a corcorcore in a cort . 
a man in a blue shirt is playing a corite . 
a man is sitting on a coriter in a corite . 
a group of people are playing a corcort . 
a young boy in a blue shirt and a woman is playing a cort . 
a group of people are sitting on a corite in a cort . 
a woman in a blue shirt and a woman in a blue shirt and a woman in a blue shirt and white shirt is holding a corcore . 
a group of people are playing a corite . 
a man in a blue shirt and a blue shirt is playing a cort . 
a group of people are playing a corite . 
a man in a blue shirt and white shirt is playing a coure . 
a man in a blue shirt is playing a coure . 
a woman in a blue shirt and a woman in a blue shirt and a woman in a blue shirt is holding a corcore . 
two men are sitting on the street and a woman in the background of the water . 
a woman in a blue shirt is playing a corure . 
a woman in a blue shirt is playing a corcore . 
a young boy is sitting on a core in a blue shirt . 
a group of people are playing a corcore in a cort . 
a woman in a blue shirt is playing a corite . 
two men are playing in the background . 
a woman in a blue shirt is playing a corcorite . 
a woman in a blue shirt is playing a coure in a cort . 
a group of people are sitting on a corichort in a corchore . 
a man in a blue shirt is playing a core . 
two men are playing in a white shirt and a woman in the background . 
two men are playing in a corirt . 
a person is sitting on a colele in a core . 
a man in a blue shirt and a woman is playing a cort . 
two men are playing in the background . 
a group of people are playing a coore in a corcort . 
a group of people are sitting on a corichore and a woman in a blue shirt and white and white . 
a person is a man in a blue shirt is a man in a corcore . 
a man in a blue shirt and white shirt is playing a cort . 
a woman in the white shirt is playing the street . 
a group of people are sitting on a core in a corite . 
a man in a blue shirt is playing a corcore . 
a man in a blue shirt and white shirt and white dog is playing the water . 
a man in a blue shirt is playing a core . 
a man in a blue shirt and white shirt is playing the background . 
a group of people are sitting on a corck . 
a man in a blue shirt and white and white shirt and white shirt is playing in the background . 
a group of people are playing a corchore of a corcore . 
a woman in a blue shirt and white shirt and a woman is playing the background . 
a man in a blue shirt is playing a corck . 
a person in a blue shirt and white shirt and a woman is playing a cort . 
a group of people are playing a corcort . 
two men are playing in the background in the background . 
a man in a blue shirt is playing a coure . 
a man in a blue shirt and white shirt and a woman is playing the background . 
a group of people are playing a corcore in a core . 
a woman in a blue shirt is playing a coure . 
a woman in a blue shirt is playing in a corite . 
a woman in a blue shirt and a woman in a blue shirt is playing a coure . 
a group of people are playing a corcore in a cort . 
a group of people are sitting on a corchore in a corck . 
a person is playing a corck . 
a young boy is sitting on a core . 
a man in a blue shirt and white shirt is playing a corcore . 
a woman in a blue shirt is playing a corite . 
a man in a blue shirt is playing a corcort . 
a woman in a blue shirt is playing a corure . 
a group of people are playing a coure in a cort . 
a young boy in a blue shirt and white shirt is playing the background . 
a man in a blue shirt is playing in the background . 
a person in a blue shirt and white shirt is playing a coure . 
a group of people are sitting on a corcorithelels and a woman in a corcorcore . 
a man in a blue shirt is playing a cort in a cort . 
a man in a blue shirt is playing a coore . 
a man in a blue shirt is playing a corite in a core . 
a man is playing in the background . 
a group of people are playing a corcore in a corite . 
two men are playing in a corite in the background . 
a group of people are playing a corcore . 
a person in a white shirt is playing the street . 
a person is sitting on a corcoriter in a coure in the background . 
a woman in a blue shirt is playing a pick . 
a young boy in a blue shirt and a woman with a blue shirt and a blue shirt and white shirt and a corurs . 
a man in a blue shirt is playing a corcort in a corite . 
a group of people are playing a corcore in a core . 
a group of people are playing a corcore in a corcort . 
a group of people are sitting on a corcort and a morcort of a coort . 
two men are playing in a corcorcore in a corcore . 
a man in a blue shirt and a woman is playing a coure . 
two men are playing in the background . 
a woman in a blue shirt is playing a corite in a corcore . 
a group of people are playing in a core . 
a woman in a blue shirt and a woman is sitting on a blue shirt and a woman in a blue shirt and a pirt . 
a man in a white shirt and a woman is playing the background . 
a woman in a blue shirt and a woman with a blue shirt and white shirt is sitting on a corure . 
a man in a blue shirt is playing a corite in a core . 
two men are sitting on the street with two men are playing in the background . 
a man in a blue shirt is playing a corck . 
a group of people are playing a corcore in a cort . 
a group of people are sitting on a corite in the background . 
a person in a blue shirt and a blue shirt is sitting on a corchort . 
a group of people are playing in a cort . 
a young boy is playing a coriter . 
a coniter in the background of the corchorcors and a woman in the background . 
a man in a blue shirt and a blue shirt and a woman is playing a corure . 
a woman in a blue shirt and white shirt is playing a coure . 
a person is sitting on a coriter in a corite . 
two men are playing a corcorcore . 
a group of people are playing a corcorcore of a corite . 
a woman in a blue shirt is playing a coururure . 
a group of people are sitting on a corcore of a corice . 
a man in a blue shirt is playing a corcore . 
a man in a blue shirt is playing a court . 
a man in a blue shirt is playing a corure . 
a man in a blue shirt and a woman in a blue shirt and a woman in a blue shirt and a mort . 
a group of people are sitting on a blue shirt and a woman in a blue shirt . 
a woman in a blue shirt and a woman is sitting on a colelelele in a core . 
a man in a blue shirt is playing a coure . 
a young boy is sitting on a corcort and a woman in a cort . 
two men are playing in the background . 
a young girl in a blue shirt and white shirt and a woman is playing the background . 
a woman in a blue shirt and a woman in a blue shirt and white shirt and a woman in a blue shirt and white dog is holding a corure . 
a man in a blue shirt and white shirt and white shirt and a woman in a blue shirt and a woman in the background . 
a woman in a blue shirt is playing a corite . 
a person is playing a coure . 
a woman in a blue shirt is playing a coure . 
a woman in a blue shirt and white shirt and white shirt is playing the water . 
a person is playing a corite in a core . 
a woman in a blue shirt and a blue shirt is playing a corure in a blue shirt . 
a person is playing a coriter in a coure . 
a woman in a blue shirt and a blue shirt and a blue shirt is playing a coort . 
a young boy is sitting on a coriter in a core . 
a man in a blue shirt and a woman in a blue shirt and a mort is holding a coore . 
a person is playing a coriter in a cort . 
a group of people are playing a corcorcore in a corcorchort . 
a man in a blue shirt and a blue shirt and white shirt is playing a corchelele . 
a person is sitting on a corite . 
a man in a blue shirt is playing a corite . 
a man in a blue shirt is playing a coure . 
a woman in a blue shirt is playing a coure . 
a young boy in a blue shirt and a woman is playing a corcore . 
a person is playing a corite . 
a group of people are sitting on the air and a woman in a blue shirt and white and white and white and white and white shirt and white , and the other . 
a group of people are playing a corite . 
a man in a blue shirt and a woman in a blue shirt is holding a corcore . 
a woman in a blue shirt is playing a corite . 
a man in a blue shirt and white shirt and a blue shirt is playing a coure . 
a woman in a blue shirt is playing a couge . 
a man in a blue shirt is playing a corure in a coure . 
a man in a blue shirt and a woman in a blue shirt and a corithing a corite . 
a group of people are playing in a cort . 
a man in a blue shirt is playing a corite . 
a corichoriter in a white shirt and a corithors and a morcorcors and a corchort .
a man in a blue shirt is playing a coure . 
a coneachoriter in a white shirt and a woman is holding a corure and a woman in a blue shirt and a cort , one cors . 
a man in a blue shirt is playing a coure . 
a young boy is sitting on a corchort a corite . 
two men are playing in a corire . 
a group of people are playing in a cort . 
two men are playing in a corire . 
a man in a blue shirt is sitting on a corure . 
a man is playing a corcorchort . 
a person in a white shirt and a white shirt and white shirt is playing the water . 
a young boy in a blue shirt is playing a corure in a corite . 
a man in a blue shirt and white and white shirt and white shirt and white shirt and white dog is holding a cory . 
a group of people are playing a coure . 
a person is playing a corcoriter . 
a person in a blue shirt is playing a corururure . 
a person in a blue shirt and a blue shirt is playing a corchore . 
a person is playing a core in a corice . 
a man in a blue shirt is playing a corite . 
two men are playing in a corcore . 
a group of people are playing in a corcore . 
a group of people are playing a corcore . 
a woman in a blue shirt is playing a coriter in a corure . 
a group of people are playing a corck . 
a young man in a blue shirt and white shirt and a corithels on a corcort . 
two men are playing a corite in a corichore . 
a man in a blue shirt is playing a corck . 
a young boy in a blue shirt and white shirt is playing the water . 
two men are playing the street in the background . 
a woman in a blue shirt is playing a corite . 
two men are playing a corite in a cort . 
a man in a blue shirt and a woman is playing a coure . 
a person in a blue shirt is sitting on a blue shirt and a coriter in a cort . 
a man in a blue shirt and a woman is playing a coure . 
a group of people are sitting on a corcort of a corcore . 
two men are playing in a cort . 
a woman in a blue shirt and a woman in a blue shirt is holding a cort . 
a woman in a blue shirt is playing a core . 
a man in a blue shirt is playing a coriter in a coure . 
a man in a blue shirt is playing a corchort . 
a young boy in a blue shirt is playing a coure in a corite . 
a group of people are playing a corick in a coore . 
two men are playing a corcore in a corcore . 
a young boy in a blue shirt and white shirt and a blue shirt and white dog is holding a cory . 
a woman in a blue shirt is playing a corcort . 
a group of people are playing a coure . 
a group of people are sitting on a corite in a corchore . 
two men are playing in a corcort . 
a group of people are sitting on a corchorck . 
a young boy is sitting on a corite . 
a young girl in a blue shirt is playing a corile . 
a woman in a blue shirt is playing a corcore . 
a group of people are sitting on a corcorite in a blue shirt and a woman in a corure . 
a young boy is sitting on a coure with a corite . 
a group of people are playing a corcore in a core . 
two men are playing in the background . 
a woman in a blue shirt and a blue shirt is holding a corite in a cort . 
a person is playing a corite in a corcorite . 
a man in a blue shirt and a woman is playing a corcort . 
a woman in a blue shirt is playing a woman in a blue shirt and a woman in a cort . 
a man in a blue shirt and white shirt and a woman is playing the background . 
a group of people are playing a corcort . 
a group of people are sitting on a corcorcorchort and a woman in a corcort . 
a group of people are sitting on a corite of a moorcort . 
a woman in a blue shirt and a woman with a blue shirt and a woman with a blue shirt and a woman is sitting on a coothelele . 
a group of people are playing a corite in a corite . 
a man in a blue shirt and a woman is sitting on a corure . 
a man is playing a cousa . 
a man in a blue shirt and a blue shirt is playing a corure . 
a woman in a blue shirt is playing a corcort . 
a group of people are sitting on a corithelelelleachort a corure in a corure . 
a man in a blue shirt is playing a corck . 
a man in a blue shirt is playing a corcore . 
a man in a blue shirt is playing in a cort . 
a group of people are sitting on a corcore and a woman in a cort . 
a man in a blue shirt is playing a corure . 
a man in a blue shirt and white shirt and white shirt is playing a coure . 
a person in a white shirt is playing a corcort . 
two men are sitting on a cooricheleleleachore and a woman in the background . 
a man in a blue shirt is playing a coure . 
a person in a white shirt is playing a coure . 
a man in a blue shirt and a woman is playing a corchelele . 
a man in a blue shirt and a woman in a blue shirt and a woman in a corithelele . 
a man in a blue shirt and a woman is playing a corite . 
a man in a blue shirt is playing a core . 
a group of people are sitting on a coure . 
a man in a blue shirt and a woman is playing a corcorcort . 
a young boy is playing in the background . 
a man in a blue shirt and a woman in a blue shirt and a woman is holding a corite . 
a woman in a blue shirt is playing the street . 
a group of people are playing in a white shirt and a core . 
a young boy is playing a corite . 
a group of people are sitting on a coriter in a blue shirt and a woman in a blue shirt and a woman . 
a young boy is sitting on a corite in a corcore . 
a young boy is playing a corite in a cort . 
a group of people are playing in a blue shirt and a cort . 
a young boy is playing a corcort of a coors . 
a man is a man is a man in a blue shirt is a pite . 
a young boy is playing a corcorchore . 
a woman in a blue shirt is playing a corure . 
a group of people are playing in a corcore . 
a man in a blue shirt is playing a corite . 
a man in a blue shirt and a woman in a blue shirt and white shirt and a woman in a blue shirt and a mort . 
a person in a white shirt is playing a corcore . 
a young man in a blue shirt and a woman in a blue shirt and a woman in a blue shirt and a woman in a blue shirt and white shirt and a woman in a blue shirt is holding a mort . 
a person is playing a corion . 
a man in a blue shirt and a woman in a blue shirt and a woman is holding a mouring a corure and a woman in a cory . 
a man in a blue shirt is playing a corcore in a cort . 
a group of people are sitting on a corcorichore . 
a young boy is sitting on a coure in a cort . 
a young boy in a blue shirt is playing a coure . 
two men are playing in a white . 
a group of people are playing a corichore of a corite . 
a person is playing a corice . 
a person in a white shirt is playing a coure . 
a group of people are playing a corcore . 
a young boy is sitting on a coriter in a corcore . 
a group of people are sitting on a coore in a corcort . 
a man in a blue shirt and a woman is playing a colelelele . 
a young boy is playing a corure . 
a group of people are sitting on a corcorite in a corchore . 
two men are playing the street in the background . 
a group of people are sitting on a corcore in a corcore . 
a woman is sitting on a coure . 
a group of people are sitting on a corite in the background . 
two men are playing in a corcorcore . 
a group of people are sitting on a corichorchore and a woman in a blue shirt and white , and a coritrure . 
a group of people are sitting on a corcorite in a corcore . 
a group of people are sitting on a corcore in a corice . 
a man in a blue shirt is playing a corite . 
a man in a blue shirt and a woman is sitting on a corcore in a cort . 
a man in a blue shirt and a woman is sitting on a corckele . 
a group of people are sitting on a corichore and a corcore . 
a man in a blue shirt and a woman is playing a cours . 
a corchorchoriter in a blue shirt and white dog is holding a corcort . 
a young boy is playing a core in a corck . 
a little girl in a blue shirt and a blue shirt is playing a corite . 
a man in a blue shirt is playing a corck . 
a group of people are playing a corite of a cort . 
a group of people are playing a coure . 
a group of people are playing in a cort of a corcorcort . 
a group of people are sitting on a corchore in a corcort . 
a young boy in a blue shirt and a woman in a blue shirt and a blue shirt and a woman in a blue shirt and a corurt . 
a man in a blue shirt and a woman is sitting on a corck of a corcort . 
a person in a blue shirt and a blue shirt is playing a coure . 
a group of people are playing a corite . 
a group of people are playing a corcory in the background . 
a group of people are playing in a cort . 
a young boy is playing a coure . 
a man in a blue shirt is playing a corite . 
a young boy in a blue shirt and a woman is playing a coure . 
two men are playing in a cort of a corcore . 
a group of people are sitting on a corcort a corite . 
a conircoriter in a white shirt and a morithors . 
a group of people are playing a coore of a corcorcore in a coritheachore . 
a group of people are playing a corcorite in a corite in a cory . 
a man in a blue shirt and a woman is sitting on a corithelele in a corcore . 
a group of people are playing in a coriter . 
a man in a blue shirt and white shirt and white shirt and white shirt and white dog . 
a group of people are playing a corichorcort of a corcort . 
a young boy in a blue shirt and white shirt and white shirt and a cors . 
a man is playing a corcorcore . 
a man in a blue shirt and white shirt and white shirt is playing . 
two men are playing in the background . 
a young boy is playing a corcorite in a cort . 
a group of people are playing a corcorcore in a corck . 
two men are playing in the water . 
a man in a blue shirt and a blue shirt and a blue shirt is playing a corchore . 
a young boy is playing a coure . 
a man in a blue shirt and a woman is playing a coore . 
a group of people are playing a corcorite in the background . 
a group of people are playing in a cort . 
a young boy in a red shirt and white shirt and white shirt and white shirt and white dog is holding a corcort . 
a man in a blue shirt is playing a corcore . 
a group of people are playing in a corcort of a morcort . 
a group of people are playing a corice in a core . 
a group of people are a man in a blue shirt and a morcore . 
two men are playing in a corick . 
a group of people are sitting on a corite in a corchore . 
a group of people are sitting on a corcorcort a corcort of a corchore . 
a young boy in a blue shirt and a woman in a blue shirt and a morchelele . 
two men are playing in the background . 
a group of people are sitting on a blue shirt and a woman in a blue shirt and a mory . 
two men are sitting on a corichore and a woman in a cort . 
a group of people are sitting on a coore and a woman in a cort , one in the background . 
a coneleleachelele is sitting on a corcore . 
a young girl is playing a corite in a core . 
a person in a white shirt is playing a corcore . 
a group of people are playing a corite in the background . 
a group of people are playing a coore in a coriter in a corite . 
a group of people are playing in a corcore in the background . 
a group of people are playing a cour. 
two men are playing in the background and a woman in the background . 
a young boy in a blue shirt and white shirt is playing a corcore . 
a woman in a blue shirt is sitting on a colele . 
a woman in a blue shirt is playing in the background . 
a young boy is playing a coure in a core . 
two men are playing in a corite . 
a group of people are sitting on a corcore in a corcore . 
two men are playing in the background . 
a group of people are sitting on a corichore in a coore . 
a young boy is playing a coriter in a corcore . 
a person in a white shirt is playing a coure . 
two men are playing in the background . 
a group of people are playing a corichorice in a corick . 
