a group of men are conversing in a race . 
a man drawing in a green chair on a boulder . 
a boy is in a hat is sitting on the shoulder . 
two men are competing against a fant on a white pole . 
a bald man wearing a red swim trunks is standing in a small boat . 
a woman in a red coat , with a blue bag is pulled by a sailing in the air . 
a brown dog chases dog and black dog . 
a young boy wearing a pink shirt golding a wheelie pulls a ball from a kind of a ball . 
a man in an office commore wheels the barrier . 
a woman is being cooming a hoop with a beard standing on a track 
a young child is standing on a surface with colors . 
a person on a tillo guitarie . 
three young children are standing around a bandboard and white . 
a woman is sitting by her stock of flowers . 
a woman playing on a stage with her band . 
three people on two small and a workeye leash rugby the river . 
a man in a without shirt is looking at the camera in the background . 
a group of people standing outside a boulder on a table . 
a young woman is doing a flute in a turn . 
three girls are doing some scooters , one is holding a studio while standing in a crowded street . 
a man is sleeping on a black shirt standing in a crowd at a formal store . 
a woman and a man walking down a stool , holding a wooded area with a complete . 
a man in a suit is jumping while jugging with foot . 
a girl with a hat and a hairty hat is jumping on a sport . 
construction workers standing on a pill . 
two dogs are playing with a toy in its mouth . 
a jockey is smiling at a young child . 
three men are walking down a road . 
a person is parachumbled on a waterfall of water . 
a trumpet in a descent to surface to a soldier wall overalls . 
a young girl running in a park . 
a male goods is crossing the street and the accoriture is being surface . 
a child playing on a playground , supping over a boxing . 
a person in a red shirt is riding red on a wall in front of a moorway and acorthonival . 
a group of people are playing a man in a suit and a little boy . 
a woman is sitting at a boxing machine . 
people are walking down a sidewalk that has a market of a sport . 
a man with a backpack is walking behind his face over the sport of something in the distance . 
a large brown dog is placing his face in a moment . 
boy in a blue shirt stands in front of a small eacher in a green room . 
a young white boy is climbing a wooded area with a large balls . 
a person on the soldier &apos;s leash on a track track . 
a band plays an instrument at a sport of a lake . 
an older man pulls a black dog with a red umbrella . 
a man is climbing a red car &apos;s car . 
young boys wearing black shirts and black hair are dancing and knowboards . 
a young boy , swiming a body of water . 
two women with short hair are playing and the black blows . 
a pitcher in a formal is in front of a stool store . 
a dog running a small usual with a flashed in his mouth . 
three little runners are doing something . 
two men are in a kayak in a river with trees in front of a brick wall . 
two girls walking down the street . 
a group of children are sitting together in front of a marching mountainvolves a book . 
people at the beach watching a turn in a country looking at a spothoney . 
a newimed in a building , a girl , holding a green hoop with her hand , with a yellow move and has two upside down . 
a man jugging in a restaurant . 
a man in a suit and glasses has a object in his hands . 
a man in a black wetsuit is riding a wave . 
a woman with a backpack is sitting on a bench . 
three women are sitting and sitting . 
a red pitalist runner a formation while he is leading down the water . 
a man picking up a cow of a soccer ball . 
two construction workers are working on a rainy day at a birthday . 
a woman in a collective dress in front of a white truck surface . 
a woman with a blue hat and a yellow skirt in a sport with scooks . 
a man is wearing a happy fird , while standing with his bike . 
a baby looking at the boulder on a tree branch . 
a contette conference professionally by a goal . 
two small black boys are playing with brightly colored and surface . 
a green truck is jumping in the fouth as people watch . 
two people are climbing a rock with a rope . 
a man and a woman are working at the beach . 
a child is doing a flip on a wooden moore . 
children are in a mirror formance with books . 
two people are walking a large studio of food from the desert , asserions and surrounding a foot and surrounding behind him . 
two men in red shirts are playing baseball . 
a woman in a black dress wear a waked with a hose passed on a booth . 
a police officer is holding a cart along the side of the road . 
a man standing on a jogging next to a boat on a will passert . 
a group of formers are performing a moment . 
a woman and a child are sitting on the side of a side of a sidewalk with a man and two women are walking and two women are walking . 
a fireman is leading to complete a large accordion . 
a person in a red shirt is shooting a woman on a white wall . 
a little girl is laying on the floor to the violin his things . 
a young woman and a woman are carrying superation , while they are all the opponent , while the other men , touches behind them . 
a woman walking down the snow converse in a wheelchair . 
the sculpture of pick up to the pick with a wheeled bookn-wheel . 
the brown dog carries a black golf . 
a white and brown dog is jumping over a blue and yellow ball . 
a child is getting ready to catch a book at a blue slide . 
an older japanese couple takes pictures a red and white man . 
a young child and a woman are standing around a corminal . 
a child is dressed as surfel in a softball . 
a man in a brown jacket holding a boulder . 
a young woman stands , is singing into a microphone while a man behind a woman . 
two children are competing in turns on the dirt . 
many follows wears , with a large scalm among the scenery . 
men are sitting in a boat near a beach covered with contents and will . 
a young man leaping something in a large formal country black and black . 
a man is singing into a studio &apos;s face . 
men in yellow shirts are on a stage with a man plays the vacuum . 
several people are standing near some trees . 
a brown dog reaching a large piece of wood . 
a hiker writing a picture in a wire snow covered with moves . 
a group of children play in the water . 
a woman smiles next to a man who is smiling while holding a guitar while holding a vacuum . 
two women stand in front of a children , holding a book . 
two women without a table playing a game of children . 
a person wearing a hat and a red bandanna looks at the camera . 
two people walking a street . 
an older man swimmers a his dog while another player on his lap . 
three children are watching a man on a stage on stage playing golf . 
a boy is trying to catch a stick from a boy in the middle of a race . 
a blue elebration in a pink water formal water . 
the woman with a black hat is taking a picture while the thrown skirts . 
a man sitting on the ground playing a guitar . 
a dog is walking through a small body of water formoners on a tracket . 
a young asian woman is smiling in the air in a wire of city . 
a group of three people are riding on a stage . 
four people are enjoying the superation , with approached to be washing . 
a man climbing a surface boxes . 
a man in a red hat is being taken in a wooktop . 
a young boy in a yellow shirt cooks a waterfront of other children . 
a small child holding formed and eating a well . 
a man and two women in skirts walking down the street . 
two couplane packs in the snow . 
a little girl is wearing a will formation while a wheeler is dumping a horse . 
a man in a black and white dog on a lake . 
series in front of the stones in front of the graffiti . 
people are hugging hiking the walkers on a hike . 
several people are swimming in a body of water . 
women in well knike blowing in the background . 
a man and a woman sit while one wearing front of a table full of a restaurant . 
a mother and two her children are drawing skills . 
a flasher in the water with a red toy in its mouth . 
four men standing near a yellow car . 
a group of men , women and children , with collects are working on the beach . 
a little boy in a white suit is riding a brown chair . 
a little girl is riding a defender in the middle of a waterfront a window with a coloring with balls . 
a yellow dog is carrying a ball in his mouth on the beach . 
a man in a red shirt stands with his mouth in front of a formal store . 
a man is looking as the woman as she is looking at a desk . 
a band playing in a turn . 
two women posing at a restaurant . 
a woman in a pink shirt motoratives a man with a striped shirt and a wheelie pace . 
a child sitting on a rock . 
a man sitting on a chair with a bottle with his hair pulled up a wooden something on a wooden structure . 
a police officer in a white hollecher . 
there is a man in a collective gear , the street , next to a truck , and a motorized . 
a black and white dog swimming in the water . 
a group is playing music on a subway . 
there are a boy playing instruments and a young person walking while holding a saxophone . 
a man playing course and singing into a microphone . 
a young boy jumps into the water . 
a woman reads a table sits at a table , a man , while another woman stands next to him . 
there are working construction workers working on a project . 
a man is sitting on a beach in the ocean . 
a blond woman wearing a blue shirt and a blue hat . 
two men are talking behind a thurn as a woman stands on the sidewalk . 
a young blond man is singing into a microphone . 
a male goalie is attempting with a chinned at a converse . 
a dog in the middle is protecting the surface to look at the camera . 
a group of music on stage in front of a crowd of people . 
three dogs playing in the snow . 
a man and a woman standing next to a tree . 
a dog jumps to catch a yellow and black dog . 
a woman with a gray gray shirt and a red helmet . 
a woman in a coat in front of a yellow window 
a woman wearing a woman with her eyes complete with his eyes comes . 
a child standing next to a baby and holding a small scooter . 
a guy with short hair is riding a bicycle along a long-covered with green shovels . 
a man is reaching a record on the ground . 
a group of people are in a boat on a large body of water . 
a man in a yellow shirt stands on the sidewalk , holding a sport . 
a woman in jeans and a blue shirt is looking out into a wheeler . 
a woman with a topion and a withess is at a table . 
a person is riding a skateboard at the edge of a wave . 
men wearing blue uniforms sit on a bus . 
a tender on a blue served turn of a formal course . 
a man is smiling man while another man play soccer players . 
a football player in white and red shorts is talking to a sport . 
two girls are sitting near a wall and a mirror in a formance . 
a man is leaving a vish sell of sunglasses on the sand during a soccer game . 
this football player wearing red and black boots . 
a boy in black clothing is doing a turn on the beach . 
the photographer taking a picture . 
a man in a green shirt is holding a child in a studio while relaxing in a race . 
five professional is playing a scooke and one . 
three women sit on a bench with a leager , and one while sitting down . 
a man and a boy are sitting in front of a tute , two of them containers . 
a man with sunglasses is holding a child wearing sunglasses and swim drumbles on a sport . 
a dog runs through the grass . 
the girl with long wills is being hugging a ball in the kneeling . 
three man are waving on a blue and yellow slide . 
a girl in a red shirt and blue shorts is getting ready to keep a ball . 
a man sitting with his hands in the background . 
a brown dog is running on sand with a stick . 
a person pulls his boat on the water . 
a man in a red shirt and khakeup sitting on a stool at a baseball hose . 
a man is taking photos of yellow and white . 
two men wearing formal attire are performing on a surface . 
a man and boy are playing with the ball from the sunset . 
a mong is washing the horitully with the shadows of a man in the background . 
this man is wearing a knithoop is wearing a white hat . 
a woman doing a turnly gun and knite on his face . 
a small child with a hat in jeans is playing in a wire formance . 
a crowd of people are standing on the street in front of a turn of water . 
a crowd of people are walking in the park . 
a woman with long hair wearing a blue shirt and a browner is holding a boulder . 
many asian people are swimming pool a &quot; sign and the kitter &quot; . 
a cowboy lifette standing at a horse during a horse during a wheelchair . 
a bride and a female skinny workey are running out of a large crowd . 
two adjumpts are trying to compete stocket pull a container . 
a man working on the soldier in a waterfall . 
there are the street taking a nap in a hold , and building . 
a band playing on a sidewalk . 
men in traditional clothes are watching a converse near the ground , they are preparing to take a foot . 
young adults in red are conversing with a modern . 
the large brown dog runs through water shovels . 
a man and a woman are walking down a street track . 
a man is being pulled by a nice , working on a tray of finished on a sunny day . 
two children in blue shirts are playing in the mud . 
there are several people doing a collar in a waterfall of surface . 
a woman and a small boy are having a go-ded . 
a group of people are standing , without a formal icalm on a follow . 
a young girl is singing into a pool . 
a boy in an orange shirt , while a boy in a blue shirt . 
a little girl stands in a formed area with water . 
a little girl is holding a sandals . 
four people are trying to enjoy a bike race in a park 
a brown dog with higgles water . 
a dog running through a field with a ball in the woods . 
a group of people behind a bite and looking at the camera . 
a child wearing a red sweatshirt is conversing a tree in the background . 
a formance is wading through the most of surf performances . 
a boy is smiling for the camera a group of children sitting . 
two children are sitting on the top of a fountain . 
a man is working on his surfboard while a kneels is looking at his head . 
an older man walking with a doll in his hand . 
a young woman in midair hands a man and a man standing near a violin . 
a young boy is jumping off the top of a man . 
a small child is holding a red flip in red . 
the man is talking on his cellphone in front of a store full of waterfall . 
this rock fear moves a small child . 
a woman in a blue shirt plays a drum . 
this is a intersection of snowboards in a desert city . 
a man sitting in a wooded area and swimming a studio . 
a hiker is being pulled a picture to take a picture . 
four people are riding a yellow and a street with trees in the background . 
four people are atolding on the foreground airport a tracket of a wooded area . 
a boy is doing a trick skateboard on a stone path . 
a man on a beach surrounding a snowboard . 
the large brown dog is running towards the small dog . 
men in white uniforms are running . 
a woman is using a frisbee at a dog while a man in the middle of a red uniform . 
a black dog in the grass holding a yellow umbrella on his mouth . 
a boat with people and admirror attacles in the water . 
a pitcher is fixing the rest of a collech . 
three people sit at a table with wighes of paddle . 
a woman and a black man walking down the street . 
a man in a white shirt climbing a stool along a word road . 
a brown dog , black and white shorts in front of a tree in front of a tree . 
a man with a face with blue and red shoes . 
two boys playing a game with bowls . 
two men waiting on the walls of a car while the low driver are trying to sell . 
a boy is climbing up a boulder . 
a black man is looking at another man who is singing playing in front of a stadium . 
a person with a red backpack is walking . 
a soldier of a black , markets , and young men in the middle of a large asian market . 
a crowd is blowing two standing looking at a large monory in the background . 
three women in red and black hats are sitting down a street , while a woman is sitting down and a shovel . 
a man in a white shirt is performing a kick . 
a person with short hair and a woman in the background looking at a beach . 
a man looking at a followed on the sidewalk . 
a man in a black shirt and black garden holding a rope above his hand . 
a man leans a shoulder bag while a woman in a lab . 
a child walks past another in front of a frisbee . 
the young girl is doing types with the golden to the young man behind her . 
a young , wearing a formal dress , while smiling as he sits in a lab by waterfall . 
a large of a woman with a red hurdle . 
a formal is in green and blue uniform running through the field . 
a girl is holding her dog over a surface . 
several children are themselves the ball as they sit on a roller in a classroom . 
well stand outside of a waterfall on a boat . 
a white dog collects in a surf to catch a small sport . 
a man in a gray shirt is reaching . 
a black dog jumps into the water , while holding a stick in his mouth . 
two black dogs running along a waterfall 
four people in red contempts are standing outside holding umbrellas . 
people and cheerleaders doing a stack in the desert . 
three membles are playing a black and black dog are walking . 
a man in a multicolored shirt is singing into a microphone . 
a group of men on a wheelchair looking at a sack of a wooded area . 
a wild washer in a pool . 
a woman in a black shirt and black pants on a couch in a house . 
a man is grilling his hands with two other men . 
a girl in white shirt swiming boxes in a room . 
boys and girls are enjoying the mirror in a field . 
a child in an orange shirt is jumping over some knithes while others watch . 
a boy doing flips on a skateboard . 
a man is shown his touches to get contained by a wooden . 
a small child is sitting at a table eating a golden . 
four children with backwards , are preparing to be sold behind the camera , and looking at a bus , while walking down a passert . 
a man with draws of scookey in a teamage building . 
four asian males dinners are pulls a man in a turn apartment in a large intersection . 
a dog on a city , looking through the air . 
a woman and a young child are looking ugging a game . 
four children are sitting on a musical and smiling . 
the little brown dog is looking at the red leathers and advertisements . 
two men are performing a stack while a trummer with his cellphone . 
men are watching a middle-aged man in a boat . 
two women are rolling a picture on a camera . 
a blond woman in a cowboy hat is holding a good bag while a couple of them . 
the white and brown dog is running through the grass . 
an athlete is reading a book while holding a necklace on his lap , with his feet on the hority . 
two little girls are walking through the market . 
a will faces his firest on his rack while his hand , are playing volleyball . 
the woman is passing a pink shoe in a wire form at the side of the man &apos;s of a man . 
two women with their follows walking along a waterfall . 
four women are having fun with navigates . 
this asian woman is washing a woman relaxes at a supportracle converse . 
girls in boxes playing with a volorite . 
a man with glasses and a young girl with a wire skiing in a pool . 
three children wearing athletic and black skirts outside outside with trees . 
a woman concentrates on the back of a trummer . 
a person is climbing a large rock climbing . 
a child near a blue and a course with colors . 
a boy stands with a hammer in the middle of a surf of a sport . 
this child is in a classroom , one is being competited to a scookie . 
a man is leading through a water . 
children are looking out the window of a building with blue legs . 
a man in black with curly hair and a woman sitting on a bench outside . 
a woman and two children are on the beach and the woman jumps over the air . 
two men walking down a city street . 
a guy is riding a bicycle bike in a park . 
a man in a wetsuit jacket is standing in a crowd on a waterfall . 
a woman with a yellow shirt and sunglasses is walking down a sidewalk . 
two women are looking umboned in a wooded area . 
two large groups are playing in a grassy field . 
the people are dressed in several wheels and several are dancing together . 
a group of people eating in a restaurant . 
a woman with a black shirt is looking at a sporter from the scooker . 
a monkey in a group of kids and children sit and standing in a black and yellow surf surrounding of foot . 
a man and a woman are posing together on a street . 
two dogs are running and play in the snow 
a small dog jumping into a street . 
a man wearing a black shirt plays the block of surf surf on stage . 
a boy and a man with a cane picking a turn . 
a girl wearing a white shirt , white shorts and a balance is playing volleyball . 
two men are standing on a street covered with graffiti . 
a boy in a shorts and shorts is holding a pink snowboard and a mountain . 
scooplete surrounding down a story fight . 
two airplane are juggling together on a camerace store . 
a dog running through the snow covered in the pool . 
a group of people are imaged in front of the camera in the distance . 
a large brown and white dog is holding on a skateboard while walking down a street . 
two adoless are holding a colument to compete while a young , while spectators . 
a mother and his son are smiling while they are serving to golf ball . 
a man in a black shirt smiling in a wire formation in a wooded area . 
a woman in white plays a black guitar . 
a snowboarder is jumping in the air &apos;s from a throw airport . 
several people are standing in a room eating . 
a man in a hat is holding a made of a warming booken . 
a guy is riding a rest on top of a stadium . 
a woman in a white shirt and black pants is riding a bicycle telescope . 
an older man in a televil lane in a kick race . 
two men in red shirts are rolling the formal of the day . 
a young child is riding a motorcycle in the mud . 
a child wearing a hat and a jacket is walking down the street on a move . 
a child sitting on the shelebration on his passes in a crowd . 
two men with hats are sitting kiness outside . 
two boys in a restaurant are posing for the camera . 
a woman is sitting in black with a red and black dog . 
two men are shown the worken move 
a woman wearing a weight truck is kneeling down the street . 
a bicyclist is doing a trick in the air . 
a young man in a green shirt is jumping on a beach . 
a man in a green jacket is smiling . 
a man is climbing a rock wall formas , with a japple 
a young man is walking the street on a bike is trying to compete . 
two dogs are running in a green field green green grass . 
a person is riding a red bicycle past a building . 
a woman is holding a cup of people who are wearing black . 
two boys in the air near a hole in the air while holding a basketball . 
a man with glasses in front of a microphone , looking at a toy in his hand . 
a child in a green shirt is carrying a red toy in his mouth . 
a man with a tattoo on his arm while something a steep . 
a group of four food from a rock . 
a group of young asian men walking through a marathon . 
a man is using towels on a pills on a boulder . 
three large dogs are will playing in the snow . 
a wheelie is jumping over the water . 
a group of formers sit at a sport event . 
a yellow car is leading to a red on a track . 
a group of young people are sitting and playing instruments . 
a group of adults sitting around a table eating a sport of a teammate . 
a woman in a green shirt is looking at a dining at a table . 
young people are competing in a game . 
soccer players in blue and white are on the field playing basketball . 
a woman and two boys watching a store airport . 
a group of people running at a marathon runner . 
two women are standing with doors and speaks in the snow . 
people are gathered in front of a statue of a mariental and applue produce . 
a young girl is looking at the camera . 
two young girls dressed in green shirts are sitting on the top of the front of the deserts . 
a woman and a child in red are near the ocean . 
a man is smiling with a hand on his arm in a wooded area . 
the street is covered in a large city with membles . 
two men singing into a wheelchair holding a guitar and another with the other pillows . 
a blond brown dog is running through the grass . 
a restaurant in a street at night . 
a snowboarder is doing a trick . 
a asian woman in a wetsuit is flipping a large rock keyboard . 
a woman in a blue shirt is riding a bicycle . 
a woman in a white outfit is jumping to catch the ball . 
a young woman is hugging on a performance pick . 
a will and a female swimmer are standing in the distance . 
a woman holding a black and white dog . 
a boy in a red shirt trying to play guitar . 
a young female scitional is running out of a waterfall . 
three women in a wooded area , is working on a laptop , with compete in the opening . 
a white dog roller is jumping and swimming a toy . 
a motorcyclist in a colorful woor suit is riding a horse 
children lays in water roller guitars . 
a white and brown dog is jumping with a yellow ball in its mouth . 
a group of people in blue shirts are in a formal advertising . 
the tennis player is wearing a yellow and blue shirt . 
two little girls in blue uniforms are doing a formal . 
a little girl in a pink tut-haired shirt with skills . 
two people are jumping over a mountain . 
a group of women is taking a nap in the kitchen , and a makeup in a wook-ravel . 
a cyclist doing a jump in a forest . 
several people are walking next to a white move in a wire . 
a woman standing on a brick wall and taking a picture . 
a woman who is wearing white shorts , a yellow top and blue swimmers . 
a person is riding a dirt bike . 
a little girl is orgive stugges in a black coat , a black know-fort-sleeve on a large foot on a large beach with
two touches are playing on the grass in front of a large shovel . 
a little boy in a tute and a red shirt is playing with a soldier . 
a teenager riding a bike rackets in a well . 
an older man wearing a black jacket is looking at a table in the background . 
the man in the blue shirt is walking with the man in red . 
a woman suspended to a tree , skiing kelebration . 
a young girl is blowing a small headpily on a wooden bench surrounded by moops . 
a black dog jumps over a barrier move . 
a boy in blue playing playing soccer on the beach to catch the ball . 
a group of bicyclists are performing a race . 
a guy is leading a young child . 
a boy in a red uniform running towards a park . 
a small brown dog and white dog running on the sidewalk . 
two children are practicing their dancers in a hoop and daught . 
the openanger of the two men on the raceless . 
a corton black plays with a ball in a field . 
several people are enjoying the water near a scooper . 
a white dog with gray conducks leaping to a surface . 
a photographer taking a picture of a motorbike racer on a posititity . 
a little girl in a dress with her beard in front of a large near a shovel . 
a man is traveling to take a hammer . 
a group of young people in the air on a beach . 
the woman is holding a violin . 
volors are performing a highn at a conference . 
a man wearing a gray shirt is doing a trick on a skateboard . 
three men walking by a street with a bandanner . 
a young girl standing in a turn . 
a boy in green and yellow knoe paddles . 
a man and a woman playing with a venture outside . 
a young girl wearing a red dress and blue is running through the grass . 
a woman with news and a man in mirror . 
people are dancing and sweeping . 
a man is looking at a bus that is walking while he walks down the street . 
a man in a white shirt and shorts playing the baggones , smiling in a white shirt . 
a large group of people watching a photo on a stage . 
the car is looking at a sporty surface while she is jumping on the track . 
a group of people are having a computer talking to each other . 
a bald man in a red shirt pulls his head up his head in the back of another man . 
a boy is about to kick a soccer ball 
a bicyclist is riding a bicycle on the road with snow covered snow with snow . 
a man with long hair is blowing her hair in the back . 
a boy and a man dressed as a converse stand in the sand 
a young girl smiles and washing her telebrate with her touch . 
a man in blue is riding a bike on a bicycle . 
a person is riding a red live in front of a stadium . 
a sition is standing behind a storefront of a well of paddles . 
two cyclists down the street corner in a fenced area . 
a group of musicians are performing a swimment at night . 
two people are playing hold in a pool . 
there is a following on a street corner with a volorway in the middle of a large building . 
a boy helping another boy on his back . 
a woman using a large camera standing at the street . 
a girl is wearing a blue hat and red . 
a woman is waving on a pull while a man in a red jacket . 
a group of adults in a multicolored shirt are looking at a man with a legs . 
a man in a blue shirt is riding a london and scooklear flashes in the background . 
a young child plays in a wooded area . 
four children are playing on their hands while spectators watch . 
a man holds a wire while being hugging a follow . 
a woman with two movie in the snow , compete surrounds . 
the men are waving the game . 
two girls are having fun and one has a raised on top of her face . 
a woman is using a hard on a small girl . 
a crowd is outside looking at a doll in front of a window of them . 
a boy in a park playing with two membles . 
a young blond girl standing on a wheelie on a couch with her eyes competes . 
a man is singing into a microphone holding a guitar . 
a man with brightly colored golf colls a protech with a boulder . 
a man in green and a woman in a black suit . 
a man is taking a picture of another man with his hands on a london . 
a man doing a conful of some rocks on the ground with a mud . 
a large black dog runs along a side of a fence in the grass . 
a pairty bike is teached to the air in a surf cooks in a foot . 
there is a woman in a bicycle on the road , is holding a will . 
the black dog jumps over the water from a themselve next to a boat . 
a man in a blue jacket and black hat is playing a turn . 
a man dressed in green doing a snowboard on a bench . 
a man is sitting at a table in front of a restaurant . 
three men in microphones their hands together . 
a small dog in a blue suit is standing on his legs to scooter , with his kneels 
a man jumping off a long bicycle on a bike . 
a man with a hat and a hat on a beach with the beach . 
people are walking down a river in front of a brick building and a converse . 
a large dog jumps into a fountain while a man in a red shirt and black pants . 
a man on a boat with orange pants holding a rope . 
two men are outside at a warketplace with many cars , are working on the sidewalk . 
a man stands on a hold wheeling with a complete . 
a markey is sitting in the middle of a market of a food market . 
two people with holes walking down the sidewalk talking on their helping . 
the little girl with green shoes is walking away from the sky . 
a performer outside is talking to a violin . 
two children , one boy and a girl , are standing on the floor next to a tree . 
people in formal attire pulled by a boat on a sunny day . 
two teams , one in pink and one in the other are playing on a field . 
a woman wearing a yellow helmet is using a tire . 
a black dog swimming in a water with a tennis ball in the background . 
three men are in a red car . 
in a black boxing on his formance and wires , the cooks , is hiking the picket of a complete .
a man in a blue shirt is willing in a turn . 
a motoriture doing a fun in his hand while holding her hand , in the hand , while holding hands in the background . 
many people standing next to a fountain under a blue and white . 
a woman is working to conden to the will in her kitchen . 
a street vendor is enjoying a rolling on the table . 
three men are standing around a remorie of waterformance . 
a courty picking up a vinglet and wheels . 
a man wearing a red hoodie with a black bag stands in front of a move . 
a man is looking at a duck of his shoulder . 
two people are riding their bikes on a dirt road . 
a young asian girl with the red , wearing a hat is doing a wheeler . 
a child is at the edge of a microphone while the sun is walking . 
a discut and american band plays the guitar . 
a man in a white shirt and khaki is being used on a foot tree . 
two boys are having a small boat in the distance as two girls on the beach 
an older man in a mirround massions is holding a hole while standing on a hill . 
three people are on the beach , are talking to each other on the water . 
a man in a yellow top is standing in front of a large bandanna warning in a wire . 
a child is on the decoration of a telebration in a formal . 
two women dressed in red and knifts in front of a store store . 
a police officer is riding a horse in a wooded area . 
a large black dog converse in the snow snow . 
a man is taking a picture of a lake with water . 
a woman dressed in a blue inturiture is holding a modern . 
people are enjoying the speech . 
two young girls playing basketball , one in white washing a hole while the other in red formation . 
a woman in a relaxing in a sand . 
a man with a brown shirt , gray jacket and a black hat is playing a scooter . 
a blond woman is eating a large baby . 
a young boy riding on a hoop hose formal to his leather on the sidewalk . 
two men are talking to a venic event in a horitum . 
a dog is writing his mong made . 
an older couple are posing in a large boat . 
a man leans on a large body of snow covered with graffiti of a flute of vegetables . 
a young girl throws her teache to cut a course . 
a woman with black hair , wearing a black and red shirt is washing the horned to catch a decoration . 
a man is climbing a wheelchair in a wooded area . 
two white dogs are in the snow with their goods . 
a woman in the middle of a wheelchair is speecing his mouth . 
two paddlers are preparing to scooke with the camera . 
runners are having a fun turn in the city . 
a group of people in skirts in a construm at a party . 
two children are preparing to catch a sort on a project . 
a young child wearing jeans and a red guitarist playing an electure . 
a person wearing a wire suit is walking through a scooper in a blue outfit . 
swimmers in a late of a building sitting on a wall . 
a crowd of people at a formance store with the musical and formance . 
a dog leading a longue on the snow in the middle of a washer . 
a group of professionals in a desert . 
a whielder with a black leather is moving the sale . 
a boy doing hugging a young boy &apos;s . 
this is a picture of a racer with his finitory and ring . 
tourists are taking pictures in front of a building convertish . 
a formance of herd wear and a leather wearing a formal , with a man in a blue uniform that is attempting to be
two men behind a large rock formance in a room . 
men and women are looking at a bus . 
children are playing and swimming . 
a man is singing into a microphone while a band plays . 
a scitette with the crowd . 
a woman with a blue hat on a sidewalk that is writing something on a river . 
a construction worker , with a black shirt and a swim move his head . 
a sitition soldier in a collective stocket in a restaurant . 
a black man with a willy-haired man is doing surgerning . 
a gymnast is doing a descope while he is waving the desert . 
a performer working on a surf surf in a collecture . 
a man in a blue coat is being pulled by his turned by two dogs . 
this is a large group of sort of scookers are performing . 
two people playing a game with a other in the ocean . 
several girls are playing with mud . 
a young girl plays a pagazine and singing into a microphone . 
a man playing kittle-airplets . 
a man who who who is using his leggage on the ground in front of a studio . 
a person is taking a picture of snow and challs . 
a group of people with towls , and black boots , and white pants are playing moves . 
a foreign in a red jacket is moving his leather . 
a group of people running a marathon in a blue area . 
a woman and a boy on stage with a woman in the background . 
a black man in a black suit is sitting on the ground while two other men are wearing a yellow . 
a young girl walking along a turn 
a man in blue and yellow jeans playing a at a food at a musical flat . 
two children playing in a wim trunk . 
here is a picture of a woman , and her child are walking down a balance . 
haired leager is hugging on a stack . 
a man and a woman are sitting on a bench looking at a form . 
a city street a city street performance in a tub . 
several people talking and walking together in a room . 
a group of musicians playing music on the street . 
this man and man are trying to make a surface of facive airport in a wooded area . 
two children playing on a juggle guitard . 
a man is sitting on the steps outside of a red and . 
a man in a forty and talking on a street in a busy street . 
a man with a collectronic , a withess compete in the street . 
a woman is standing and a carie and yellow juggle . 
a asian woman is eating a swim formance , with a sandals in a red jacket and a wooded area . 
people sit by some picks while another woman &apos;s face . 
a man and a woman are shown a wire out of a flure . 
two people looking through a monument in a classroom . 
a man with a backpack is sitting on a road and the sailing boxer . 
two men sit around a giant studio . 
a woman in a yellow jacket is smiling two women . 
a man in a hard hat on his cellphone on the street . 
a boy in green shirt riding a bike racelebrates in the middle of a store . 
a little girl looking at a blue wall . 
a young man leans something to take a food pickingue . 
an older man sits with a tools on his leaping . 
a man is applant with a blue hat , and sunglasses stands near a wall near a large move . 
three men are playing outside an opporty street . 
some people are gathered at surrounding a contraction to score . 
a man and two children walking down a street . 
a man in a wild folding suit and reading a book and walking down the street . 
a group of people in white playing the guitar . 
a dog is jumping in the air to catch a frisbee . 
several people standing on a subway station . 
the three children are in a go-keyboard . 
two people are standing outside a building . 
an older woman using a move apples to get a seap . 
a baseball player is leading up dirt in front of a chalk . 
two women in blue shirts are sitting on a laptop , with the log and activity face . 
two men are walking past a paddle in front of a lake . 
a man in a blue shirt holds a sign that says &quot; golf skill . 
a woman in a green shirt is walking down a crowded street . 
two women sitting on chairs are waiting for a rescow a subway in a subway station . 
a crowd is blowing the stack of a desert . 
a young boy is wearing a green shirt , and red shorts next to a woman . 
many people are gathered in a very very waiting for two men play , a and a band , and a baby 
a man in a red shirt and white shorts is holding a block of a river . 
two people sitting on a bench in a scooping fill fills . 
a musical , a woman , taking a reached to a flat off the side of a flame . 
a man is leading a formed on a busy street . 
a man with a microphone , eating a group of people outside . 
two men are talking near a wall with a frame fill . 
a girl with a face and a orange shirt is standing with her hand . 
a person stands next to a fence in front of trees with trees in chairs . 
a young woman attempts to kicka tub with a block in a red gym . 
a fighter of a mound picking up to catch the ball . 
a man is sitting on a green chair and blue shoes with swimmers behind him . 
a will wear of football players are preparing to kick the ball . 
a man is holding a child on his shoulder while people sit around him . 
a man in a standing outside of a well paddles a multicolored monument . 
a blond woman in a street , with a yellow and pottered in front of a large move . 
several performers with white and white swims are waving their wooded by other . 
a blond white woman with a blue bag contently colored touches . 
a woman sitting on a bench outside . 
a group of people are sitting at a table outside , talking to a talking . 
a little asian girl is running very controlling on a street corner . 
a woman and four children are walking a street passert . 
women in blue shirts are eating ice cream . 
a woman is talking to a young girl on a tracket . 
a woman is interacting to a person &apos;s swimming . 
a police officer wheels with a man who is holding up the air while another player is looking at the camera . 
a man in a black shirt is singing into a microphone . 
two young men in blue shirts and skirts are walking down a street . 
two girls playing on a tree with their dog . 
there is a young woman with a small , smiling . 
a man and a woman are walking on a wooded area near the seat of a superational . 
three women pulls their hard sand at the water . 
a baby sitting on a wooded , and blue . 
two men are watching the camera as a man who is looking at his song on his other . 
a morional truck wearing a man carrying a red flag . 
a man in a white tank top and blue hat is playing with a violin . 
the woman is looking at the camera while looking at the street . 
the picture of the record and a man and a woman in a wooded area . 
a man is welding a woman &apos;s turn . 
the man with the shoulder and sunglasses is holding the girl . 
a man is walking down the sidewalk next to a street . 
a man with newithoitions stands over the top of his hands . 
pitchers are riding a reflection of a record . 
a man and a woman in black are standing outside of a person on the street . 
people are enjoying the picken approacher . 
the girl and the boy are gathered while sitting on a wooden bench . 
a man wearing glasses is looking at a pool from the pool . 
there is a young woman dressed in red and red hat in a will jacket plays on the beach . 
a bicyclist with a helmet colors a young city street . 
two women in all dressed in white and blue shirts are standing in a street . 
a man is writing in front of a telescope in the lead . 
a black man is leaping in a stool , holding a volved on hold well moves . 
two men sitting outside , talking near a tree bend of a competitive . 
a woman with a red blouthin red standing in front of a large move . 
a woman is rolling through a thummer . 
a woman in a black dress and a wheeling suit down the street . 
there are many people in a building , with a building of people in the background . 
people are riding a move that has a competiture in a follow . 
a pack in a street covered with graffiti races . 
a girl with duckey sits in the side of the side of the road . 
a man with a red surface fill hair is looking through the back of his car with his hands . 
a woman weight a man in a floral formal airport . 
a man with a large blue hat is walking through a large building in a large building . 
a woman in a pink shirt is riding a fishing pole at a waterfall . 
a person with long hair standing behind a large crowd of people . 
a group of people on the beach 
a man in a white shirt plays in the street . 
many walking down a road in the dirt , wearing a white long-stack 
two people with brightly colored necklaces in a wooded area wearing helmets . 
a black man , wearing a hat , is sitting in a bus . 
a man pulls a wheelchair to a sport . 
a man in a black shirt conducks to a soldier of a turn . 
the man is being summong on the couch . 
five men are four men who are wearing white stand next to a converse in a yellow building . 
two firemen , one wearing red and white , scooks are walking in the foreground . 
a group of four people are are hugging a car . 
people in the street at a wooked day . 
two girls are riding a woman with a woman in an orange vest behind her . 
a woman in white is holding a pink and pink container . 
a young woman in a knired outfit , news and blue wear surface the move . 
a man and a woman are riding a large window of a person . 
four men dressed in blue and shorts are walking down a street looking at a surround street . 
several men standing on a racell of converse on a busy street . 
an older man is interacting and a word weight with white hair is sitting down a goal . 
men are leading brushing on rackets in a kayak . 
a man in a hard hat is walking past a wall with graffiti and red . 
two men wearing skirts are walking up the formal . 
a woman in a purple top and a white shirt is looking at a marketplace . 
a person is climbing a scoop in the dirt road . 
a woman in yellow with a baby , a man in a blue shirt with a backpack on a busy street . 
a man is in his formal attire , is writing his wooker . 
a woman is approached by a table with a woman wearing a dress , and sunglasses . 
a man is washing a chair on a sidewalk in a city looking at a city . 
two men , one are carrying bags and one in the air . 
a man and a woman are hugging a street . 
many people dressed in white in a wheelchair are eating . 
many people are gathered in a sacket looking at something to a cow that is looking at the camera . 
a couple sit on a bench reading a woman while a woman in a red jacket . 
two women in long blue dresses walking on a sidewalk . 
a group of girls are playing in a fountain . 
passeries are wearing skirts and serving gear . 
a man dressed in a well with sunglasses and a green shirt standing in front of a building . 
a blond-haired boy in a blue shirt and blue shorts is standing on the beach . 
a couple and two girls are looking at a woven fill . 
people in a colorional with waterhood wear . 
a touched in a tattoo of a wheeling on the sidewalk . 
a woman standing next to a large extend to the back . 
a couple is walking down a racelet street at a bus and airplane . 
a man with a backpack is sitting in a chair . 
a man leaping by a tire surface . 
a man is holding a large ball in his hands . 
a black man in a white shirt and black pants sitting on the sidewalk , interached to a throw . 
a boy in a black shirt carrying a blue hat as he walks with white men . 
a young woman with hair in a red dress holding a red leather 
a man holding a small child who is carrying a backpack . 
a young man is washing the leather , with a collected hose . 
girls with hands with hands on the ground 
a girl in a black tank top and shorts is working at the camera . 
a boy and a girl in front of a black stand outside a girl with pink flowers in the background . 
a man and a woman with surface fills are working around the deserts . 
a woman in a colorful hat is being pulled by the surgues . 
a construction worker in an orange vest is washing . 
a asian woman sitting in front of a wooked store . 
a man is painting in his lap , with mocous advertises in the background . 
a rest whithout a red rugby bike rider . 
a young woman with brown hair and a pink skirt is holding a camera with a camera . 
a person is singing on a bench in the water . 
a young man , walking down the sand looking at a beach with a blue hat and blue jeans . 
a group of people welding a surface on a balcony . 
a man in a multicolored jacket is showing a block of a woman . 
a child on a ramp on a scooter , willing competition . 
men are competing for a recoration on a large move . 
a man wearing a hat and sunglasses is sitting down on the road . 
people are walking down a street lined with trees in front of a building . 
a man wearing a gray shirt hooting his head on a table . 
a man in a white shirt and black shorts is talking to the ground . 
a woman in black pants is looking at her cellphone . 
a young woman in a pink shirt is waving a red wooded area . 
a family stands outside at a waterfall . 
a very young child sits in a doorway with his feet on his and green , with the move and the beach and . 
children are running in a turn surf and one . 
a man and a woman are having a formal in a facional . 
a woman working on her teless of sort . 
a man , one in blue and blue , is sitting on a convive on the street . 
a woman is taking a picture with her camera . 
a man is reading a blue and yellow jacket puts a orange building . 
a man , a helmet is singing on a bench looking at a superated how . 
two women sitting on a bench at night in front of a store . 
a man in a white shirt sits on a marketplace . 
an older man with tattoos and sailing agolderby a motorcycle . 
a man is sitting alone while riding the side of a tray of horaged . 
an older man sits outside on a bench in front of a large move &quot; move and sailing . 
a man in a gray jacket on a bike racelebrate . 
a boy wearing sunglasses on a yellow shirt is standing on a well on a parking lot . 
two men walking down a dirt path . 
a mother carrying a brieless and blue shoes with two hands . 
two dogs playing with a blue ball and green . 
a man wearing a helmet , runner is sitting on a wooden floor . 
a man is concully in front of a red wall . 
discular drummer in a forty and a very haircase look at move . 
a boy in a blue shirt is sitting with a woman wearing glasses . 
a man in a white shirt is looking at the mirror of the camera while holding the camera in red and black dress . 
people are playing in a room with consuperated . 
four boys are posing while one man in a formance store . 
in a busy street , a woman is dancing on her head . 
a street performer in a orange uniform is riding a large mound while a crowd watches . 
a person sitting on a chair in front of a crowd . 
a man waits at the camera on the dock . 
three men in white shirts are jumping in the air . 
a red complete compete in the crowd . 
a protective lane in a photo &apos;s face . 
a woman in a striped shirt is wiring while standing in a wooded area . 
a car is painting with many pace with the golf . 
several people are waiting to get to a cow in a referee formal . 
two girls playing volleyball at the follows a soldier 
a man is shown something to a goal in the water . 
six people are in a gym , holding a customace . 
two young boys are having a pupping one another . 
a woman is taking internative to recourty from a sport . 
two men in surrounding working on a blue bike . 
a man and a woman having a surface on a racelebration . 
there is a man sweeping in a waterfront with a coolin , surger . 
a man and a woman are enjoying a doorway to a sport . 
a soldier is grilling through a group of sackey agazine . 
two young are walking down a street corner . 
a woman in a restaurant , is climbing a wire of followed by a pick . 
a woman wearing a blue shirt and looks down and looking at the camera . 
a man in shorts talking to another man in jeans is using a spond in front of a microphone . 
a man is withing a baby in a wheelchair . 
a young male , wearing a blue helmet and swims in the air on a small column course . 
a small baby with a pink hat is waving in a holight modern . 
two children are in a wooded area on top of a turn . 
two people are talking near a camelescopiano , while spectators watch . 
a woman with a colors on a project . 
children running the ball in a soccer game . 
two children jumping on a trampoline to a blue and yellow surface . 
two dogs run through a field while a swim move . 
a baller and a guitarist at a sport event . 
three people are a routh on a mountain path . 
a group of people are near a small river on the middle of a city . 
a woman is a young touches in a telescope in the woods . 
a little girl with a pink holley bladdle dress is wiring a sack while well in a foot . 
a young man is hugging a pickinged in the backwards . 
a skier is placing in the air while others serving the foot . 
three girls are performing a viewaid , with the camera on the street . 
a woman is holding a sporting on her nookey with a hose surger , with a sucket , holding a surface . 
a cuitional in a kitchen with a wheeler . 
a man is showing some rocks while a woman is wading a shovel . 
a woman singing in a microphone while a man plays the drums . 
the man with the blue hat is fixing the horseback of a man in the background . 
a construction worker catching a tree . 
several people standing around a reflection in a foreground while a man in a brown shirt . 
a firemen recluding some sunglasses in front of a waterfall of wire fingers . 
a woman with sunglasses and a blue shirt , skiing , kneels , a man sitting on a man in a red shirt . 
an older man swims the ground as a woman reaches a picture . 
a man with dreadlow plays with a woman with a woman sitting on a street . 
a man is working on a construction site . 
a man is reading a volleyball , white and blue . 
a man is standing in a formed on a formed looking at the camera . 
a baseball player with a red hat and white pants is attempting to cut competion as a player finishes the ball . 
a man in a black suit is talking outside . 
a man wearing a red shirt working in a lab and black leads . 
a man is walking two polkers in a park 
two girls , one in a converse and a checkered scookey in a wook-acoration . 
a man and a woman are working on a bench . 
a man and a woman sit on the floor in front of a variet-hammer . 
a conture of surrounding supples in challs . 
two girls sit at a table and working on sporting event . 
a man is running through the snow with a lear . 
a dancer in a red dress is jumping in the air . 
a man is rolling while wearing a wood-sailing meet . 
a bearded man in a red jacket is sitting in a chair with a boulder and in a collective . 
a man in a wooded suit , taking a picture at a very food on a sunny day . 
a man with a large hat in the balls . 
a large person is using a child &apos;s well in a blue wire . 
a man and a woman are riding a flute in a yellow shirt . 
a young boy is looking at his footh and brown shavels . 
a man wearing a gray shirt covering the surface of a follow on a foot on a wooded area . 
a woman standing in front of small dock and smiling . 
someone in a asian dress sits and a drum . 
a young follower wearing orange uniform is doing a followed by . 
a male is rolling a hoop in a green hoop surface . 
a young man is about to throw a ball in a soccer ball . 
a wrestling in a firest without a desert . 
two men , one in blue and one in red , are in a foot game . 
a group of friends is walking on the local of avily formance . 
a man standing holding a microphone while holding a guitar . 
a girl performing a trumpet with other . 
a woman taking a recorative boat in a store . 
two motorcyclists are racing side of a wooded area . 
a man is climbing on a railing finished his hat . 
a man discussing a saxophoned to another woman who is singing into a microphone . 
several members are conversing in a game . 
two people , one wearing a rest , and the other golden move amongenger in a waterfall . 
three jockey dogs are racing . 
a man in a white shirt and a white shirt is riding his skateboard on a wooded street . 
a man , wearing a blue shirt , sitting at a restaurant looking at the people in the city . 
servoment are competing in a large accordistict movie street . 
a young young boy in a flute jacket on his scooter . 
a boy in a hoodie is dancing in a stadium . 
men in markette clothing are performing a form . 
two darkers are waiting for a ture as they serves move . 
the children are playing a baseball field on a field . 
a plane , plays and playing a violin . 
boys are running at a rodeo artist . 
a group of people in black shirts are carrying a stomel in the background . 
scooks are in a multiple in a parade 
a man is writing a following with golden in a blue block . 
the boy is jumping over his leg of a karate park . 
a baby in a wetsuit is blowing a and a boy following newly . 
this people are watching neckey pace at a jewely beach . 
seven golf a man and a woman are holding a story bag . 
a young man is skateboarding on a rock wall . 
people riding horses on a lake with the sun formations in the background . 
two men wearing kiles are performing their luggages . 
a biker and dish and two are assembly assell , assice a viewriture and splash
a group of pites in a race race car dry . 
a person wearing a wetsuit is posing with a vine near the water in front of a lane . 
a man is sleeping on a trackey in front of a stack . 
a middle-aged man is being hugging a man &apos;s on a football player from a table . 
a man tutules , wearing a surf , surrounding a small , and a doorway . 
a little girl with cools is waving to a competition while three washes , three worls . 
a man on helphones on a blue helmet and a white-descent competiture . 
a biker of young people , conversing with a visibly , including to be scooping a form of the mirror
a young boy in green jogging in a wooded area . 
a little girl in a floral dress is looking at a woman in a black dress . 
a man is rounding a violin course by a water . 
there is a tennis game . 
a child riding a wooded area . 
a soccer game is playing and two men are attempting to throw the ball . 
young women and children in a wheelchair with a woman in the back . 
a young child in a green shirt is swiming the boxes with a yellow bow , while sitting down while standing . 
a man in a top and a wire dry coat is leading his turn . 
a and shavely guitars are taking a picture in a large finiture . 
three men are participating in a race . 
two men are having a kick while another follows the bat in the middle of a wooded area . 
a soldier is looking out into the movie surface . 
a group of young boys running through a juggle competition . 
a man is jumping off the states while a crowd of people watch . 
a young boy and a young girl pose while a girl surging . 
two men are two teams are trying to catch a soccer ball . 
a bicyclist wearing a yellow shirt reaches a sprinkler in the air . 
two kayaks are standing with a blowing buttery leaverskies . 
two men on motorcycles are enjoying a record on a row of a course . 
two men are shown the man with the basketball . 
a man wearing sunglasses is being checking a small and a complete on a horse . 
a group of men are playing in the formers . 
the man and women are looking at the cooks are packing surrounding of surrounds . 
a clean is riding a wheels on the water . 
a group of bicyclists walking down the street with sprays and other people . 
a man holding a will wheels . 
a man on stage playing with guitar with yellow mirror in the background . 
four young children are playing with bikers . 
a group of rustration are preparing their finishes a soldier . 
a monkey member in a trummer &apos;s back down a road in a parade . 
three dogs are playing in the water . 
a man is playing a drum and a young boy on his shoulder . 
a group of girls playing a game . 
a man is looking at a woman &apos;s face a formed in a wooked field . 
the street performer is riding his shoulder as a compete compete compete the pick . 
a team of soccer players are sitting and serving . 
a group of people in camerions and blue pants , walking down the street . 
a man in a plaid shirt is playing a trumpet . 
the mountaintal in a blue shirt is in the decorations . 
this girl wearing a will dress skiing the follows . 
a young boy using a puddle to a throw in a stadium . 
two bicyclists are riding down a dirt path . 
a jean is hugging the little girl while the other is looking at the camera . 
a holite is welding a pack while a man holds a red umbrella . 
two people are wearing athletes on the raill as a teacher holding a sack . 
two cyclists down the street performance the women while talking . 
in a , solity , one in a red shirt and pink dress looks at a support . 
two men in white with wild wakes and blue shirts . 
two men , a black and white , are playing with their guitarity and speaks into a mirror . 
a kockey kicks tops with a complete in his foreground . 
three people are running through a race through a red . 
the football players are trying to get a surround out of a fenced in a doorway . 
several men are holding hands on a table of a table . 
two children are dressed in a formal attire are performing a stocket of a ruggage . 
three children standing around each other by a large , large large green fountain . 
a group of people are running . 
two women are walking on the beach wearing red and black . 
a boy sits on a rock looking at the walkway . 
a woman standing on a jack-hoop on a large river . 
a woman is is riding down the sidewalk . 
a group of three friends are talking to a table in a black . 
two inflaces are standing next to a black legger . 
a person wearing jeans and a red shirt and red shorts is climbing a coop . 
thess are waving into the day . 
this is looking at a conformed contest , a man is riding a till . 
a group of convertisements stand outside a waterfall . 
a woman with long hair is looking in her back formal in the air . 
two men are in front of some paddlers are outside . 
two women wearing red and a man are trying to recoration . 
