a man in a white shirt is playing a blue shirt and a man in a blue . 
a man in a white shirt is playing a core . 
a man in a blue shirt is playing a core . 
a man in a blue shirt is playing a blue shirt and a blue shirt and a blue shirt and a core . 
a man in a man in a white shirt is a core . 
a man in a white shirt is playing a core . 
a man in a blue shirt is playing a blue shirt . 
a man in a man in a blue shirt is playing a core . 
a man in a man in a blue shirt and a man in a core . 
a man in a white shirt is playing a core . 
a man in a man in a blue shirt and a man in a blue shirt and a core . 
a man in a white shirt is a blue shirt and a core . 
a man in a man in a blue shirt and a core . 
a man in a white shirt is playing a core . 
a man in a white shirt is playing a blue . 
a man in a white shirt is playing a core . 
a man in a white shirt is playing a blue shirt and a man in a core . 
a man in a blue shirt is playing a core . 
a man in a blue shirt is playing a core . 
a man in a white shirt is playing a core . 
a man in a white shirt is playing a corure . 
a man in a man in a blue shirt and a man in a blue shirt . 
a man in a man in a core . 
a man in a blue shirt is playing a core . 
a man in a white shirt is playing a blue . 
a man in a blue shirt is playing a blue . 
a man in a blue shirt is playing a core . 
a man in a white shirt is playing a core . 
a man in a man in a blue shirt and a man in a core . 
a man in a man in a white shirt is playing a core . 
a man in a blue shirt is playing a blue . 
a man in a man in a blue shirt and a core . 
a man in a man in a blue shirt and a man in a blue shirt . 
a man in a man in a blue shirt and a man in a blue shirt and a core . 
a man in a blue shirt is playing a blue . 
a man in a blue shirt is playing a blue . 
a man in a blue shirt is playing a blue . 
a man in a white shirt is playing a core . 
a man in a man in a blue shirt and a man in a blue shirt . 
a man in a white shirt is playing a blue shirt and a core . 
a man in a man in a blue shirt and a man in a blue . 
a man in a white shirt is playing a core . 
a man in a blue shirt is playing a blue shirt and a man in a blue . 
a man in a blue shirt is playing a blue . 
a man in a white shirt is playing a blue shirt and a blue shirt . 
a man in a blue shirt is playing a blue shirt and a blue shirt and a core . 
a man in a blue shirt is playing a core . 
a man in a white shirt is playing a core . 
a man in a man in a blue shirt and a man in a blue shirt and a man in a core . 
a man in a man in a core . 
a man in a white shirt is playing a blue . 
a man in a white shirt is playing a blue . 
a man in a blue shirt is playing a blue . 
a man in a blue shirt is playing a blue shirt and a blue shirt and a blue shirt and a blue shirt and a blue shirt . 
a man in a man in a white shirt and a man in a blue shirt and a core . 
a man in a man in a blue shirt and a man in a blue shirt . 
a man in a blue shirt is playing a blue . 
a man in a white shirt is playing a blue . 
a man in a white shirt is playing a core . 
a man in a blue shirt is playing a core . 
a man in a blue shirt is playing a blue . 
a man in a white shirt is playing a core . 
a man in a man in a blue shirt and a man in a core . 
a man in a man in a blue shirt and a man in a blue . 
a man in a man in a white shirt is playing a core . 
a man in a white shirt is playing a core . 
a man in a blue shirt is playing a blue shirt and a core . 
a man in a man in a blue shirt and a man in a blue shirt . 
a man in a man in a blue shirt and a man in a blue shirt and a core . 
a man in a man in a blue shirt and a man in a blue shirt . 
a man in a white shirt is playing a blue . 
a man in a white shirt is playing a blue . 
a man in a white shirt is playing a blue . 
a man in a man in a blue shirt and a man in a blue shirt and a blue shirt and a core . 
a man in a man in a blue shirt and a man in a blue shirt and a core . 
a man in a blue shirt and a man in a core . 
a man in a white shirt is playing a core . 
a man in a man in a core . 
a man in a white shirt is playing a core . 
a man in a man in a blue shirt and a man in a blue shirt and a man in a core . 
a man in a man in a core in a core . 
a man in a blue shirt is playing a core . 
a man in a white shirt is playing a blue shirt and a man in a blue . 
a man in a man in a blue shirt and a man in a blue shirt and a man in a blue . 
a man in a man in a blue shirt and a man in a blue shirt and a core . 
a man in a blue shirt is playing a core . 
a man in a white shirt is playing a blue shirt . 
a man in a blue shirt and a core . 
a man in a blue shirt is playing a core . 
a man in a blue shirt is playing a core . 
a man in a man in a blue shirt and a blue shirt and a man in a blue . 
a man in a blue shirt is playing a blue . 
a man in a white shirt is playing a blue and a core . 
a man in a man in a blue shirt and a man in a core . 
a man in a man in a blue shirt and a man in a blue . 
a man in a man in a blue shirt and a man in a blue . 
a man in a white shirt is playing a blue shirt and a man in a blue . 
a man in a white shirt is playing a blue . 
a man in a man in a blue shirt is playing a blue shirt . 
a man in a blue shirt is playing a blue shirt and a man in a blue . 
a man in a man in a blue shirt is playing a core . 
a man in a man in a blue shirt and a man in a blue shirt and a core . 
a man in a white shirt is playing a blue shirt . 
a man in a white shirt is playing a blue shirt and a blue shirt and a blue shirt and a core . 
a man in a white shirt is playing a blue shirt and a core . 
a man in a man in a blue shirt and a man in a blue . 
a man in a man in a blue shirt and a man in a blue shirt . 
a man in a man in a blue shirt and a man in a blue . 
a man in a white shirt is playing a blue shirt . 
a man in a white shirt is a core . 
a man in a blue shirt is playing a core . 
a man in a man in a blue shirt and a man in a core . 
a man in a white shirt is playing a blue . 
a man in a white shirt is playing a core . 
a man in a blue shirt is playing a core . 
a man in a white shirt is playing a corure . 
a man in a blue shirt is playing a blue . 
a man in a man in a blue shirt and a man in a blue shirt and a core . 
a man in a blue shirt is playing a blue shirt and a man in a blue . 
a man in a white shirt is playing a blue shirt and a blue shirt and a blue shirt and a blue shirt and a corcore . 
a man in a white shirt is playing a core . 
a man in a man in a white shirt is playing a core . 
a man in a man in a white shirt and a man in a blue shirt and a core . 
a man in a white shirt is playing a blue shirt and a blue shirt and a core . 
a man in a white shirt is playing a core . 
a man in a white shirt is playing a core . 
a man in a blue shirt is playing a blue shirt . 
a man in a man in a white shirt is playing a core . 
a man in a blue shirt is playing a core . 
a man in a white shirt is playing a blue shirt . 
a man in a man in a blue shirt is playing a core . 
a man in a blue shirt is playing a blue . 
a man in a man in a white shirt is playing a core . 
a man in a man in a blue shirt and a man in a blue . 
a man in a blue shirt is playing a core . 
a man in a white shirt is playing a blue . 
a man in a blue shirt is playing a blue . 
a man in a white shirt is playing a core . 
a man in a blue shirt is playing a core . 
a man in a man in a blue shirt and a man in a blue . 
a man in a white shirt is playing a blue . 
a man in a white shirt is playing a blue . 
a man in a blue shirt is playing a blue . 
a man in a white shirt is playing a blue . 
a man in a blue shirt is playing a blue . 
a man in a white shirt is playing a core . 
a man in a blue shirt is playing a blue shirt . 
a man in a white shirt is playing a blue shirt and a man in a blue . 
a man in a blue shirt is playing a core . 
a man in a man in a blue shirt is playing a core . 
a man in a man in a blue shirt and a man in a core . 
a man in a white shirt is playing a blue shirt and a man in a blue . 
a man in a white shirt is playing a blue shirt and a man in a blue . 
a man in a blue shirt is playing a core . 
a man in a blue shirt is playing a blue . 
a man in a man in a blue shirt and a man in a blue . 
a man in a white shirt is playing a core . 
a man in a white shirt is playing a core . 
a man in a white shirt is playing a core . 
a man in a man in a blue shirt and a man in a blue . 
a man in a blue shirt is playing a blue . 
a man in a man in a white shirt is playing a core . 
a man in a man in a blue shirt and a man in a blue shirt . 
a man in a blue shirt is playing a blue . 
a man in a blue shirt is playing a blue . 
a man in a white shirt is playing a core . 
a man in a blue shirt is playing a blue shirt . 
a man in a blue shirt is playing a core . 
a man in a blue shirt is playing a blue . 
a man in a blue shirt is playing a core . 
a man in a white shirt is playing a blue shirt and a core . 
a man in a white shirt is playing a core . 
a man in a white shirt is playing a core . 
a man in a blue shirt is playing a blue shirt . 
a man in a man in a blue shirt and a man in a blue shirt . 
a man in a white shirt is playing a core . 
a man in a white shirt is playing a core . 
a man in a white shirt is playing a blue shirt and a blue shirt and a core . 
a man in a white shirt is playing a core . 
a man in a man in a blue shirt and a man in a blue . 
a man in a blue shirt is playing a blue . 
a man in a white shirt is playing a blue shirt and a core . 
a man in a man in a white shirt is playing a core . 
a man in a white shirt is playing a core . 
a man in a blue shirt is playing a core . 
a man in a white shirt is playing a blue . 
a man in a blue shirt is playing a blue . 
a man in a white shirt is a core . 
a man in a blue shirt is playing a blue . 
a man in a man in a blue shirt and a man in a core . 
a man in a man in a blue shirt and a man in a blue shirt and a core . 
a man in a white shirt is playing a core . 
a man in a blue shirt is playing a core . 
a man in a white shirt is playing a core . 
a man in a man in a blue shirt and a blue shirt and a core . 
a man in a man in a blue shirt and a man in a blue . 
a man in a blue shirt is playing a blue . 
a man in a man in a blue shirt and a man in a blue . 
a man in a blue shirt is playing a core . 
a man in a blue shirt is playing a core . 
a man in a blue shirt is playing a blue . 
a man in a man in a white shirt and a man in a blue shirt and a blue shirt and a blue shirt and a core . 
a man in a man in a blue shirt and a man in a blue . 
a man in a white shirt is playing a core . 
a man in a blue shirt is playing a blue . 
a man in a white shirt is playing a blue shirt and a core . 
a man in a man in a blue shirt and a man in a blue . 
a man in a man in a blue shirt and a man in a blue . 
a man in a man in a blue shirt and a man in a blue . 
a man in a white shirt is playing a core . 
a man in a blue shirt is playing a core . 
a man in a man in a blue shirt and a man in a core . 
a man in a white shirt is playing a core . 
a man in a white shirt is playing a core . 
a man in a white shirt is playing a blue shirt and a core . 
a man in a blue shirt and a core . 
a man in a white shirt is playing a core . 
a man in a white shirt is playing a core . 
a man in a white shirt is playing a core . 
a man in a blue shirt is playing a core . 
a man in a white shirt is playing a blue . 
a man in a man in a blue shirt is playing a core . 
a man in a white shirt is playing a blue . 
a man in a man in a blue shirt and a man in a blue shirt and a white shirt and a man in a blue . 
a man in a white shirt is playing a blue . 
a man in a man in a white shirt is playing a blue shirt and a blue shirt and a core . 
a man in a white shirt is playing a core . 
a man in a man in a blue shirt and a man in a blue . 
a man in a white shirt is playing a blue . 
a man in a man in a blue shirt and a man in a blue shirt and a blue . 
a man in a white shirt is playing a core . 
a man in a white shirt is playing a core . 
a man in a blue shirt is playing a core . 
a man in a man in a blue shirt and a man in a blue shirt and a core . 
a man in a blue shirt is playing a core . 
a man in a white shirt is playing a core . 
a man in a blue shirt is playing a blue shirt . 
a man in a blue shirt is playing a core . 
a man in a white shirt is playing a core . 
a man in a man in a blue shirt and a man in a blue . 
a man in a white shirt is playing a blue shirt . 
a man in a white shirt is playing a blue . 
a man in a blue shirt is playing a blue shirt and a core . 
a man in a white shirt is playing a core . 
a man in a white shirt is playing a core . 
a man in a man in a blue shirt and a man in a blue shirt . 
a man in a man in a blue shirt and a man in a blue . 
a man in a man in a blue shirt and a man in a blue shirt and a core . 
a man in a blue shirt is playing a core . 
a man in a white shirt is playing a core . 
a man in a blue shirt is playing a blue shirt and a blue shirt and a blue shirt and a man in a blue . 
a man in a white shirt is playing a core . 
a man in a man in a blue shirt is playing a core . 
a man in a blue shirt is playing a blue . 
a man in a man in a blue shirt and a man in a blue . 
a man in a blue shirt is playing a core . 
a man in a white shirt is playing a blue shirt and a blue shirt . 
a man in a man in a blue shirt and a man in a blue shirt and a blue shirt and a core . 
a man in a man in a blue shirt is playing a core . 
a man in a man in a blue shirt and a man in a blue shirt and a man in a blue . 
a man in a man in a blue shirt and a man in a blue . 
a man in a man in a blue shirt and a man in a blue shirt and a core . 
a man in a white shirt is playing a blue shirt and a core . 
a man in a blue shirt is playing a core . 
a man in a white shirt is on a core . 
a man in a man in a blue shirt and a man in a blue shirt and a blue shirt and a man in a blue . 
a man in a blue shirt is playing a core . 
a man in a blue shirt is playing a blue . 
a man in a white shirt is playing a core . 
a man in a man in a white shirt and a core . 
a man in a white shirt is playing a core . 
a man in a man in a blue shirt and a man in a blue shirt . 
a man in a man in a blue shirt and a man in a blue shirt and a core . 
a man in a white shirt is playing a blue . 
a man in a blue shirt is playing a core . 
a man in a white shirt is playing a blue . 
a man in a white shirt is playing a core . 
a man in a blue shirt is playing a blue . 
a man in a white shirt is playing a core . 
a man in a white shirt is playing a blue shirt and a man in a blue . 
a man in a white shirt is playing a core . 
a man in a white shirt is a core . 
a man in a white shirt is playing a blue shirt . 
a man in a blue shirt is playing a core . 
a man in a white shirt is playing a blue shirt and a man in a blue . 
a man in a white shirt is playing a core . 
a man in a white shirt is playing a core . 
a man in a white shirt is playing a core . 
a man in a white shirt is playing a core . 
a man in a white shirt is playing a corure . 
a man in a man in a corure . 
a man in a blue shirt is playing a core . 
a man in a white shirt is playing a core . 
a man in a white shirt is playing a core . 
a man in a man in a blue shirt and a man in a blue . 
a man in a blue shirt is playing a core . 
a man in a blue shirt is playing a core . 
a man in a man in a white shirt and a man in a blue shirt . 
a man in a white shirt is playing a core . 
a man in a white shirt is playing a core . 
a man in a white shirt is playing a core . 
a man in a man in a blue shirt and a man in a blue shirt and a core . 
a man in a white shirt is playing a core . 
a man in a blue shirt is playing a core . 
a man in a man in a blue shirt and a man in a core . 
a man in a man in a core in a blue shirt and a core . 
a man in a man in a blue shirt and a man in a blue . 
a man in a man in a blue shirt and a man in a core . 
a man in a white shirt is playing a core . 
a man in a white shirt is playing a core . 
a man in a white shirt is playing a blue shirt and a man in a blue . 
a man in a blue shirt is playing a blue . 
a man in a white shirt is playing a blue shirt . 
a man in a man in a blue shirt and a man in a blue shirt and a core . 
a man in a man in a blue shirt and a man in a blue . 
a man in a white shirt is playing a core . 
a man in a blue shirt is playing a blue . 
a man in a white shirt is playing a core . 
a man in a man in a blue shirt and a man in a blue shirt and a core . 
a man in a white shirt is playing a blue shirt and a blue shirt and a man in a blue . 
a man in a white shirt is playing a core . 
a man in a man in a blue shirt and a man in a blue shirt and a core . 
a man in a man in a blue shirt is playing a core . 
a man in a white shirt is playing a core . 
a man in a white shirt is playing a blue . 
a man in a blue shirt is playing a core . 
a man in a man in a blue shirt and a man in a blue . 
a man in a man in a blue shirt and a man in a blue shirt and a blue shirt and a man in a core . 
a man in a man in a blue shirt is playing a core . 
a man in a white shirt is playing a core . 
a man in a white shirt is playing a blue . 
a man in a blue shirt is playing a blue shirt . 
a man in a white shirt is playing a core . 
a man in a blue shirt is playing a blue . 
a man in a blue shirt is playing a core . 
a man in a blue shirt is playing a core . 
a man in a man in a blue shirt and a man in a blue shirt and a corure . 
a man in a white shirt is playing a blue shirt and a blue shirt and a blue shirt and a core . 
a man in a white shirt is playing a core . 
a man in a man in a blue shirt and a man in a blue . 
a man in a blue shirt is playing a core . 
a man in a man in a blue shirt and a man in a blue . 
a man in a man in a white shirt and a man in a blue . 
a man in a man in a blue shirt and a man in a blue shirt and a core . 
a man in a white shirt is playing a blue . 
a man in a white shirt is playing a blue . 
a man in a blue shirt is playing a blue shirt and a blue . 
a man in a man in a blue shirt is playing a core . 
a man in a white shirt is playing a blue . 
a man in a white shirt is playing a core . 
a man in a blue shirt is playing a core . 
a man in a white shirt is playing a blue . 
a man in a man in a blue shirt and a man in a blue shirt and a core . 
a man in a blue shirt is playing a core . 
a man in a white shirt is playing a core . 
a man in a blue shirt is playing a core . 
a man in a man in a blue shirt and a man in a blue . 
a man in a man in a blue shirt and a man in a blue shirt . 
a man in a man in a blue shirt is playing a blue . 
a man in a white shirt is playing a blue and a man in a blue . 
a man in a white shirt is playing a blue shirt . 
a man in a man in a blue shirt and a man in a blue shirt . 
a man in a blue shirt is playing a core . 
a man in a white shirt is playing a core . 
a man in a white shirt is playing a blue shirt and a man in a blue . 
a man in a white shirt is playing a core . 
a man in a man in a blue shirt and a man in a blue . 
a man in a white shirt is playing a core . 
a man in a blue shirt is playing a blue . 
a man in a white shirt is playing a blue shirt and a white shirt and a core . 
a man in a white shirt is playing a core . 
a man in a blue shirt is playing a core . 
a man in a blue shirt is playing a blue . 
a man in a blue shirt is playing a core . 
a man in a white shirt is playing a blue shirt and a man in a blue . 
a man in a white shirt is playing a core . 
a man in a blue shirt is playing a blue . 
a man in a blue shirt is playing a core . 
a man in a blue shirt is playing a core . 
a man in a white shirt is playing a core . 
a man in a white shirt is playing a blue shirt and a core . 
a man in a blue shirt is playing a blue . 
a man in a man in a blue shirt and a man in a blue . 
a man in a white shirt is playing a core . 
a man in a man in a blue shirt and a man in a blue . 
a man in a man in a blue shirt and a man in a blue shirt and a blue shirt and a blue shirt and a core . 
a man in a white shirt is playing a blue shirt . 
a man in a man in a blue shirt is playing a core . 
a man in a blue shirt is playing a blue shirt and a blue shirt and a core . 
a man in a white shirt is playing a core . 
a man in a blue shirt is playing a core . 
a man in a white shirt is playing a blue shirt . 
a man in a white shirt is playing a blue shirt . 
a man in a white shirt is playing a corure . 
a man in a blue shirt is playing a core . 
a man in a man in a blue shirt and a man in a blue . 
a man in a white shirt is playing a blue shirt and a blue shirt and a core . 
a man in a blue shirt is playing a core . 
a man in a white shirt is playing a core . 
a man in a white shirt is playing a core . 
a man in a man in a blue shirt and a man in a blue shirt . 
a man in a white shirt is playing a core . 
a man in a blue shirt is playing a core . 
a man in a man in a blue shirt and a man in a blue shirt and a blue shirt and a core . 
a man in a white shirt is playing a blue shirt . 
a man in a man in a blue shirt is playing a core . 
a man in a blue shirt is playing a core . 
a man in a white shirt is playing a blue shirt and a blue shirt and a blue shirt and a blue shirt . 
a man in a man in a blue shirt and a man in a blue shirt . 
a man in a blue shirt is playing a blue shirt and a core . 
a man in a blue shirt is playing a blue . 
a man in a blue shirt is playing a blue . 
a man in a blue shirt is playing a blue . 
a man in a white shirt is playing a blue shirt and a man in a blue . 
a man in a blue shirt is playing a blue . 
a man in a white shirt is playing a blue . 
a man in a man in a core . 
a man in a man in a blue shirt and a man in a blue . 
a man in a man in a blue shirt and a man in a blue . 
a man in a white shirt is playing a blue . 
a man in a man in a core in a core . 
a man in a white shirt is playing a corure . 
a man in a white shirt is playing a core . 
a man in a man in a blue shirt and a man in a blue shirt and a core . 
a man in a white shirt is playing a core . 
a man in a blue shirt is playing a core . 
a man in a man in a blue shirt and a man in a blue . 
a man in a blue shirt is playing a core . 
a man in a blue shirt is playing a core . 
a man in a man in a blue shirt and a man in a core . 
a man in a white shirt is playing a blue . 
a man in a man in a white shirt and a man in a blue shirt and a core . 
a man in a white shirt is playing a blue . 
a man in a white shirt is playing a blue shirt . 
a man in a blue shirt is playing a blue . 
a man in a blue shirt is playing a blue shirt and a blue shirt and a core . 
a man in a blue shirt is playing a core . 
a man in a man in a blue shirt is playing a core . 
a man in a white shirt is playing a core . 
a man in a man in a blue shirt and a man in a blue . 
a man in a white shirt is playing a core . 
a man in a blue shirt is playing a blue . 
a man in a blue shirt is playing a blue . 
a man in a man in a blue shirt and a man in a blue shirt and a blue shirt and a man in a blue shirt and a core . 
a man in a man in a blue shirt and a man in a blue shirt . 
a man in a white shirt is playing a core . 
a man in a white shirt is playing a core . 
a man in a blue shirt is playing a blue . 
a man in a white shirt is playing a blue . 
a man in a man in a blue shirt and a man in a blue . 
a man in a blue shirt is playing a blue shirt and a blue shirt and a blue shirt . 
a man in a man in a core in a core . 
a man in a man in a blue shirt and a man in a blue . 
a man in a man in a blue shirt and a man in a blue . 
a man in a white shirt is playing a blue shirt and a core . 
a man in a white shirt is playing a core . 
a man in a white shirt is playing a core . 
a man in a white shirt is playing a core . 
a man in a blue shirt is playing a core . 
a man in a white shirt is playing a blue . 
a man in a white shirt is playing a blue . 
a man in a white shirt is playing a core . 
a man in a white shirt is playing a blue . 
a man in a man in a blue shirt and a blue shirt and a blue shirt and a man in a blue . 
a man in a blue shirt is a core . 
a man in a man in a blue shirt and a man in a blue . 
a man in a white shirt is playing a blue . 
a man in a white shirt is playing a core . 
a man in a blue shirt is playing a blue shirt and a blue shirt and a man in a core . 
a man in a man in a blue shirt and a man in a blue . 
a man in a white shirt is playing a core . 
a man in a blue shirt is playing a core . 
a man in a blue shirt is playing a blue shirt and a blue shirt and a blue shirt and a core . 
a man in a man in a blue shirt and a man in a blue . 
a man in a white shirt is playing a core . 
a man in a blue shirt is playing a corure . 
a man in a white shirt is playing a blue shirt . 
a man in a white shirt is playing a core . 
a man in a blue shirt is playing a blue shirt . 
a man in a blue shirt is playing a core . 
a man in a man in a white shirt and a man in a blue shirt and a core . 
a man in a white shirt is playing a blue . 
a man in a man in a white shirt is playing a core . 
a man in a man in a blue shirt is playing a blue shirt and a blue shirt and a core . 
a man in a man in a blue shirt and a man in a blue . 
a man in a white shirt is playing a core . 
a man in a blue shirt is playing a core . 
a man in a man in a blue shirt and a man in a blue shirt . 
a man in a blue shirt is playing a core . 
a man in a white shirt is playing a blue shirt . 
a man in a white shirt is playing a core . 
a man in a white shirt is playing a blue shirt and a blue shirt and a man in a blue . 
a man in a man in a white shirt and a man in a core . 
a man in a white shirt is playing a core . 
a man in a white shirt is playing a core . 
a man in a blue shirt is playing a blue . 
a man in a blue shirt is playing a core . 
a man in a white shirt is playing a core . 
a man in a white shirt is playing a corcore . 
a man in a blue shirt is playing a blue . 
a man in a blue shirt is playing a blue . 
a man in a blue shirt is playing a blue . 
a man in a white shirt is playing a core . 
a man in a man in a blue shirt is playing a core . 
a man in a white shirt is playing a blue . 
a man in a man in a blue shirt and a man in a blue shirt and a blue shirt and a core . 
a man in a man in a blue shirt and a man in a blue . 
a man in a blue shirt is playing a blue . 
a man in a blue shirt is playing a blue . 
a man in a blue shirt is a core . 
a man in a white shirt is playing a core . 
a man in a man in a blue shirt and a man in a blue shirt and a core . 
a man in a man in a blue shirt and a man in a core . 
a man in a white shirt is playing a core . 
a man in a blue shirt is playing a blue shirt and a blue shirt and a blue shirt and a blue shirt . 
a man in a blue shirt is playing a blue . 
a man in a white shirt is playing a core . 
a man in a man in a blue shirt and a man in a blue shirt and a core . 
a man in a white shirt is playing a core . 
a man in a white shirt is playing a blue . 
a man in a white shirt is playing a blue shirt and a corchelelelelelelelelelelelelelelelel
a man in a white shirt is playing a core . 
a man in a blue shirt is playing a blue shirt . 
a man in a white shirt is playing a core . 
a man in a man in a blue shirt and a man in a blue shirt and a core . 
a man in a white shirt is playing a core . 
a man in a white shirt is playing a core . 
a man in a man in a blue shirt and a man in a core . 
a man in a blue shirt is playing a core . 
a man in a man in a blue shirt and a man in a blue . 
a man in a man in a blue shirt and a man in a blue shirt and a blue shirt and a core . 
a man in a man in a blue shirt and a man in a blue . 
a man in a blue shirt is playing a blue . 
a man in a white shirt is playing a core . 
a man in a blue shirt is playing a core . 
a man in a man in a core in a blue shirt and a core . 
a man in a man in a blue shirt and a man in a blue shirt and a core . 
a man in a white shirt is playing a core . 
a man in a man in a blue shirt and a man in a blue shirt . 
a man in a blue shirt is playing a core . 
a man in a man in a blue shirt and a man in a blue shirt . 
a man in a white shirt is playing a core . 
a man in a white shirt is playing a corcore . 
a man in a man in a blue shirt and a man in a blue shirt . 
a man in a white shirt is playing a blue shirt and a core . 
a man in a white shirt is playing a blue shirt . 
a man in a man in a blue shirt and a man in a blue . 
a man in a blue shirt is playing a blue . 
a man in a man in a blue shirt and a man in a blue . 
a man in a man in a blue shirt is playing a core . 
a man in a man in a blue shirt and a man in a core . 
a man in a man in a core . 
a man in a blue shirt is playing a core . 
a man in a man in a blue shirt and a man in a blue shirt and a core . 
a man in a man in a blue shirt and a man in a blue shirt and a blue shirt and a man in a blue shirt and a blue shirt and a core . 
a man in a white shirt is playing a core . 
a man in a white shirt is playing a core . 
a man in a white shirt is playing a blue shirt and a core . 
a man in a white shirt is playing a blue . 
a man in a man in a blue shirt is playing a blue . 
a man in a man in a white shirt is playing a core . 
a man in a white shirt is playing a cons . 
a man in a blue shirt is playing a core . 
a man in a man in a blue shirt and a man in a blue shirt and a blue shirt and a man in a blue . 
a man in a blue shirt is playing a blue shirt . 
a man in a man in a blue shirt and a man in a blue shirt and a core . 
a man in a blue shirt is playing a blue . 
a man in a blue shirt is playing a core . 
a man in a blue shirt is playing a blue . 
a man in a blue shirt is playing a blue shirt and a man in a blue . 
a man in a white shirt is playing a core . 
a man in a blue shirt is playing a core . 
a man in a man in a blue shirt and a man in a blue shirt and a core . 
a man in a white shirt is playing a core . 
a man in a man in a blue shirt and a man in a blue shirt and a core . 
a man in a man in a white shirt and a man in a blue shirt and a core . 
a man in a blue shirt is playing a blue shirt and a core . 
a man in a man in a blue shirt and a man in a blue . 
a man in a white shirt is playing a core . 
a man in a white shirt is playing a blue shirt and a core . 
a man in a man in a white shirt and a man in a core . 
a man in a white shirt is playing a core . 
a man in a man in a white shirt is playing a core . 
a man in a blue shirt is playing a core . 
a man in a white shirt is playing a core . 
a man in a white shirt is playing a core . 
a man in a white shirt is playing a core . 
a man in a white shirt is playing a blue shirt and a core . 
a man in a blue shirt is playing a blue shirt and a blue shirt and a core . 
a man in a white shirt is playing a blue shirt and a blue shirt and a man in a core . 
a man in a white shirt is playing a blue shirt and a man in a blue . 
a man in a white shirt is playing a core . 
a man in a white shirt is playing a blue shirt and a blue shirt and a blue shirt and a blue shirt . 
a man in a white shirt is playing a blue shirt . 
a man in a blue shirt is playing a core . 
a man in a man in a blue shirt and a man in a blue . 
a man in a white shirt is playing a blue . 
a man in a man in a blue shirt and a man in a blue shirt and a core . 
a man in a man in a blue shirt and a man in a core . 
a man in a white shirt is playing a core . 
a man in a white shirt is playing a core . 
a man in a white shirt is playing a blue . 
a man in a man in a white shirt is playing a core . 
a man in a white shirt is playing a core . 
a man in a white shirt is playing a blue . 
a man in a man in a blue shirt and a man in a blue . 
a man in a man in a blue shirt and a man in a blue shirt and a core . 
a man in a man in a blue shirt and a man in a blue shirt and a blue shirt . 
a man in a man in a white shirt and a man in a core . 
a man in a white shirt is playing a core . 
a man in a white shirt is playing a core . 
a man in a man in a white shirt and a man in a blue shirt and a blue shirt and a blue . 
a man in a blue shirt is playing a blue . 
a man in a man in a blue shirt and a man in a blue shirt . 
a man in a man in a blue shirt and a man in a blue shirt and a blue shirt and a blue . 
a man in a man in a blue shirt and a man in a blue shirt and a man in a blue . 
a man in a white shirt is playing a core . 
a man in a white shirt is playing a blue shirt and a blue shirt and a blue shirt and a blue shirt and a core . 
a man in a white shirt is playing a core . 
a man in a blue shirt is playing a blue shirt and a man in a blue . 
a man in a man in a blue shirt and a man in a blue shirt . 
a man in a white shirt is a core . 
a man in a blue shirt is playing a blue shirt . 
a man in a man in a white shirt is playing a core . 
a man in a white shirt is playing a core . 
a man in a white shirt is playing a core . 
a man in a white shirt is playing a core . 
a man in a white shirt is playing a core . 
a man in a white shirt is playing a blue . 
a man in a man in a blue shirt is playing a core . 
a man in a man in a blue shirt and a man in a blue shirt and a core . 
a man in a white shirt is playing a core . 
a man in a white shirt is playing a core . 
a man in a white shirt is playing a blue shirt and a man in a blue shirt . 
a man in a white shirt is playing a blue . 
a man in a white shirt is playing a core . 
a man in a man in a blue shirt and a man in a blue . 
a man in a blue shirt is playing a blue shirt and a core . 
a man in a white shirt is playing a blue . 
a man in a man in a blue shirt and a man in a blue shirt and a core . 
a man in a blue shirt is playing a blue . 
a man in a white shirt is playing a core . 
a man in a white shirt is playing a blue . 
a man in a man in a white shirt and a man in a blue shirt and a blue shirt and a blue shirt and a core . 
a man in a white shirt is playing a core . 
a man in a white shirt is playing a core . 
a man in a white shirt is playing a blue . 
a man in a blue shirt is playing a blue . 
a man in a white shirt is playing a blue . 
a man in a blue shirt and a man in a blue shirt . 
a man in a white shirt is playing a core . 
a man in a white shirt is playing a core . 
a man in a white shirt is playing a core . 
a man in a white shirt is playing a core . 
a man in a blue shirt is playing a blue shirt and a blue shirt and a blue shirt . 
a man in a white shirt is playing a blue shirt and a blue shirt and a core . 
a man in a white shirt is playing a blue shirt . 
a man in a man in a blue shirt and a man in a blue . 
a man in a man in a blue shirt and a man in a blue . 
a man in a white shirt is playing a core . 
a man in a white shirt is playing a core . 
a man in a man in a blue shirt and a man in a blue shirt and a blue shirt and a blue shirt and a blue shirt and a blue shirt and a core . 
a man in a man in a blue shirt and a man in a blue shirt . 
a man in a man in a blue shirt is playing a core . 
a man in a man in a blue shirt and a man in a core . 
a man in a blue shirt is playing a blue . 
a man in a white shirt is playing a core . 
a man in a white shirt is playing a blue . 
a man in a blue shirt is playing a core . 
a man in a man in a blue shirt and a man in a core . 
a man in a blue shirt is playing a blue shirt and a blue shirt and a blue shirt and a man in a blue . 
a man in a man in a blue shirt is playing a core . 
a man in a blue shirt is playing a core . 
a man in a blue shirt is playing a blue shirt and a blue shirt and a blue shirt and a core . 
a man in a white shirt is playing a core . 
a man in a white shirt is playing a blue shirt and a core . 
a man in a man in a blue shirt and a man in a blue shirt and a core . 
a man in a white shirt is playing a core . 
a man in a white shirt is playing a blue . 
a man in a white shirt is playing a blue . 
a man in a blue shirt is playing a core . 
a man in a blue shirt is playing a core . 
a man in a blue shirt is playing a blue . 
a man in a blue shirt is a core . 
a man in a man in a white shirt is playing a core . 
a man in a blue shirt is playing a blue . 
a man in a man in a blue shirt and a blue shirt and a man in a blue . 
a man in a white shirt is playing a core . 
a man in a blue shirt is playing a corcore . 
a man in a blue shirt is playing a blue shirt . 
a man in a white shirt is playing a core . 
a man in a blue shirt is playing a blue . 
a man in a white shirt is playing a blue . 
a man in a man in a blue shirt and a man in a blue . 
a man in a man in a blue shirt and a man in a blue shirt and a core . 
a man in a blue shirt is playing a blue shirt . 
a man in a blue shirt is playing a blue . 
a man in a blue shirt is playing a core . 
a man in a white shirt is playing a core . 
a man in a white shirt is playing a blue . 
a man in a blue shirt is playing a core . 
a man in a white shirt is playing a blue shirt and a core . 
a man in a man in a blue shirt and a man in a blue shirt and a core . 
a man in a blue shirt is playing a blue . 
a man in a man in a blue shirt and a man in a core . 
a man in a blue shirt is playing a blue . 
a man in a white shirt is playing a core . 
a man in a white shirt is playing a core . 
a man in a man in a blue shirt and a man in a blue . 
a man in a white shirt is playing a core . 
a man in a white shirt is playing a core . 
a man in a white shirt is playing a core . 
a man in a white shirt is playing a core . 
a man in a white shirt is playing a core . 
a man in a white shirt is playing a core . 
a man in a blue shirt is playing a blue shirt and a blue shirt and a core . 
a man in a man in a blue shirt and a man in a blue . 
a man in a white shirt is playing a core . 
a man in a white shirt is playing a core . 
a man in a blue shirt is playing a core . 
a man in a man in a blue shirt and a man in a blue shirt and a blue shirt and a core . 
a man in a white shirt is playing a blue shirt and a man in a corure . 
a man in a man in a blue shirt and a man in a blue shirt . 
a man in a white shirt is playing a blue shirt . 
a man in a blue shirt is playing a blue . 
a man in a white shirt is playing a core . 
a man in a white shirt is playing a core . 
a man in a blue shirt is playing a core . 
a man in a man in a blue shirt is playing a core . 
a man in a blue shirt is playing a blue . 
a man in a white shirt is playing a blue shirt and a man in a blue . 
a man in a man in a blue shirt is playing a core . 
a man in a white shirt is playing a blue shirt . 
a man in a white shirt is playing a core . 
a man in a blue shirt is playing a core . 
a man in a white shirt is playing a core . 
a man in a blue shirt is playing a blue . 
a man in a man in a blue shirt and a core . 
a man in a white shirt is playing a blue . 
a man in a man in a blue shirt is playing a blue shirt . 
a man in a man in a blue shirt and a man in a blue . 
a man in a white shirt is playing a blue shirt and a blue shirt and a blue shirt and a core . 
a man in a man in a white shirt is playing a core . 
a man in a white shirt is playing a blue shirt and a man in a blue shirt . 
a man in a man in a blue shirt and a man in a blue shirt and a core . 
a man in a white shirt is playing a core . 
a man in a white shirt is playing a core . 
a man in a man in a blue shirt and a man in a blue . 
a man in a blue shirt is playing a core . 
a man in a white shirt is playing a blue shirt and a blue shirt and a man in a blue . 
a man in a man in a blue shirt is playing a core . 
a man in a man in a blue shirt and a man in a blue shirt . 
a man in a white shirt is playing a core . 
a man in a man in a blue shirt and a man in a blue . 
a man in a man in a blue shirt and a man in a blue . 
a man in a man in a blue shirt is playing a core . 
a man in a white shirt is playing a core . 
a man in a white shirt is playing a blue . 
a man in a blue shirt is playing a core . 
a man in a white shirt is playing a blue . 
a man in a man in a blue shirt is playing a core . 
a man in a man in a blue shirt and a man in a blue shirt . 
a man in a white shirt is a blue shirt and a blue shirt and a man in a blue . 
a man in a white shirt is playing a core . 
a man in a white shirt is playing a core . 
a man in a man in a blue shirt is playing a core . 
a man in a white shirt is playing a blue . 
a man in a white shirt is playing a core . 
a man in a white shirt is playing a core . 
a man in a man in a blue shirt and a man in a blue . 
a man in a man in a blue shirt and a core . 
a man in a man in a blue shirt is playing a core . 
a man in a blue shirt is playing a core . 
a man in a white shirt is playing a blue shirt and a man in a blue . 
a man in a blue shirt is playing a blue shirt . 
a man in a white shirt is playing a blue shirt and a man in a blue . 
a man in a white shirt is playing a core . 
a man in a man in a blue shirt and a man in a blue . 
a man in a man in a blue shirt and a man in a blue shirt . 
a man in a white shirt is playing a core . 
a man in a man in a blue shirt is playing a core . 
a man in a white shirt is playing a blue . 
a man in a man in a blue shirt and a man in a blue shirt . 
a man in a white shirt is playing a core . 
a man in a white shirt is playing a core . 
a man in a white shirt is playing a blue shirt . 
a man in a blue shirt is playing a core . 
a man in a white shirt is playing a core . 
a man in a white shirt is playing a core . 
a man in a man in a blue shirt is playing a core . 
a man in a blue shirt is playing a core . 
a man in a man in a white shirt is playing a core . 
a man in a man in a blue shirt and a man in a blue . 
a man in a blue shirt is playing a blue shirt and a white shirt and a core . 
a man in a man in a blue shirt and a blue shirt and a blue shirt and a blue shirt and a blue shirt . 
a man in a white shirt is playing a blue shirt . 
a man in a blue shirt is playing a core . 
a man in a white shirt is playing a blue shirt and a blue shirt and a blue shirt . 
a man in a blue shirt is playing a blue shirt and a core . 
a man in a white shirt is playing a core . 
a man in a white shirt is playing a core . 
a man in a white shirt is playing a core . 
a man in a blue shirt is playing a blue shirt and a blue shirt and a core . 
a man in a white shirt is playing a core . 
a man in a white shirt is playing a core . 
a man in a white shirt is playing a blue . 
a man in a white shirt is playing a core . 
a man in a white shirt is playing a core . 
a man in a white shirt is playing a blue . 
a man in a man in a blue shirt and a man in a core . 
a man in a man in a white shirt is playing a core . 
a man in a white shirt is playing a core . 
a man in a white shirt is playing a core . 
a man in a blue shirt is playing a blue shirt and a man in a blue . 
a man in a blue shirt is playing a core . 
a man in a blue shirt is playing a core . 
a man in a white shirt is playing a blue . 
a man in a white shirt is playing a core . 
a man in a white shirt is playing a blue shirt . 
a man in a blue shirt is playing a corure . 
a man in a white shirt is playing a core . 
a man in a man in a blue shirt and a man in a blue . 
a man in a man in a blue shirt and a man in a blue . 
a man in a white shirt is playing a blue shirt . 
a man in a man in a blue shirt and a man in a blue . 
a man in a white shirt is playing a core . 
a man in a white shirt is playing a core . 
a man in a white shirt is playing a core . 
a man in a blue shirt is playing a blue . 
a man in a man in a blue shirt and a man in a core . 
a man in a blue shirt is playing a core . 
a man in a man in a blue shirt and a man in a blue shirt and a core . 
a man in a white shirt is playing a blue . 
a man in a man in a white shirt is playing a core . 
a man in a white shirt is playing a core . 
a man in a man in a white shirt and a man in a blue shirt and a man in a blue . 
a man in a man in a blue shirt and a man in a blue . 
a man in a blue shirt is playing a blue . 
a man in a man in a blue shirt is playing a core . 
a man in a man in a blue shirt and a white shirt and a man in a blue . 
a man in a white shirt is playing a blue shirt and a man in a blue . 
a man in a white shirt is playing a blue shirt and a man in a blue . 
a man in a man in a blue shirt and a man in a blue shirt and a core . 
a man in a blue shirt is playing a core . 
a man in a white shirt is playing a core . 
a man in a white shirt is playing a blue shirt and a man in a blue shirt and a core . 
a man in a blue shirt and a man in a blue shirt and a blue shirt and a blue shirt and a blue . 
a man in a white shirt is playing a core . 
a man in a white shirt is playing a core . 
a man in a man in a blue shirt and a man in a blue shirt . 
a man in a white shirt is playing a blue . 
a man in a white shirt is playing a blue shirt and a core . 
a man in a man in a blue shirt and a man in a blue shirt and a blue shirt and a man in a blue . 
a man in a white shirt is playing a core . 
a man in a blue shirt is playing a blue . 
a man in a man in a blue shirt and a man in a blue shirt . 
a man in a white shirt is playing a core . 
a man in a white shirt is playing a core . 
a man in a white shirt is playing a core . 
a man in a white shirt is playing a blue . 
a man in a white shirt is playing a blue and a man in a blue . 
a man in a man in a blue shirt and a man in a blue shirt and a blue shirt and a man in a core . 
a man in a man in a blue shirt and a man in a blue shirt and a blue shirt and a man in a blue . 
a man in a man in a blue shirt and a man in a blue shirt and a core . 
a man in a man in a blue shirt and a man in a corchelelelelelelelelelelelelelelele
a man in a man in a blue shirt is playing a core . 
a man in a white shirt is playing a core . 
a man in a man in a blue shirt and a man in a blue shirt and a blue shirt and a man in a blue . 
a man in a white shirt is playing a blue shirt and a blue shirt and a core . 
a man in a blue shirt is playing a blue shirt and a core . 
a man in a white shirt is playing a blue . 
a man in a man in a white shirt and a man in a blue shirt and a man in a blue . 
a man in a white shirt is playing a core . 
a man in a man in a blue shirt and a man in a blue shirt and a core . 
a man in a blue shirt is playing a core . 
a man in a white shirt is playing a core . 
a man in a white shirt is playing a core . 
a man in a white shirt is playing a core . 
a man in a white shirt is playing a core . 
a man in a man in a blue shirt and a man in a core . 
a man in a blue shirt is playing a core . 
a man in a man in a white shirt and a man in a blue shirt and a core . 
a man in a white shirt is playing a core . 
a man in a man in a blue shirt is playing a core . 
a man in a white shirt is playing a blue shirt and a man in a blue . 
a man in a man in a blue shirt and a man in a blue . 
a man in a man in a white shirt and a man in a blue shirt and a blue shirt and a core . 
a man in a man in a blue shirt and a man in a blue . 
a man in a white shirt is playing a blue . 
a man in a white shirt is playing a core . 
a man in a man in a blue shirt is playing a blue shirt and a blue shirt and a blue shirt and a core . 
a man in a white shirt is playing a blue shirt and a man in a blue shirt . 
a man in a blue shirt is playing a core . 
a man in a white shirt is playing a core . 
a man in a white shirt is playing a blue shirt and a core . 
a man in a man in a blue shirt is playing a core . 
a man in a white shirt is playing a core . 
a man in a man in a blue shirt is playing a core . 
a man in a white shirt is playing a blue shirt . 
a man in a man in a blue shirt and a man in a blue . 
a man in a man in a blue shirt and a man in a blue shirt . 
a man in a man in a white shirt is playing a core . 
a man in a white shirt is playing a core . 
a man in a white shirt is playing a core . 
a man in a white shirt is playing a core . 
a man in a man in a blue shirt is playing a core . 
a man in a white shirt is playing a blue shirt . 
a man in a man in a blue shirt and a man in a blue shirt and a blue shirt and a core . 
a man in a white shirt is playing a blue . 
a man in a man in a blue shirt and a man in a blue shirt and a core . 
a man in a white shirt is playing a core . 
a man in a white shirt is playing a blue shirt and a man in a core . 
a man in a white shirt is playing a core . 
a man in a core in a core . 
a man in a blue shirt is playing a core . 
a man in a blue shirt is playing a core . 
a man in a blue shirt is playing a blue . 
a man in a blue shirt and a core . 
a man in a man in a blue shirt and a man in a core . 
a man in a man in a white shirt is playing a core . 
a man in a white shirt is playing a core . 
a man in a white shirt is playing a core . 
a man in a blue shirt is playing a core . 
a man in a white shirt is playing a core . 
a man in a white shirt is playing a core . 
a man in a man in a white shirt is playing a core . 
a man in a white shirt is playing a core . 
a man in a man in a blue shirt is playing a core . 
a man in a white shirt is playing a blue shirt and a blue shirt and a man in a blue . 
a man in a man in a blue shirt and a man in a blue shirt and a man in a blue . 
a man in a white shirt is playing a blue shirt . 
a man in a blue shirt is playing a core . 
a man in a man in a blue shirt and a man in a blue . 
a man in a white shirt is playing a blue shirt . 
a man in a man in a white shirt and a man in a blue shirt and a blue shirt . 
a man in a man in a blue shirt and a man in a blue shirt and a core . 
a man in a man in a blue shirt and a man in a blue shirt and a blue shirt and a core . 
a man in a man in a blue shirt and a man in a blue shirt and a blue shirt and a blue shirt and a blue shirt and a blue shirt . 
a man in a white shirt is playing a core . 
a man in a white shirt is playing a core . 
a man in a white shirt is playing a blue shirt and a blue shirt and a man in a blue . 
a man in a white shirt is playing a core . 
a man in a white shirt is playing a blue shirt and a blue shirt and a blue and a man in a blue shirt . 
a man in a man in a white shirt and a man in a core . 
a man in a white shirt is playing a core . 
a man in a man in a blue shirt and a man in a blue . 
a man in a blue shirt is playing a blue shirt . 
a man in a blue shirt is playing a blue shirt and a man in a blue . 
a man in a white shirt is playing a core . 
a man in a man in a core in a core . 
a man in a man in a blue shirt and a man in a blue shirt . 
a man in a man in a blue shirt is playing a core . 
a man in a white shirt is playing a blue shirt and a man in a blue shirt . 
a man in a white shirt is playing a core . 
a man in a man in a blue shirt and a man in a blue . 
a man in a man in a blue shirt and a man in a blue shirt and a man in a blue shirt and a core . 
a man in a white shirt is playing a core . 
a man in a blue shirt is playing a blue shirt and a blue shirt and a blue shirt and a blue shirt and a blue shirt . 
a man in a white shirt is playing a blue shirt . 
a man in a white shirt is playing a core . 
a man in a blue shirt is playing a core . 
a man in a blue shirt is playing a blue shirt . 
a man in a man in a white shirt is playing a core . 
a man in a white shirt is a core . 
a man in a white shirt is playing a core . 
a man in a man in a white shirt is playing a core . 
a man in a white shirt is playing a blue . 
a man in a man in a white shirt is playing a core . 
a man in a man in a blue shirt and a man in a blue shirt and a core . 
a man in a white shirt is playing a blue shirt and a core . 
a man in a blue shirt is playing a core . 
a man in a man in a blue shirt and a man in a core . 
a man in a blue shirt is playing a corure . 
a man in a man in a white shirt and a man in a core . 
a man in a white shirt is playing a blue shirt and a core . 
a man in a white shirt is playing a blue . 
a man in a man in a blue shirt and a man in a core . 
a man in a blue shirt is playing a core . 
a man in a man in a blue shirt and a man in a blue shirt and a core . 
a man in a man in a white shirt is playing a core . 
a man in a white shirt is playing a core . 
a man in a white shirt is playing a core . 
a man in a man in a blue shirt and a man in a blue shirt and a blue shirt and a core . 
a man in a white shirt is playing a core . 
a man in a white shirt is playing a core . 
a man in a white shirt is playing a core . 
a man in a man in a blue shirt and a man in a blue . 
a man in a white shirt is playing a core . 
a man in a man in a white shirt is playing a core . 
a man in a man in a blue shirt and a man in a blue shirt and a man in a core . 
a man in a white shirt is playing a blue . 
a man in a white shirt is playing a blue shirt and a man in a blue . 
a man in a man in a cons in a blue shirt and a core . 
a man in a man in a blue shirt and a man in a blue shirt and a man in a core . 
a man in a man in a blue shirt is playing a core . 
a man in a blue shirt is playing a core . 
a man in a man in a blue shirt and a man in a core . 
a man in a white shirt is playing a blue . 
a man in a man in a blue shirt and a man in a core . 
a man in a blue shirt is playing a core . 
a man in a blue shirt is playing a blue . 
a man in a blue shirt is playing a blue . 
a man in a blue shirt is playing a blue shirt and a man in a blue . 
a man in a blue shirt is playing a core . 
a man in a blue shirt is playing a blue . 
a man in a white shirt is playing a blue . 
a man in a white shirt is playing a blue . 
a man in a white shirt is playing a core . 
a man in a white shirt is playing a blue shirt . 
a man in a white shirt is playing a blue shirt and a blue shirt and a man in a blue . 
a man in a man in a blue shirt and a man in a core . 
a man in a blue shirt is playing a core . 
a man in a white shirt is playing a blue shirt and a man in a blue . 
a man in a man in a white shirt and a man in a blue shirt and a core . 
