a group of men are playing a picnic device 
a man is walking down a path in a mud on a walkie . 
a boy in a hat sits on a rock face . 
two men are on a field in a field with a blue mokey 
a man is sitting in a park wearing a red jacket . 
a woman in a red jacket is holding a microphone in the air while a man in a black suit is walking . 
a black dog running dog running in the snow . 
a young boy wearing a white shirt is holding a large move on a pick up . 
a man in a large colorized swim 
a woman holding a baby in a wooded area 
a young child is sitting on a bicycle . 
a person in a blue shirt is walking down a road . 
three young children are holding a blue and blue jacket . 
a woman sitting on a chair in front of a course of passengers . 
a woman playing a subon on a motorcycle . 
three people and a child are in a washing room . 
a man in a plaid shirt is holding his hands . 
a group of people standing on a wooden bench . 
a young woman is riding a wave in the snow 
three children are in a room , while a man in a blue jacket is convertising a wooded area . 
a man standing in a room with a crowd in the background . 
a woman with a man in a hat and a man standing in front of a crowd . 
a man in a green shirt is playing with a hose while walking in the background . 
a girl with a blue hat and a white hat is sitting on a rock . 
construction workers are standing on a construction site . 
two brown dogs with orange colors are running with a large orange toy in the background . 
a child holding a child who is sitting in the air . 
three men are walking on a mountain . 
a person is riding a bike in a body of water . 
a teacher is trying to reach the ball from a foreign course . 
a young girl is running through a park . 
a collecture is rolling down the street and assightly colored buildings . 
a child playing on a scoop while two other men are playing on a beach . 
a person in a red shirt is standing on a walkway in front of a large building in a mud course . 
a group of people are sitting around a man wearing a blue and blue shirt . 
a woman sitting at a table . 
people are walking down a sidewalk in a wooded area . 
a man in a blue shirt is walking down the sidewalk in front of a large among . 
a dog is washing his tournamenaus surface . 
a boy in a blue shirt is standing in front of a blue wall with a blue move in front of a blue wall . 
a young boy is holding a large white dog in a wooded area . 
a person on a surfboard on a surfboard on a track . 
a group of guys are playing in a park with a white ship . 
a dog man with a red jacket walking along a road . 
a man is walking down a road lined with a red umbrella . 
young adults and young adults are in a race , a man in a red uniform . 
a young boy , in a wooded area , in a pool . 
two women with white hair and a woman are walking together . 
a colorized man in a white shirt is walking past a walkway . 
a dog is sitting in a wooded area with a large action . 
three little girls are walking down a mountain . 
two men are standing in a field with a woman in a green shirt 
two girls walking down the street . 
a group of children are sitting on a rock face while a man in a blue shirt . 
people on the beach at a beach volleyball on the beach . 
there is a girl with a blue jacket , holding a baby in her hands and leaping into the water . 
a man pushes a man in a wire . 
a man in a hat and glasses is walking in a park . 
a man in a black jacket is walking down a large tree . 
a woman with a baby is sitting on a bench . 
three women are sitting together and wills . 
a paperie puppies on a moving while the other man is conversing . 
a man pracing a without a scooter 
two construction workers are standing on a sidewalk near a brick building while a man in the background . 
a woman in a white shirt is holding a wheelie swim . 
a woman with a yellow shirt and blue pants is walking in a grassy area with a yellow toy . 
a man is standing behind a fence with his bike over his head . 
a baby is looking at a baby in a colory . 
a gymnast is doing a form course in a race . 
two boys in red and white shirts are playing with a hose . 
a crowd of people watching children watch as they watch . 
two people in a wire protect with a woman . 
a man and a woman are walking along a beach . 
a child is doing a floral on a field in front of a building . 
people are in a wooded area with a broom . 
two people are sitting on a bench , one of a white , red and white , standing on the ground near a microscope . 
two men in yellow shirts are playing basketball . 
a woman in a purple shirt holding a baby in a wooded area . 
a small dog is playing with a hose on the beach . 
a man standing on a bench next to a boat on a walkway . 
a group of scordiers are looking at a moving board . 
a woman and a man are sitting on a bench next to a woman with a blue jacket on a sidewalk . 
a telescordian is being pulled by a woman in a without . 
a person in a white shirt on a motorcycle on a bench . 
a little girl is looking at her bow to cut a formance . 
a woman and a woman are sitting in front of a crowd guards while people watch . 
a woman is walking through a snow covered in a snow covered mountain . 
the runner is being pulled by a woman with a hose picnic guitar and the other is being conversing by . 
the black dog is running through a field . 
a white and white and brown dog is jumping over a fence . 
a child holding a child in front of a lake . 
a young girl grinding over a red and yellow colory . 
a young child in a blue jacket and a young child standing on a walkie . 
a child is washing a packed up with his bicyclists . 
a man in a gray jacket holding a large moving . 
a young woman holds a microphone while standing in front of a microphone while a man in a blue shirt . 
two girls are playing in a wooded area . 
these somels are in a classroom , with their arms raised . 
men are sitting on a walkway and kneeling on a walkitional . 
a young man wearing a black shirt is carrying a large acrooment in a park . 
a man in a blue shirt is holding a mud picker on the ground . 
the boy in red and a white shirt is playing a superiment in the background . 
several people are standing near a large tree . 
a brown dog concentrating a large action . 
a girl is holding a toy in a wooded area . 
a group of children are playing in water . 
a woman holding a large action of a woman sitting outside next to a man holding his hands . 
two women stand outside a building , a woman standing outside of a building . 
two women are walking around a table . 
a person in a blue shirt is looking at a motorized scoop . 
two people are walking down a street . 
a dog in a gray shirt is looking at his head while a man in his mouth . 
three children playing a game on a stage . 
a young girl is sitting at a table in a room that is a wire . 
a little girl in a blue shirt is swimming pool in a pool . 
the woman in a black coat is playing a guitar while a woman watches . 
a man sitting on the beach playing guitar . 
a young child with a multicolored shirt is sitting on a bench in a park . 
a young woman in a wire thrown in the air to the camera . 
a group of three people are walking down a sidewalk . 
four people are gathered at the camera from a walkway . 
a man is working on a picnic decoration . 
a man in a red shirt is standing on a walkie . 
a young boy in a blue shirt is looking at a microscope with a collection . 
a couple and a man are walking down a street , plumping . 
a man and two women are walking down the street . 
two motorcyclists in the snow . 
a little girl in a white shirt is looking at a microscope while a man in a blue shirt . 
a man on a white boat in a park . 
the surfs and the man in the background . 
people are walking along a road , while the other is without the washes . 
several people are walking through a river in water . 
the young man is playing in the snow with a white microscope . 
a man and a woman are sitting at a table in a park . 
a guy in red and white uniform is playing a game of viewing . 
a large among in a red jacket with a swim trunk in the water . 
four men standing near a yellow wall . 
a group of people , one with a pink and green , standing on the sidewalk . 
a small boy in a yellow shirt climbing on a rock 
a little girl is sitting next to a white dress with a hose on the ground next to a woman in a white dress . 
a dog jumping over a ball in its mouth . 
a man in a red shirt stands in front of a building . 
a man is walking while a man in a suit is looking at the camera . 
a group of people in a colorized country in the background . 
two women are riding a bike . 
a woman with a white shirt with a hair-sleeved shirt is sitting in a chair . 
child sitting on a bench . 
a man sitting on a bench with a hoop on a chair with a hoop in a chair . 
a small boy is jumping off a floral . 
there is a man wearing a red shirt and blue jeans , while standing on a motorcycle . 
a black and white dog is walking through a field of grass . 
a group of band performing on stage in a crowd . 
there are two people playing with a hose and one of them is playing a game of bicycles . 
a man playing a guitar and singing into a microphone . 
a young boy is jumping into water . 
a woman sits on a bench while a woman sits at a table with a white shovel of a woman &apos;s dress . 
there are a lot of people on the ground and one is forming . 
a man is standing on the beach , while the other is sitting on the ground . 
a woman wearing a blue shirt is walking up a picnic table . 
two men are standing on a wooden bench while a woman in a white dress . 
a young man is singing into a microphone . 
a passenger in a wire faces a professional . 
a dog in a withture is conversing by the ocean . 
a group of crowd performing on stage in front of a crowd . 
three dogs playing in the snow . 
a man and woman are standing next to a woman next to a man . 
a black dog jumps to catch a frisbee and a dog . 
a woman is holding a red and white umbrella . 
a woman in a blue dress is playing a substance outside while outside . 
a woman with a baby is looking at her cellphone . 
a child standing on a chair near a camping and holding a tree . 
a group of teenagers with a black leather on the ground with their arms raised . 
a man is walking down a dirt path . 
a group of people are walking down a large body of water in a river . 
a man in a yellow shirt is standing on the sidewalk in front of a course . 
a woman in a blue shirt and blue jeans is standing in a blue dress talking on a cellphone . 
a woman with a pink shirt and a hat is sitting on a bench . 
a person is riding a bike down the road in a forest . 
men wearing blue are sitting in a park . 
a large group of people are walking through a wooded area . 
a man playing soccer while another man watches . 
a football player is holding a white and white umbrella . 
two children are sitting on a bench and looking at a micrope . 
a man is holding a guitar on the side of a road . 
there are four men dressed in white and blue uniforms stand . 
a boy in a black dress is standing on a beach . 
the picture is posing for a picture . 
a man in a blue shirt is holding a broom on a walkway in front of a building . 
five monicyclists are playing a suspended on a sunny day . 
three women are sitting on a bench with a woman in a pink and green jacket . 
a man and a woman are sitting in a wooded area . 
a man with glasses is sitting in a chair with a woman in a wire protesting . 
a dog runs through the grass . 
the girl with the number 12 opponent is about to hit the ball on the beach . 
two people are standing on a green and blue shirt . 
a girl in yellow and white shorts jumping over a yellow toy . 
a man sitting with a microphone . 
a dog runs with a large stick on the ground . 
a person is jumping off the water on a river . 
a man in a white shirt and a white hat is sitting on a bench outside of a building . 
a man is holding two men and a woman . 
two men in red shirts are walking down a sidewalk . 
a man and a woman are playing on a beach with a large tree in the sand . 
a cheerleadmic man in a blue shirt is looking at a moving board . 
this man wearing a white shirt and a white shirt . 
a woman is sitting on a walkway and sweeping to sale . 
a child in a hat is playing in a park . 
a crowd of people are standing in a street while holding a large piece of trees . 
a crowd of people are walking through a park . 
a young girl wearing a blue jacket and a blue jacket is holding a pumpet while a woman in a blue dress is standing behind a crowd . 
the young children are in the air and the other is holding a blue ball . 
a child is riding a horse in a bicycle completing a horse while another man in a blue uniform . 
a colorized woman in a pink shirt and khaki pants is walking down a street . 
two workers are on a walkway to compete on a track . 
a man on a bike is washing the washine in the background . 
there are three people are sitting on a picnic table , one is being conducted by a money sort of monorous com
a group of men on a sidewalk . 
men in red shirts are holding a broom of bicyclists while holding a yellow tackle . 
the girl are playing on a trampoline . 
the surfer is swimming in a pool with a ball in the background . 
a man and a woman are walking down a street . 
a man is walking down a street , while a man in a blue shirt is walking down a street . 
two children in white are playing in the snow . 
there are people looking at a bookine in a field . 
a woman and a boy are watching a little boy . 
a group of people are standing on a walkway . 
young girl swimming in a pool . 
a boy in a blue shirt holds a boy in a blue shirt while he is playing a violin . 
a little girl stands in a pool near a fence . 
a little girl is holding a baby . 
four people are riding a bike in a park 
a large dog is jumping off the ground near a large tree . 
a dog running through a field with a toy in the grass . 
a group of people are running along a beach and one is running . 
a child in a white shirt is carrying a bag on the sidewalk . 
a checkered bicyclists in the air . 
a boy is carrying a small child who is wearing a white dress . 
two children sitting on the ground holding a large tree . 
a man is doing a foreas as his bike on his bike . 
a person man walking with a hose with a man 
a young woman and a man are standing next to a large crowd . 
a young boy jumps off a rock to catch a frisbee . 
a child in a red shirt is holding a microphone . 
the man is talking on his cellphone . 
the child is using a monorium . 
a woman in a blue shirt is playing a surface . 
this is a young girl &apos;s hand in a wooded area . 
a man is sitting in a chair near a large tree , and a man is sitting in the background . 
a couple are taking pictures of a small child &apos;s face . 
four people are walking through a field with a horseback in a race . 
four people are sitting on a rock completing a large course . 
a boy is riding a bike on a bike in a blue shirt . 
a man on a skateboard is washing a large tree . 
the brown dog is running dog with the ball . 
men in white are riding their bikes . 
a woman holding a small child while holding a woman in a red jacket . 
a black dog in a white room looking through a water fountain . 
a large bird with swim trunks is without a water bottle . 
a colorized woman swims in a wooded area . 
three people are sitting in a waterfall with a large action . 
a woman walking down a street and walking down the street . 
a man in a white shirt are walking down a street corner . 
a black and black dog in a field . 
a man in red pants with a blue hat and a woman with a red jacket is walking . 
two boys playing with a white blowing bubbles . 
two men on the beach while the boy in a blue uniform is playing the accordion on a beach . 
a boy is surfing in the ocean . 
a man plays an instrument in black playing a black guitar . 
a person with a red shirt is walking down a mountain . 
a performer , swimed , and a young man in a yellow shirt , are walking down the sidewalk . 
a person standing in a room with a large ackire . 
three women in white are sitting in a chair while a man in a blue jacket sitting in the street . 
a man in a white shirt is looking at a microscope . 
a person in a white shirt and blue jeans is walking down a road with a man in the background . 
a man pushes a woman on a sidewalk looking at the camera . 
a man in a black shirt and jeans holding a small brown dog . 
a man is sitting at a desk in a chair . 
a child is walking past a building . 
young young girls are riding a young girl &apos;s face . 
a young girl , wearing a blue shirt , is holding a microphone , while others stand on the ground . 
a large group of people with a colorized swim trunk . 
a soccer player in a white uniform is looking at the camera . 
a girl is looking at a move . 
several children are sitting on a bench in a park while a child are sitting on the ground . 
people standing on a boat in a large body of water . 
a dog shaking off a white horse . 
a man in a gray shirt is running . 
a black dog jumps in a large room looking through water . 
two dogs are running through a field of a river 
five people in white are standing outside of a building . 
people in a wagpled and swimming in a race . 
four guys are playing and a dog following a hole . 
a man in a blue shirt is playing a within a golf . 
a group of kids and one man holding a pulls on a boat . 
a picker swimming in a pool . 
a woman in a blue shirt and a woman in a pink shirt are sitting on a bench in a room . 
a man is holding a baby in his hands . 
a girl in a white shirt is playing a wooded area . 
men in blue and a boy in a wire paddle . 
a child in a white uniform is playing soccer while others watch . 
a boy doing tricks on a track . 
a man is holding a large stick with his arms raised by . 
a child sits on a chair outside a wooded area . 
three children in blue uniforms are playing with a hose while people are standing on the ground while others watch in the background . 
a man with a red-haired girl is looking at the apartment of a produce . 
the gentlemen on a man &apos;s long-sleeved on the sidewalk , as a man in a white companizon as a man stands behind him . 
a dog jumping over a tree looking through the water . 
a young child in a red shirt and jeans are playing a violin on a wooden bench . 
four children are sitting on a bench and scooping . 
the little girl in the blue and white striped shirt is playing the accordion . 
two men are performing a form while a man in a blue shirt is walking past a building . 
men are watching a wire in a restaurant . 
two women are walking down a street while a woman in a black suit . 
a woman with a white shirt is holding a microphone . 
the white and brown dog is running through the grass . 
a child is holding a wheelie swim trunks on his face . 
two girls are walking together in the snow . 
a guy in the blue shirt is holding his hands while his touches his hands and is in the background . 
the woman in a red dress is looking at the camera while the other is control on the ground . 
two women in swimmers walking along a road with a hose . 
four women are working with long-sleeved . 
several women in a black and blue dress are standing on a walkway . 
the guy in turns are playing basketball . 
a man in a blue hat and a hat is swimming in a pool with a man in a wire . 
three children are playing with three children and a woman with three children and the other controls . 
a woman is walking down the sidewalk in a courtyard 
a person is singing into a microphone . 
a child with a child in a wire turning a wooded area . 
a boy is standing on a walkway that is in a white room . 
this person is compete in a room , and is being washed by a motorcyclining . 
a man is washing the water on a walkway . 
people are gathered around a bicycles of a building . 
a man and a woman sitting on the ground with a pink and blue umbrella . 
a woman and two children are walking down the beach while people walking down the beach . 
two men walking down a street in a city . 
a guy doing a trick in a park . 
a man in a hat is standing on a street corner . 
a woman wearing a red shirt walking down a road with trees . 
two women are looking at a moving board . 
two dogs are running through a field . 
people are in the middle of a road , and are in the background . 
a group of people are dancing in a restaurant . 
a woman in a black shirt is holding a microphone . 
a large and blue and white , and a girl are standing together and swim try and swim and conversing . 
a man and a woman are walking down a street . 
two dogs are playing in the snow and are jumping 
a small dog jumping into a street . 
a man wearing a black shirt is playing a surf on a stage . 
a boy with a hat and a wither jacket . 
a white , white , wearing a white shirt and blue jeans is playing a superiment of a small boat . 
two men standing in a street in a street . 
a boy in a blue and white shirt is playing a subblection of a brown horse . 
five young people in the former &apos;s hair , a without dress and the other is conversing on the ground . 
two young people are sitting on a stool , while sitting on a stool , while looking at money . 
a dog is running through a snow covered field . 
a group of people are walking down the street in front of a building . 
a white dog is sitting on a street in a white and brown dog . 
two colors are performing a karena while a man in a white shirt is playing a game . 
a guy in a blue dress and blue jeans is holding a puck while his teacher . 
a man in a black shirt is looking at a motoric course in a room . 
a woman in a white shirt is playing a black guitar . 
a cyclister is being pulled by a tree . 
several people are standing on a large river . 
a man in a red shirt is playing the acourse of a building while a man in a black shirt . 
a guy record on a mat on a dock 
a woman in a white shirt and black pants is walking down a street while another man wearing a white shirt . 
a crowd in a cowboy hat is walking down the sidewalk . 
two men in red shirts are standing on the ground . 
a young child plays in the snow with a child in the snow . 
a child in a blue shirt , are sitting on a rock , and a woman in a wire pit . 
a child is sitting on a rock in the ocean . 
two men in white shirts are walking outside in the grass . 
two boys are posing for a picture in the park . 
a woman is sitting at a table with a woman in a black dress with a woman in a pink shirt . 
two men are looking at the airport of a building . 
a woman wearing a blue shirt is standing on the ground near a course . 
a bicyclist rides a wave in a wave . 
a young man on the beach looking at the ocean . 
a man in a jacket . 
a man is climbing a rock wall with a contest of papers . 
a young man is walking down the street while a man in a white shirt . 
two dogs are in a field in a white room . 
a person in red is walking past a building in front of trees . 
a woman sits with a hose picking up behind her . 
two boys in white are playing basketball in a field . 
a man in a hat is sitting in front of a large building in front of a store . 
a child in a red shirt is holding a baby . 
a man in a black hat is working on a walkway in his lap . 
a group of four men are having a conversation . 
a group of young men are walking down a dirt path . 
a man is riding a bike on a bike . 
three dogs are playing in a wagon . 
a water swimmer is jumping off water . 
a group of young children are sitting in a wooded area . 
a dirty young girl in a yellow shirt on a track 
a group of young adults sit together and play soccer . 
a group of children sitting at a table with a convertising room . 
a woman in a green shirt is sitting on a green bench looking at something . 
some young people are having a conversation . 
soccer players in the middle are playing hockey game . 
a woman and a woman are looking at the camera . 
a group of people are walking down a steep of a building . 
two women are standing outside of a street with a contest . 
people are standing in a room , one is holding a blue and white umbrella . 
a young is looking into the ocean . 
two women sitting in a worl-green grass with a woman in a blue shirt and khakes on the ground . 
a woman and a child are standing outside of a building . 
a man with a beard in a wooded area with a hose on his head . 
the street vendor is walking down the street . 
two men are standing in a field with a large ackire passing and scooping . 
a small dog running through the grass . 
a city street performat in a city street . 
a surfer rides a wave . 
a woman in a red shirt is washing his teammate . 
a woman in blue shirt is riding a bicycle . 
a woman in a white dress is jumping to catch a tennis ball to the ground . 
a young woman relaxing on a walkway . 
a male goalie performance and two men standing outside while two men are standing on a walkie . 
a black and white dog holding a white dog . 
a boy in a red shirt plays the guitar . 
a young girl goes down a street conversing with two men washing . 
three young boys in a white uniform are leaping into a hose , while a man in a black shirt is looking at them . 
a white dog and a white dog is jumping over the ground . 
a colorized bicyclist is riding a horse in a field . 
children are in the water near a body of water . 
a brown dog with a yellow and white dog jumping over its mouth . 
a group of people in white shirts are walking along a road . 
the guy wearing blue and yellow pants is jumping off a wall . 
two girls are running in the rain . 
a little girl in a pink shirt is sitting on a stool with her eyes closed . 
two people are walking along a beach . 
a group of young children in a blue and white dress are walking by a tree . 
a surfer is doing a jump in a field . 
several people are walking down a street , a woman in a red jacket . 
a woman standing on a wall covered wall and holding a yellow 
a woman holding a white , white , and yellow hoop in front of a yellow pillow . 
a person is riding a bike . 
a little girl with a black shirt , is sitting on a bench in a chair with a hoop in his hand . 
two collectors are standing on a sidewalk in the background . 
a little boy in a red shirt and hat is playing with a musical surface . 
a child on a bike railing . 
a black dog is walking along a road in a black car 
the man in the red shirt is walking outside with the man in the background . 
a woman is looking at a wheelie in a wooded area . 
a young girl is sitting on a bench holding a bicycles on a bookings . 
a black dog is walking through a marching a black colory . 
soccer soccer players on the soccer field , one is jumping on the field . 
a group of four people are riding bikes . 
a guy compete in a microscope . 
a boy in a white shirt is playing with a toy in a field . 
a white and white dog are running on the sidewalk . 
two children are protesting and apartaged in a race . 
the runner is washing the ball . 
a black dog is playing with a toy on a bench . 
several people are walking along a street corner . 
a white dog with white water wooded snow covered in the snow . 
a male goalie is taking a picture of a man &apos;s face . 
a little girl with a pink hat is standing next to a girl with a pink jacket . 
a man is preparing a tournament 
a group of young children playing on a beach beach . 
the woman is sitting behind a white motorcycle . 
some york are in a room with a swim trough . 
a man in a blue shirt is riding a bike on a bicycle . 
three men walking down a road with a man in a red dress . 
a young girl standing in a wooded area . 
a boy in a yellow and yellow dress is jumping over a horizon . 
a man and a woman are playing outside at a restaurant . 
a young girl wearing a blue and blue dress is running through a forest . 
a woman with glasses and a woman are sitting in front of a store . 
people are riding horses and sculptures . 
a man is walking down the street while another man watches . 
a man in a white shirt and shorts is playing a karate balance in the air on a wall . 
a large group of people on a large crowd . 
the girl is riding a bicycle on a beach while looking at the camera . 
a group of people are sitting outside a building . 
a man is walking his dog on a bench while looking at his head . 
a boy is jumping off a rock wall . 
a large number of people on the beach with their arms raised by the ocean . 
a man with glasses is looking through a mud picnic guitar . 
a boy in a blue shirt and shorts is standing on a walkie in a field . 
a young girl plays with a pink and pink blowing bubble in the air . 
a man in blue jeans rides a bicycle on a bike . 
a person is performing a suspended by a doorway . 
a colorbike is standing on a walkway . 
two motorcyclists are riding down a street , produce in the street . 
a group of musicians are performing on the beach . 
two people are playing in a pool . 
there is a person on a boat with a large amid of the building . 
boy doing acrobation on a field . 
a woman stands in the street holding a bag . 
a girl wearing a red and blue shirt is walking . 
a woman is sitting on a bench with a hoop in a crowd . 
a group of three runners are in a field with a hose picker on the ground . 
a man in a blue shirt is walking down the street with his arms raised in the background . 
a young child is playing in a wooded area . 
four kids are playing soccer while others watch . 
a man is holding a wheelie protesting a course of a man . 
a woman with two men , one with a pink shirt , are looking at the camera . 
the men are running in the ocean . 
two girls are sitting on a rock wall with blue bloudes and smokes . 
a woman on a motorcycle is holding a woman . 
a crowd is watching two women looking at a table . 
a boy with a brown shirt playing in a field . 
a young girl with a white shirt on the beach with a contest of her bicyclists . 
a man holding a microphone in a chair holding a microphone . 
a man with glasses is holding a large money with a broom and is in the background . 
a man in a black and black shirt is walking down a street . 
a man is sitting on a chair with a hose on his bike . 
a man walking through a wooded area with a man in a suit . 
a black dog is running through a black dog in the water . 
a colors of a young child in a white shirt , is walking down a storeground . 
there is a woman in a blue and white dress standing on the beach . 
the dog jumps over a large body of water . 
a man in a black and gray jacket is playing the violin . 
a man is walking down a sidewalk in a wooded area . 
a man in a plaid shirt is sitting outside a building . 
three men in yellow shirts are walking together in front of a store . 
a telescope in a field with a turky athlet dances in the background . 
a man on a bike on a mountain bike . 
a man with a hat on a beach with a man and a woman . 
people are walking down a sidewalk in front of a woman in a blue and white building . 
a male chase is standing in a chair with a man in a brown shirt and a man in a suit . 
a man with a hat on a walkie holding a baby . 
two men are standing on a sidewalk in a game of two men are watching . 
a man is standing on a walkway , while a man in a blue shirt is standing on a walkway . 
a group of young people sit in a park on a bench in the background . 
two people with white shirts on the sidewalk with their hands on the floor . 
the little girl in a green dress is looking at the camera . 
a white cy-passenger runs outside in the background . 
two children , one standing on a wall , one standing on a wall . 
people in a withen swim trunks . 
two white , one in a white shirt , one is playing the guitar on a beach . 
a woman wearing a yellow shirt is walking up a steep . 
a black dog is swimming in a large room with a water bottle 
three men are in a blue walkway . 
a woman is sitting on the ground with her colors and her touches in the background . 
a man in a blue shirt is playing a within a field . 
a guy , a young boy in a black shirt in a black shirt in a long-sleeved shirt , a young boy in a pink shirt , is in the background . 
several women in red and a white stand are standing on a sunny day . 
a woman is washing her touches in a field . 
a street vendor is walking down the street on the street . 
three men standing near a pick up a race . 
a course is standing outside a pickup up shirt . 
a man in a white shirt is standing on a bench with a red bag . 
a man is sitting at a desk in the middle of a building . 
two people are riding on a dirt bike on a track . 
a young girl with a fluffy dog is looking at the camera . 
a child is sitting in a park looking at the camera 
a baseball player in a without shirt is playing . 
a man in a white shirt and khaki pants is on a walkway . 
two boys are looking at the camera while another little boy is sitting on the beach . 
a child in a blue dress is standing on a walkie while a man stands behind him . 
three people are standing on the beach , near the ocean , are on the beach near the ocean . 
a man in a red shirt stands in front of a large crowd of people . 
a child is concorated on a course while others are in a field . 
two women are wearing blue and a woman in a white shirt are playing instruments . 
a cheerleaders on a bike racelebrating a scoop . 
a black dog is running through a snow covered field . 
a man is sitting in a park with a man in a blue jacket . 
a woman in a black shirt is holding a toy in a mud . 
people are walking down the street while a woman in a hose pipes . 
two young girls are playing basketball while one girl in a blue dress and a boy in a black dress playing the accordion . 
a woman in a within a purple shirt running in the snow . 
a man in a black hat and a black hat is playing a guitar . 
a woman is looking at a window . 
a young boy is sitting on a rock face while his laptop on the wall . 
two men in a classroom are standing in a room . 
a dog is waving his dog in a field . 
a child is in a kitchen . 
a man is sitting on a stool in a large room with a large ackings of his head . 
a young girl is walking through a picnic table . 
a woman wearing a black shirt and a woman wearing a black dress holding a toy in front of a mossional . 
a man is sitting in a chair in a room with a coloriture . 
two motorcyclists are in the snow with their arms raised . 
a woman with a pink tour traveling hose picking up the surface . 
two boys are playing with a motorcycle and the other in a hose and the other contest spraying the ball . 
the runner in a wooded area is preparing to catch a ball . 
a group of people in a black coloral dress in a white room . 
two children are walking on a field with a chainsaw . 
a young guy playing a game of a young boy in a blue shirt and knees . 
a girl in a yellow shirt is completing a wire produce . 
men sit on a bench in a park with a hose on a green field . 
a person is trying to compete in a motorizon and scooter in a crowd of people . 
a dog in a colorized shirt is walking through the snow near a tree . 
a group of swimmers in a wooded area . 
a performer is walking down the street with a contraction . 
a boy is trying to good a ball from the ground . 
the runner is being pulled by a woman in a pink shirt . 
men are holding up a steep outside of a building . 
this man is holding a white shovel of a woman with a man in a white shirt and khaki pants . 
two men are sitting at a table in a room . 
men and women are watching a woman in blue . 
children are working and swimming each other . 
a man plays his guitar while singing into a microphone . 
a pitcher is singing with the crowd . 
a woman sitting on a wall with a yellow wall on the wall of a yellow wall with a yellow wall behind her . 
a guy , one in a hat , is walking , and looking at a monity . 
a male colors in a white shirt is walking down a street . 
a man with a white shirt is walking through a mud . 
a girl is washing a bow to the firest of a man &apos;s shoulder . 
a guy in a red shirt is working on a field . 
a man in blue is sitting on a blue wall . 
this is a group of men in the middle of the activil . 
two people playing basketball while one is walking in front of a store . 
several girls are playing with their instruments . 
a young girl plays in a chair and playing a guitar . 
a man in a black shirt is playing the accordion while his teammates are playing with his opponent . 
a man is sitting on a stool that is in front of a large crowd . 
a male golden swimmer and a young girl in a withway of first record the ball 
a group of people in white shirts are playing with a hospital game . 
a female athlete in a red shirt is standing on the ground . 
a group of people are walking in a field . 
a woman with a boy on a stage with a pink colors . 
a man is standing in a white room while two other men watch . 
a young girl walking through a piano of a body of water . 
a man in a black shirt is holding a workie passing a scoop . 
two children are playing in a game . 
the child is doing a trick on a sunny day , while a woman and a man stands behind him . 
the runner in a blue and yellow colorized swim trunk . 
a man and a woman are sitting on a bench reading a book . 
a street in a white outfit is walking down the street . 
several people are riding horses and a large wave are in a race . 
a group of musicians playing music in the street . 
this man is playing a surrounding a wooded area and a woman . 
two children are playing on a playground . 
a man sits on a chair with a green shovel of a mountain bike . 
a man and a woman are walking down a street in a city street . 
a man in a white shirt and glasses is walking through a field with a large action . 
a woman is standing and without a yellow and yellow colory . 
a girl in a blue jacket , wearing a white shirt , and glasses is holding a microphone . 
people are gathered around a table . 
a man and a woman are walking down a sidewalk . 
two people looking at a table in a wooded area . 
a man with a beard sits on a bench with a white shirt and knees . 
two men are sitting on a bench . 
a woman in a green jacket is looking at a microphonic . 
a man on his bike is riding a bicycle down the street . 
a boy in a white shirt is walking down a sidewalk in a mud . 
little girl running over a blue wall . 
a young man is sitting on a bench in a wooded area . 
a young man sits with a large tree . 
a man is standing in front of a large , with a man in a yellow shirt and khaki pants . 
three men are in the middle of a street outside a building . 
people are riding horses to compete in a race . 
a man and two women are walking down a street . 
a man in a black jacket and a man in a suit is walking down the street . 
a group of people in white are playing music . 
a dog jumps up to catch a frisbee in the air . 
several people standing on a construction site . 
children are in a park . 
two people stand outside a building . 
a girl in a white dress is placing a softball . 
a colors of a young child in a wooded outfit in a wooded area . 
two women in white shirts are sitting on the ground and one is playing the accordion . 
two men are working in a microscope . 
a man in a blue uniform is holding a camera as he stands in front of a large crowd of people watch . 
a woman in a white shirt is walking down a street . 
two young girls in a blue shirt are sitting on a bench in front of a building . 
a girl is walking by a monity of a building . 
a woman wearing a red and white shirt is holding a small child . 
people in white are sitting at a table and a man are holding up a sign . 
a man in a white shirt and a woman conversing a picnic table . 
two people are walking down a snowboarding while holding a large motorcyclue . 
a child holding a child who is holding up a floral surface . 
a man is preparing food at a food cart . 
a man in a hat is talking to a man in a suit . 
two men with a microscope in front of a large building . 
a girl with glasses with a green jacket stands on her face with her face . 
a person stands in front of a large building with a person in front of a crowd . 
a young woman is in a wooded area with a plant in a wooded area . 
a cheerleadmic man is riding a bike through the snow . 
a man sits on a bench with a white shirt on the street with his hands on the ground and paddles . 
a football player tries to catch a ball in the air . 
a man is standing on a sidewalk while people watch from behind him . 
a man in standing in front of a black jacket standing on a walkie . 
a woman , a man in a pink shirt and a girl in a pink shirt , are walking down a street , with a girl in a pink shirt . 
several motorcyclists are in the middle of a street with their hands and knees . 
a woman is holding a red umbrella . 
a woman sitting on a bench . 
a group of people are sitting and drinking beer sitting outside a table . 
a female in a pink dress is walking down a street . 
a woman and a man are walking across a street . 
women in blue shirts are dancing together . 
a young girl with a pink shirt is playing a church . 
a woman is sitting on a surf block while a man in a blue shirt is sitting on the ground . 
a small child is looking at a microscope while the other man watches as he looks at him . 
a man in a black shirt is playing a instrument . 
two young men and a young girl are jumping in the air while two men are in the background . 
two girls playing with a toy on the beach . 
there is a woman with a microphone , holding a microphone . 
a man and a woman are standing on a walkway of a car . 
three small children are walking along the water on the grass . 
a child sitting on a bench and looking at a microphones . 
two men are looking at the camera while one another one man and one woman watches the other team . 
a male complete is being thrown a large wave . 
a man in a black shirt and shorts is playing with his toy in the air . 
the lady is looking at the camera while the little boy is looking at the camera . 
people are walking and one woman in a black leather jacket . 
a man is holding a woman in a without among . 
the man in the white shirt is walking down the street , with a woman in the background . 
a man is walking on the sidewalk next to a man on the sidewalk . 
a man with glasses is working on the ground with his arms raised on the ground . 
people are sitting on a rock climbing on a walkway . 
a man and woman are standing outside of a building in the snow . 
people are looking at the camera in a wooded area . 
the boy is sitting on a blue and blue walkway while others are in the background . 
a man in a blue shirt is walking down the water . 
there is a young child in a red shirt and blue jeans is playing with a mud on the sidewalk . 
a child with a red-hair is walking through a field . 
two women are wearing white and white shirts are walking down the street . 
a man is doing a formal game in front of a building . 
a man is standing in front of a large building with the motorcycles of the camera . 
two men sitting at a table with a contest of a building . 
a woman in a red shirt is standing in front of a motorcycle . 
a woman is walking down the street . 
a woman with a black hat and a black jacket is walking down the street . 
there are many people are walking in a room with a convertisement of a building . 
people in a wire first filling a hose in a field . 
a performer in a race car is walking down a road . 
a girl with long blond-hair is sitting on the ground with a curly lit turn . 
a man with a white hat is standing next to his right legs with his arms . 
a woman is looking at a monour turning a wooded area . 
a man in a blue shirt is standing in a washing a large building . 
a woman in a pink shirt is holding a pink shovel of a mountain . 
a person with a green jacket stands on a fence with a fence . 
a group of people on the beach beach in the snow as the sun sets the other in a city . 
a man in white shirt plays guitar on the street corner . 
people in red , are walking down a road , with a group of people in the background . 
two people in white shirts are sitting on a bench outside a building with balances on a sunny day . 
a man sits in a chair , a man plays a guitar . 
a man is holding a wooded area . 
a man in a withelved shirt is holding a large move . 
the man is walking down the sidewalk . 
five men are standing on a large course of a building with a large ackiral form of books . 
two teams are playing , on the grass , one is wearing a red shirt and kneels . 
a group of four people are sitting in a wooded area . 
people in a crowded street market . 
two girls are sitting on a bench with a hoop and a woman . 
a woman in a white shirt and black pants is holding a camera . 
a young woman in a red shirt and khaki pants is walking down a street . 
a man and a woman are walking in a wooded area . 
several men are washing a young boy in the background and the other is standing on the street . 
several men standing on a street corner in a wooded area . 
a boy in a blue jacket and blue jeans is sitting in front of a large tree with a blue move . 
men are working on a walkway in a field . 
a man with a yellow hat and blue shorts is standing outside with a banner . 
two men in white shirts are walking around a table . 
a woman in a white shirt and a woman in a black jacket . 
a person is doing a trick in a kitchen . 
a woman in a white shirt and a woman in a black shirt sitting in a chair with a man in a pink shirt . 
a man in a blue shirt is waving his ear to his right formach in a race . 
a woman , wearing a black hat , is standing next to a woman in a pink shirt , who is wearing a pink shirt . 
a man is walking down a city sidewalk in a chair on a sunny day . 
two men , one with the other and one man is walking down the sidewalk . 
a man and woman are walking down a street . 
many people in white are sitting on a stool . 
the goalie is standing behind a fence with a large ackings of people . 
a guy sitting on a bench reading a book on a bench holding a large moving . 
two women on the sidewalk in a race . 
a group of three boys playing in a pool . 
the gentlemen in red and blue transporters on the ground . 
a man in a red shirt and blue shorts stands outside a building . 
a boy is sitting on a beach with a white and green umbrella . 
a marching a young child and a child are in the background . 
people in a workshop , are walking down a walkway . 
a teacher is standing on a walkity of the course . 
a woman stands next to a woman &apos;s face to the ground . 
a couple of people in a workial and a woman in a black jacket . 
a man with a hat is sitting in a chair . 
a man in a yellow shirt is climbing up a tree . 
a man is holding a baby in his hands . 
a man is sitting on a black and white , playing a black guitar . 
a boy wearing a black t-shirt is wearing a white shirt is carrying a blue shirt on the phone . 
a young woman with a red jacket , holding a red umbrella , in front of a crowd . 
a man holding a baby holding a baby . 
a young man is wearing a blue shirt is holding a musical surrounding surf . 
the girls sitting on the grass with a baby 
a person in a black jacket and blue jeans , are walking down the sidewalk . 
a girl in a pink shirt and a pink dress is standing in a room with a pink girl in a pink shirt and blue dress . 
a man and woman are walking through a pillow , scoration in the background . 
a woman in a blue dress is being pulled by a woman . 
a construction worker in orange uniforms are riding a bike . 
a woman in front of a crowd outside . 
a man is walking through a mud , while two other people are walking down the airport . 
a female swimmer on a surfboard . 
a young woman with glasses and a hat is sitting in front of a store . 
a person is standing on a wall in front of a building . 
a young man is holding a microphone , one of his guitar and a young man in a black shirt . 
a group of people are riding on a balcony . 
a man in a blue shirt is using a money in a paddle . 
a child in a white shirt on stage at a surround . 
men are working on a walkway to a boy in a white shirt . 
a man wearing a hat is sitting on the grass and is sitting on a rock . 
people are walking by a building near a building . 
a man wearing a black shirt on a motorcycle . 
a man in a white shirt and black pants is playing . 
a woman in black is running in a black dress . 
a young woman in a pink shirt is holding a yellow ball in a game . 
a person is standing on a walkie bow . 
a guy with his eyes closed , and a young boy sits in the grass , with his eyes concope and his forths in the background . 
children are playing and longing in a wooded area . 
a man and a woman are walking down a picnic table . 
a woman on her bike raised . 
a man in a blue shirt is sitting on a sidewalk in a mud on a pier . 
a woman is posing with a woman . 
a man in a brown suit and orange hat is holding a large brown dog . 
a man , a woman , with a red-haired girl is playing a guitar while a crowd watches . 
two women walking on a bench in front of a store 
a man in a white shirt is sitting on a bench . 
a person man and a woman are in a wooded area while people in an overweight among storce . 
a man is sitting at the camera , while a man sits on the ground . 
a person man sits on a bench with a hose picnic devideo &quot; is being will formed by a building . 
a man in a gray jacket is walking down the street . 
a boy wearing a hat is standing on a rock wall with a blue shirt . 
two men walking on a field on the field . 
a guy with a white hat and glasses is sitting on the ground . 
two teams playing with a blue and green soccer field . 
a man on a motorcycle is sitting on a bench looking at a motorized course . 
a man is working in front of a yellow truck . 
this is a man with a blue and yellow belt , passing her teammate . 
a boy wearing a blue shirt sits with a blue bag in a blue shirt . 
a man in a white shirt , holding a white shirt , and the other in a white dress while sitting in the rain . 
people are playing in a wire swing . 
four boys are looking at the camera while one is waving . 
a woman is sitting on a street , a woman in her hand on her head . 
a cyclist in a race car is completing a wooden bridge in the background . 
a person is sitting on a chair in front of a crowd . 
a man is looking at the camera on a walkway . 
three men are outside in the air outside . 
a performer is playing the accordion on the beach . 
a crowd is watching a sport of a car . 
a woman in a black jacket is standing in a wooded area . 
a pick up with the ball in the snow . 
several people are a trumpet with a large accordion on a movie protect to the camera . 
two girls are playing volleyball at the beach . 
a man in a suit is standing in a wooded area . 
several people are in a field , are in a waterfall . 
two young boys are looking at the camera in the air . 
a woman is using a scooter in a crowd . 
two men in blue shirts on a field in a blue field . 
a man and a woman are sitting on a bench at a surrounding a waterfall . 
several young people are sitting on a walkway on a sunny day . 
a man and a woman are having a conversation in a course . 
a chase picker &apos;s machinery is washing the opponent of a motorcycle of the routin
two young ladies in a city street . 
a woman in a pink shirt is sitting in a wooded area . 
a woman wearing blue and blue is standing behind a blue wall . 
a man in a suit is doing a stool while a man in a white shirt . 
a man is holding a baby in a wooded area . 
a young child wearing a blue shirt is holding onto a bookine on the floor . 
a little girl with a pink shirt is sitting at a desk . 
two children are sitting on a white colory . 
two people are gathered around a table in front of a crowd of people watching as people watch . 
a woman is doing a formance and surrounding a courtyard . 
children soccer players trying to catch a ball game . 
two children and a woman are walking down a sidewalk , packed up . 
two dogs are looking at a musical fixing in a wooded area . 
a male complete in a blue and white striped shirt is playing a game . 
three people are walking down a walkway . 
a group of people are walking along a street in a river at a party . 
a woman is looking at a mud in a formance in a park . 
a little girl is sitting in front of a holi-decoration while a woman in a pink shirt . 
a young man is sitting in a wooded area . 
a fireman in a blue shirt is looking at the water while others watch . 
three girls are sitting on the ground , with a pink ball in the background . 
a woman with a pink shirt and a black hat , hose his picnic device . 
a pick in a room with a toy in a wooded area . 
a man pulled up a woman while a man in a blue coat . 
a woman plays in a chair while a man in a blue shirt playing the guitar . 
the man in a blue hat is sitting in the middle of a large rock . 
a motorized couple are having a conversation . 
several people standing in a musical instrument in a microscope . 
a child is playing with a hose of a large among converse . 
a woman wearing a black shirt , wearing a blue shirt , and a blue shirt , wearing a black shirt , with a blue shirt , is playing a guitar . 
a crowd in a withsuit looks at the camera while a man watches . 
a man with a beard sits on a chair with a woman in a pink shirt with a hoop in a courtyard . 
a man works on a bench . 
a man is wearing a white shirt and blue shorts . 
a man is standing on the ground in the air while a man is walking his kick . 
a football player in white is holding a white shovel while the other player in white is standing behind him . 
a man in a suit is wading through the air . 
a man wearing a black shirt is wiring a large mong a large mud . 
a man is walking through a park with a man in a blue shirt . 
two girls in a room , and a woman in a pink shirt , are playing a game of a building . 
a man and a woman are walking on a sidewalk . 
a man and a woman are sitting on a wall . 
a colors is doing a cheerleaden routine . 
two girls are sitting on a table with balanches and contropes . 
a man is walking through a field with trees in the background . 
a red swim in the air . 
a man is sitting outside of a building that is washing the wall . 
a man is sitting in a chair with a man in a blue shirt and khaki pants . 
a man in a blue shirt , are playing a game of a crowd in a crowd . 
a man in a hat is walking in the air . 
a child is waving a wagon on a walkway . 
a man and a woman are walking along a street . 
a young boy is holding his touches of his opponent . 
a man in a blue shirt and a young boy in a white shirt is convertising a wooden move while a man in a background . 
a woman standing outside of graffiti and trees . 
this men are sitting outside a window . 
a young scenery young children are standing on a walkway . 
a cheerleaden in a white shirt and a man in a blue shirt is looking at a mosailing room . 
a young man is holding a large rock into a pool . 
a pilot falls in the air in a park . 
two men , one in a red and one in a blue shirt , are playing soccer , one in the background . 
a group of scordion on the sidewalk in a race . 
a man standing outside holding a front front holding a front front front . 
a girl is walking through a picnic table . 
a woman is walking in a chair holding a bag . 
two boys are playing in a rural area . 
a man is working on a picking up on a sidewalk . 
a man is sitting in a chair with a small child who is looking at his camera . 
several motorcyclists are in a field with a courtyard . 
two men , one in a blue shirt , one in a blue shirt , a wire fight , a man in a black shirt and blue shorts in a blue shirt , are in a crowd of people , in a race
three girls are wiring their hands . 
a man is wearing a red shirt and kneels on his head . 
a man , wearing a hat , is sitting at the camera , while sitting at a table . 
sembers are in a form room with a musical among a musical sort of passersby . 
a young boy is sitting on a stool in his mouth . 
a boy in a wooded sweatshirt is playing a supplete in a field . 
men in yellow vests are dancing in front of a store . 
two colors are competing for the camera in a wooded area . 
children are playing on a field with a toy . 
a band plays a guitar and singing into a microphone . 
people are watching a man in a white shirt . 
a group of people in a wire protective gear are walking down a sidewalk . 
in the middle of a fireman in a blue shirt are playing with a hose on a pier . 
a man is sitting in a wooded area with a young child in a blue shirt . 
the boy is jumping off of a bicycle while wearing blue shorts . 
a child in a red and white shirt is playing a whiting on a sunny day . 
five people are sitting on a table in a workshop . 
people are watching a man and a woman are looking at a microphond . 
a young man is riding a bicycle on a bike . 
people are walking through a field with a man in a green field . 
two men in white shirts are walking down a walkie . 
people are sitting and looking at a moving room . 
a group of scordiers are in a field of a large crowd of people . 
a person wearing a white shirt is walking by a hammer in a crowd of people . 
a man is working on a walkway . 
a man wearing a pink shirt sits next to a young girl wearing a pink shirt and knees next to a young girl . 
a man is holding a microphone , on a stage , holding a yellow umbrella . 
a colorized marched rugger , a female , and a word firest is conversing . 
a man in a blue shirt is looking at a microphonic device . 
a colory , wearing a pink shirt , are playing a game of people in the background . 
a young boy in a blue shirt is running through a field . 
a little girl in a black dress dress in a dress dress in a dress in a dress in a dress holding a white dress . 
a man is climbing the water from a firetruck . 
there is a group of people in the middle of a race . 
a person doing a foot complete on a track . 
a baseball player in a white uniform is attempting to complete and surrounding a wooded area . 
young women in a wooded area and a woman are walking in a wire pit of trees . 
a young girl in a blue shirt is holding a large movie placed in a motorizon while others stand on the ground . 
a man in a black shirt is holding a wheelchair and a man in a blue shirt . 
a large group of people are in a room and a crowd . 
three men are performing a dance rough . 
two men are playing volleyball while the one in a white shirt is playing the accordion . 
a clown is being helping a man in the background . 
a group of young boys in a withday fight . 
a man is jumping as a crowd watches as the crowd watches . 
a young girl in a pink shirt is holding a young girl who is wearing a pink shirt . 
two men are holding a small white umbrella . 
a small child in a yellow shirt is jumping into a body of water . 
two monicyclists , one in a black shirt , one in a black shirt , one in a wooded area . 
two men on horses on a picnic table on a sidewalk . 
two men are playing basketball and one man is playing the accordion on a sidewalk . 
a man wearing a white shirt and black pants is holding a small colory of a doorway . 
a group of men in red uniforms are performing . 
the man in the middle of a white shirt and blue jeans is looking at something on the ground . 
a performer is being waving a wooded area . 
a group of children are walking down the street with a man in a wooded area . 
a man holding a large rock looking at the camera . 
a man in a black shirt playing a guitar on stage with a man in the background . 
four young children are playing with hories . 
a group of teenagers are using a moving room . 
a performer is walking down a sidewalk with a hose of a colors . 
three dogs are playing in water . 
a man is playing a guitar while a boy is playing the accordion . 
a group of three girls playing a game . 
a man is holding a microphone in a chair while holding a microphone . 
the gentlemen passenger and the activity yorn companies are being thrown the ball . 
a team of three women are sitting on a table with nets and trees . 
a group of people in white and black are playing in a field . 
a man in a white shirt is playing a white-converse . 
the chestra is in the air on a snowboarding bike with his arms raised . 
three men and a woman are walking down a street performance . 
a guy in a black hat is holding a small child in a wooded area . 
two white dogs are on a track . 
a little girl watches as she looks at the camera while the other is being pulled by the camera . 
a collectory is being helping a man in a without shirt moving a wooded area . 
two men are playing a game of uses of a man &apos;s shoulder with a broom on the street . 
two boys in white shirts on the street . 
in a black , long-sleeveless shirt , one in a white shirt and a man in a suit . 
two men in red shirts are walking past a brick building . 
two men , one in a white shirt and blue pants , are playing with a white ball in the background . 
a singer is being pulled his formed by his opponent in a red uniform . 
three people are in a park are running through a river . 
the runner in a white uniform is turning to the camera . 
several men are holding a wooded area near a table . 
two children are looking at a microscope on a street . 
three children standing next to a woman in a green shirt and blue shorts stand by a tree . 
a group of people are running . 
two women are walking and walking down the sidewalk . 
a boy sitting on a rock looking at the camera . 
a woman is standing on a bench in a grassy area . 
a woman is walking down the sidewalk in the ocean . 
a group of three men are playing a game of a rock . 
two black dog standing on a walkway . 
a boy is holding a red and yellow hoop in a body of water . 
teenagers are in a race . 
the runner is taking a picture of a man in a suit is taking a picture of a woman . 
a group of bicyclists are standing outside . 
a woman in a pink shirt is sitting in a wooded area . 
two men are sitting outside on the ground near a storefront . 
two women and a young boy are playing with a white ship . 
