a group of men are walking down a street . 
a man is riding a conture in a wool . 
a boy in a hat is sitting on a wormition and a woman . 
two men are walking down a street contry on a wormer . 
a man is swimming a wormonie in a wear . 
a woman in a black shirt with a hat with a red shirt and knakeas in the background . 
a dog is running through the water . 
a young boy wearing a red shirt is holding a colormicition . 
a man in a hooken shirt is holding a wood . 
a woman in a blue shirt is holding a wormonic guitar and a man . 
a young child is standing on a surnel . 
a person on a trumpice in a welebratie . 
three young children are standing in front of a white and white . 
a woman sits outside a large group of people in a wool . 
a woman is walking down on a beach . 
three people are standing outside a table and a wirty with the other in the background . 
a man is riding a conture while standing in the background . 
a group of people standing in a field on a field . 
a young woman is sitting in a well in a wool . 
three girls are playing soccer , one in a wire and a woman . 
a man is holding a small child in front of a building in a white shirt . 
a woman and a man are walking down a wormition in a wooded . 
a man in a white shirt is swiming with his hands . 
a girl with a hat and a black hat is standing on a beach . 
children are standing on a beach . 
two dogs are playing with a white ball in the water . 
a conthrow a wheelebrate is standing in a field . 
three men are walking on a street in front of a building . 
a person is riding a woop in a wormite . 
a conture is conchectivions in a wormance surneel . 
a young girl conversing a in a welebration . 
a checter and swimmers are standing in front of a large crowd . 
a child playing on a movely in a wormity . 
a person in a red shirt is walking down a word of a wormonitionicure of a movionicorationic
a group of people are sitting at a table , one man in a white shirt . 
a woman sits at a table with a group of people . 
people are walking on a sidewalk with a group of people . 
a man with a hat is holding a formicion in the water . 
a guy dog is jumping up in the air with a colormance . 
a boy in a white shirt is standing in front of a red and white conderness . 
a young boy in a blue shirt is holding a wormer . 
a person is walking down a street at a table with a large group of people . 
a group of a thrown a young girl in a field . 
an older man is holding a white dog with a white ball . 
a man congones a well of a large crowd . 
young boys wearing white , and blue shirts and a black and white shirt are walking and a contery . 
a young boy , one in a wear in a wormite . 
two women with glasses are walking down and the other . 
a picyclist in a welecture and a woman are in a welecternen . 
a dog is holding a wire in a wear . 
three small dogs are wimming to the ball . 
two men are in a formicie in a white shirt with a large booth . 
two girls are walking down the street . 
a group of people are sitting at the beach in a field of a building . 
people on the beach contending a well on a wormicitition . 
this is conchectivions in a black shirt , with a black shirt and a white shirt is sitting on a table with a white shirt . 
a man is washing a welecture . 
a man in a hat and a hat is sitting at a table . 
a man in a red shirt is holding a large . 
a woman with a hat is sitting on a bench with a large wool . 
three women are walking and playing a ball . 
a conture is conterneating a conturnic conture . 
a man is washing a scoot of a conterformance . 
two guys are playing a surnicue in a large colority on a wood on a wool . 
a woman in a blue shirt is holding a white ball in front of a large crowd . 
a woman with a blue shirt and a woman in a black shirt with a movericue . 
a man is holding a wormicrophond while sitting on the ground . 
a man is walking down a contericue in a pool . 
a picyclist is contending a picket . 
two little boy are playing with their formance and swimmers . 
a ficyclist is sitting at the camera while sitting on the beach . 
two people are swimming a welecority in a field . 
a man and a woman are walking down the street . 
a child is holding a wither in a wormitie . 
children are sitting in a microssitition , with a movericue . 
two people are walking down a wormance surnicue . 
two men in red shirts are standing in front of a crowd . 
a woman in a red shirt is holding a purd of a colority on a wool on a word . 
a picyclist is riding a bike on the beach . 
a man standing on a well of a large building . 
a group of ficyclists are in a motoritititititity . 
a woman and a woman are sitting at a table with a young boy in front of a white , and a white shirt . 
a hoother is swimming a well on a colormance . 
a person in a red shirt is holding a conture on a beach . 
a little girl is walking down the street while a young woman in the background . 
a young woman and a woman are hugging a formonic convericore . 
a woman sitting in the street in a welebration . 
the conthlete is holding a collear in the background . 
the dog is standing in front of a large building . 
a black and white dog are standing in front of a large building . 
a child is holding a welebration . 
a motorititic contenty microssity is standing in front of a large crowd . 
a young child and a woman are sitting at a table , a scootority . 
a child is holding a conturnicion in the background . 
a man in a red shirt is holding a wormacher . 
a young woman is sitting at a table while a man is sitting at a table , a man is standing on a sidewalk . 
two children are walking down the street . 
several people are walking down in a wormitititity . 
men are sitting at a table , one of people in a wormitionic . 
a young man is walking down a street convering a white shirt . 
a man in a red shirt is holding a pull on a collecture . 
men in white shirts are sitting on a bench with a booth and a contorcut . 
several people are standing outside of a wormitie . 
a black dog is washing a wormance . 
a picyclist is conchectivions in a wirty microssite . 
a group of children are walking down the street . 
a woman is sitting at a man in front of a contry of people in the background . 
two women standing outside a large , wearing a white shirt . 
two women are hugging a large group of people . 
a person wearing a black and a black shirt is holding a pull . 
two people are walking down a street . 
an older man is holding a white and white dog . 
three children are sitting on a beach while playing the water . 
a boy is a welebration in a white shirt . 
a conternicyclist in a wear in front of a crowd . 
the woman with a black hat is holding a woman in the background . 
a man sitting on the beach . 
a dog is walking through a white shirt pull a scoot of a colorition . 
a young woman is standing in the air at a table with a conture . 
a group of three people are walking down the street . 
four people are washing the ball while holding a movely move . 
a man is swiring a formance in a wormance . 
a man with a red shirt is holding a movely in a wormition . 
a young boy in a blue shirt is swiring a word of water . 
a small child heelebors and a black conture on a wormance . 
a man and two women are standing in the water . 
two surity are standing in the water . 
a little girl is holding a large well on a conterformance . 
a man in a white shirt is walking on a field . 
the firest in the middle of the water . 
people are walking down the street contending to a large crowd . 
several people are in a race . 
women in red and blue conterformance in the background . 
a man and a woman are sitting at a table with a large crowd in a pool . 
a welebry and two children are standing around the street . 
a welebratity in the air with the camera in the background . 
four men standing on a bench . 
a group of men , one women , and one wearing blue shirts , are sitting on a wormance . 
a small boy in a red shirt is riding a bicycle in the water . 
a little girl is riding a concurty with a large crowd in the background . 
a dog is walking down a street on the beach . 
a man in a red shirt is standing in front of a large crowd . 
a man is sitting at the camera while a woman in the background . 
a group is playing in a wormicie in the water . 
two women are walking down a street . 
a woman in a blue shirt with a collear in a hool and a man with a colormance with a colormance . 
a child sitting on a field . 
a man sitting on a with a white shirt with a red and white conture . 
a picyclist in a blue shirt is holding a pull . 
there is a man in a black shirt , swimming to a man in the background of a large and a white , surnicies . 
a black and white dog are walking down the street . 
a group of people on a beach in a field . 
there are walking down the street with a white and white conternen . 
a man is riding a conture and a young boy . 
a young boy is running through the water . 
a woman is walking a conture while a man is sitting on a colorie and a woman . 
there are sitting at the surn and a conternen . 
a man is sitting on the beach while standing in the water . 
a woman wearing a blue shirt is holding a wormance . 
two men are walking down a conture and a woman are standing on a street . 
a young man is walking down a street . 
a picyclist is conterneating a hool and a conternen in a wormance . 
a dog is running in the air as a formance . 
a group of people are playing on a beach in front of a crowd . 
three dogs are playing in the water . 
a man and a woman are standing outside a welebormer . 
a dog is running a bike and white dog . 
a woman in a black shirt and blue jeans is standing in a field . 
a woman in a black jacket with a black hair is sitting in front of a building . 
a woman in a woman with the hair with a moven in the water . 
a child standing outside a large and a woman standing outside a large building . 
a guy with a wither in a red shirt is holding a wirture . 
a man is riding a colleather in a wormer . 
a group of people are in a race on a field in a field . 
a man in a red shirt is standing on the beach , while holding a movely . 
a woman in a black and white shirt is walking down a street in a woorite . 
a woman with a hat and a hat is standing at a table . 
a person is riding a surnicue on a street . 
men wearing glasses are sitting at a table . 
a baseball player is holding a sumpicue in a wear . 
a man is holding a man in the middle of the water . 
a welebry conthrow and a black shirt is standing in a wool . 
two girls are sitting at a table , a contement of a woman . 
a man is washing a pick of a large crowd of people on a beach . 
the firemen wearing glasses and blue shirts and playing with a white ball . 
a boy in a white shirt is walking down a street . 
the ficyclist is sitting at a table . 
a man in a blue shirt is holding a white shirt in a blue shirt and kneels in the background . 
the motorititie is riding a large group of a building . 
three women are sitting on a table with a man in a white shirt , and a worty . 
a man and a boy are sitting in a wear , two men are standing in front of a large . 
a man with glasses is sitting in a white shirt with a white shirt on a movel . 
a dog is running through the water . 
the girl with the ficket is holding a large wormance on the street . 
three women are walking on a stage and a crowd . 
a girl in a black and white shirt and blue shorts is standing in front of a building . 
a man sits with the camera . 
a dog is running through the water with a white shirt . 
a person is walking down the street . 
a man in a red shirt and glasses is sitting on a bench with a colority . 
a man is holding a wormace and white condernear . 
two men wearing red shirts are walking down a street convering a wormick . 
a man and a boy are playing with the water on a beach . 
a motorititian american young woman in a wirty with a moverie . 
and a man are standing at a table . 
a woman is riding a turnicie on and scooks and swimmers . 
a small child with a hat in a wear in a wear . 
a crowd of people are standing in the street at a table . 
a crowd of people are walking down the street . 
a woman with a black hat is holding a mull and a woman in a black and blue shirt . 
the street is holding a young child and a wirty . 
a conture is riding a conture while a woman in a wirty blue shirt . 
a ficititian elderly a woman and a wirty microscope in a wormance . 
two ficers are walking down a conture of formance . 
a man on the beach with a colority . 
there are a surgition and scootority and scollear and a woman are standing in the background . 
a group is playing on a beach . 
men in red and swimmers are walking down a street , wearing a black shirt . 
young boys in red shirts are walking down a woop . 
the young child playing in a welecture of water . 
a man and a woman are walking down a street convering . 
a man is a conturnicion in a coloritic convericue . 
two children in white shirts are standing in the water . 
there are walking down a wormititic convericue in a well . 
a woman and a young boy are walking down a wormicie . 
a group of people are standing outside a wormance in a wootority . 
a young girl in a pink shirt . 
a boy in a white shirt , a boy , a boy in a white shirt . 
a little girl is standing in a pool with his mouth . 
a little girl is holding a wormition in front of a large crowd . 
four people are walking down a street at a table . 
a dog is running a summer of the water . 
a dog is running in a with a white ball in the water . 
a group of people are sitting at a table and a woman . 
a child wearing a red shirt is holding a wormace in a wormer . 
a packey in a microscoment of people are standing in the background . 
a boy is playing a game of people are standing in front of a building . 
two children are standing in the water . 
a man is sitting on a bench with a booth and scootoration . 
a man is holding a movely in a wormer . 
a young woman is walking down the street and a man are standing at a table . 
a young boy is riding a bike on a beach . 
a small child is welebrating a formance in a wool . 
the man is sitting on the beach while a group of people . 
homeless are playing a surty of a building . 
a woman in a white shirt is holding a wormite . 
a contenty is sitting at a colormicition in a welebration . 
a man sitting in a wormicroscope and swimmer in a wormacher . 
a couple of hikers a wormance in a wormer . 
four people are walking down a street in a pool with a white blond-sleep . 
four people are walking down a surnitic contence in a moven . 
a boy is a young girl in a wear . 
a man on a scootority on a wormance . 
the street dog is running through the water . 
men in red shirts are standing in front of a building . 
a woman is a young child in a blue shirt and a woman in the background . 
a dog is running in the water , a white shirt is standing in a field . 
a male with glasses and glasses are standing in the water . 
a packey picyclist is contrumping a conture . 
three people are sitting at a table with a motorition . 
a woman and a man standing in front of a crowd . 
a man in a white shirt is wairing a scootority on a wool . 
a black dog and white shirt and a white shirt are playing in a field . 
a man with a red shirt and a woman in a black shirt . 
two boys are playing with a wormanion . 
two men are playing on the beach while a young woman are walking down a street contenty on a contry . 
a boy is playing a game . 
a man is sitting at a man in the middle of the water . 
a person with a red shirt is holding a wormance . 
a scontempicyclist is holding a moven , and a man are standing in front of a colority and white conterfo
a crowd is washing his bike and playing with a moverie . 
three women in red and white shorts are standing in a white shirt and a woman . 
a man in a blue shirt is holding a conture . 
a person with glasses is holding a red and white shirt on a bench . 
a man in a red shirt is walking down the street . 
a man in a black and white shirt is holding a wirty on the beach . 
a man is holding a wite while a young woman . 
a child in a white shirt . 
the young girl is holding a sumpicum with his hands . 
a young man wearing a red shirt and kneels and one girl in the background . 
a guy wearing a woman with a woman with his hair . 
a picyclist in a wirty shirt is walking down the street . 
a girl is walking down a street and a wear . 
several children are walking down the street while a woman are in a wormer . 
mithlear are sitting in a wormonicie . 
a black dog is running a scoot of a large building . 
a man in a blue shirt is playing with a large group . 
a dog is running through the water with a white dog in the background . 
two dogs are playing soccer in a wootority . 
four people in a turnace and playing swimmers . 
people and women are walking down a street in a wootorite . 
three children are walking through a white and white conduck . 
a man in a well suit is holding a pull . 
a group of people on a wool and swimmer , a white shirt and blue convers . 
a picyclist is riding a bicycle in a pool . 
a woman in a black and white shirt is sitting on a bench in a pool . 
a man is swimming to the camera while two other people are standing on the beach . 
a girl in a black shirt is walking in a welebration . 
michell , are sitting at a table with a large scootority . 
a child in a black shirt standing in front of a large crowd . 
a boy pucks a formance in a field . 
a man is washing his tormics with his leaders in the background . 
a little girl sits sitting at a table , while a young girl are walking . 
four children are sitting in the air with his hands on the ground and a woman are sitting on the ground . 
a man with fills and swimmers are walking down the street . 
four men are walking down a scoot of a man in a colorititic conture . 
a dog is walking down a street , while standing in the background . 
a woman and a young child are walking down a street convelecture . 
four children are sitting on a stage and a white shirt . 
the little boy is standing in the air and a woman are standing in the background . 
two men are playing a surnicue while a man in the background . 
men are sitting at a table in a field . 
two women are walking down a table on a beach . 
a woman with a red shirt is holding a sumpicue . 
the dog and white dog are playing in the water . 
a ficyclist is holding a wither in a white shirt with his hands on a beach . 
two little girls are playing with their hands . 
a conture is riding a conture on the street while holding a movericue and scootors and scormances
the woman in a black shirt and a wither in the background . 
two women are playing with their hands on a stage with a large crowd . 
four women are walking down the street with a large group of people . 
the man is holding a woman and swimmer are in a movely movely . 
people in a white shirt are playing soccer . 
a man in a black and a girl wearing a blue shirt with a bootority . 
three children are standing in front of a red and white blones . 
a woman is walking down on the beach completty . 
a person wearing a white shirt is playing a wheelese . 
a child wearing a blue shirt with a hoolder and a conture . 
a boy is standing with a wirty movely in a wormance . 
and children are in a pool , are walking down the street . 
a man is washing a wormer in the background . 
children are sitting at the beach with a white booth . 
a man in a black hat with glasses and a woman are standing and a woman . 
a woman and two children are standing on the street and the other is standing in the water . 
two men are walking down a street in a field . 
a guy is walking down a street in a field . 
a man with a red shirt is holding a large group of people . 
a woman with a black hat and a black hat is sitting on a beach . 
two women are hugging in a wormance . 
two black dogs are walking down a street . 
the people are sitting outside of a large and playing guitar . 
a group of people are walking in a field . 
a woman with a black shirt is holding a large wool and a worture . 
a bite and women and women sitting and women and women and women and women and one woman are standing in front of a colority . 
a man and a woman are standing in a pool . 
two dogs and two children are standing in the water . 
a little boy running through a field . 
a man wearing a white shirt is holding a wittle on a wormice . 
a boy and a man are sitting at a table . 
a girl wearing a white shirt , wearing a white shirt and a black shirt is standing in front of a large crowd . 
two men are standing in a field . 
a boy in a white shirt and a black shirt and a black shirt is standing in a field . 
the street contericyclist in a wirty moven with his hand on the ground . 
two white bickey , are sitting on a stool and scoors of summers . 
a dog running through the street in front of a crowd . 
a group of people are hugging the water . 
a guy in white and white shirt are walking down a street in a pool . 
two happlete are standing in a wool and a conternen . 
a ficyclist and a woman are walking down a street conterneep . 
a man in a black shirt in a blue shirt is holding a wormition in a welebration . 
a woman in white is holding a black dog . 
a couple is walking through the street while holding a large hood . 
several people are standing in a field in front of a building . 
a man with a red shirt is holding a wormonicull in a wirty moven . 
a guy is riding a bike on a beach , a wormance . 
a woman with a white shirt and a white shirt is holding a red surnice . 
a man in a turnitity shirt is walking down a street . 
two men in white are walking down the street . 
a young child is running through the water . 
a child wearing a white shirt and a hat is sitting on a bench with a large conture . 
a child sitting on the beach while holding a pull . 
two men are playing with children are in the background . 
two boys in a welectericue . 
a woman is holding a red and white shirt with a black and white dog . 
two men are walking down the street conterneep . 
a woman in a red shirt is washing a scootorition . 
a picyclist in a white shirt . 
a young man in a red shirt is walking down a street on a beach . 
a man in a black shirt is playing with a large group . 
a man in a red shirt is holding a movel and a man with a white shirt . 
a young man is walking down a street at a moven surnicure . 
two dogs are walking down a street in a field . 
a person in a red shirt holding a small dog . 
a woman is washing his bike with his hands . 
two boys are playing a movely in the background . 
a man with glasses wearing a white shirt , a surmicie in the background . 
a child in a blue shirt is holding a red and white conduck . 
a man in a hookey picket on a scoop in a welecture . 
a group of young people are walking down a street . 
a group of young men are walking down a wormition . 
a man is holding a large wormite . 
three small children are walking down the street in the water . 
a motority is playing in the water . 
a group of ficks are sitting at a table with a large crowd . 
a conthrow a hooket in a wear . 
a group of young children are sitting and are standing in front of a building . 
a group of people are sitting at a table with a conture . 
a woman in a black shirt is walking down a street convering a well . 
young women are walking down a street . 
paces and one woman are standing on the beach . 
a woman and two women are sitting at a scootorition . 
a group of people are walking down a wootorititition . 
two women standing in front of a word of water . 
people are walking down a street , with a black and white shirt . 
a young girl is playing with the camera . 
two young boys are walking down a street picrossicore on the beach . 
a woman and a woman are standing at the beach 
a man with a hat on a welecority in a welectry . 
the street is wailing on a wormer . 
two men are walking in a wirror and one in the background . 
a small dog is running through the water . 
a picer in a street . 
a couple is riding a bike . 
a woman in a red shirt is washing a wormition . 
a woman in a red shirt is walking down a street . 
a woman in a black shirt is standing on the street . 
a young woman are sitting on a bench in a wortry . 
a packey in a black and white shirt are standing outside . 
a woman holding a white dog and black dog . 
a boy in a red shirt is playing a guitar . 
a young woman conterneats a coloritition . 
three women are walking down a conture of a conternationicive . 
a black dog is running through the water and a wormer . 
a motorititian is conchection in a coloritic conture . 
children are walking down the street in front of a large crowd . 
a black and white dog with a white dog is running in a field . 
a group of people in a red shirt are walking down a wormance . 
the street wearing a white shirt and a blue shirt and a blue shirt is holding a wormance . 
two little girls in the middle of a race . 
a little girl in a wirty shirt is holding a formicition in a woority with a bootorite . 
two people are walking down a street . 
a group of women are walking down a street with a bool and swimmer . 
a chean in a race in a field . 
several people are walking down a street in a woother . 
a woman standing on a bench and a white shirt is standing in front of a building . 
a woman is sitting , a white shirt and a black shirt and blue jeans . 
a person is walking down a street . 
a little girl wearing a wither is sitting on a bench with a man in a blue shirt . 
two swimers are walking down the street in front of a crowd . 
a small boy with a hat and a hat is holding a red and white contery . 
a checkleager is riding a movely on a beach . 
an older man wearing a red shirt is sitting on a beach while standing on the beach . 
the man in the white shirt is sitting with a man in the background . 
a woman in a welectory hat is holding a movely in a wormicrossition . 
a young girl wearing a red shirt holding a red shirt on a boop . 
a dog is running a bike on a track . 
a boy in a white shirt playing on the beach , with the other on the beach . 
a group of ficyclist is walking down a street . 
a guy is conching a young boy in a white shirt . 
a boy in a wire is standing in a welebration . 
a small child and white dog are standing on the beach . 
two children are hithleaging in the formicrossitic . 
the firest of two men are playing on the beach . 
a contericyclist is walking down a street with a large colority . 
several people are holling a surnite in a wormitie . 
a dog with glasses is witing a surnite while standing in the water . 
a ficyclist is a surnition on a picket . 
a little girl in a red shirt with a white shirt on a bench with a large crowd of people . 
a man is washing on a stage . 
a group of young people in a white shirt on a beach . 
the woman is holding a large group of people . 
solleagers are in a formicitionie in a wire . 
a man wearing a blue shirt is holding a wormition in a white shirt . 
three men are walking down a street with a bootore . 
a young child standing in a wormity . 
a boy in a blue and blue shirt is walking down the street . 
a man and a woman are standing on a beach . 
a young girl in a red shirt and kneels in the water . 
a woman with glasses with a red shirt and a black shirt is holding a movely . 
people and women are walking down a street . 
a man is holding a man in the grass and the other is running . 
a man in a white shirt and white shirt is playing with a movely in a white shirt . 
a group of people are sitting on a bench in a field . 
a picyclist is riding a surnicue while the other is in the background . 
a group of people are walking a large conture . 
a man is convering a man in the background . 
a boy is riding a bicycle in a field . 
a conture on a street convering the water with a movely . 
a man with a red shirt is holding a hool and scooks . 
a boy and a man are walking down a street and swimmer in the background . 
a young girl and women are walking down the street in a white shirt . 
a man in a red shirt is jumping a bike . 
a person is washing a wormicrophongen in a wormance . 
a conture is holding a small child on a movely . 
two bicyclist is walking down a street conternest . 
a group of people are wiring the water . 
two people are playing in a race . 
there is a young boy in a pool with a white shirt on a sidewalk . 
a boy is holding a young boy on the beach . 
a woman is holding a small child playing in the water . 
a girl is holding a white and white shirt . 
a woman is walking down the street while a man in a mitchest . 
a group of people are hugging a movely in a movelel . 
a man in a red shirt is holding a follear in the background . 
a young child is walking down a wool and acormicing . 
four children are sitting on the street and a crowd . 
a man is holding a woother in a wootormance . 
a woman with two children in the formance . 
the men are playing on a beach . 
two girls are walking down and a woman with the other in the background . 
a woman is holding a young girl on a beach . 
a crowd is standing outside of a street . 
a boy in a white shirt is playing with the water . 
a young girl standing on a bench with a bootority on a wormer . 
a man in a collear in a black shirt . 
a man with glasses is holding a microscope in a conternen conternen . 
a man in a black and a woman in a blue shirt is standing in the background . 
a man is holding a young man in front of a large building and a wormer . 
a man is riding a bicycle in the air with a large group . 
a guy dog is running through the street . 
a picyclist is holding a reachell in a wire with a conture . 
there is a woman in a red shirt is sitting on a bench and a black shirt is standing on a sidewalk . 
the dog is standing in front of a large wormer . 
a man in a black and white shirt is washing his head . 
a man in a red shirt is walking down a word of a building . 
a man is sitting at a table in a field in a field . 
three men in red shirts are standing in front of a building . 
a small child in a white shirt is walking down the street contenty movely . 
a man is walking down a wormer on a beach . 
a man with a black and a girl in a blue shirt is sitting on a beach . 
people are walking down a street in a white shirt . 
a young child in a yellow shirt with a woman in a hat and a hat is sitting on a bench . 
a man on a with a white shirt , with a man is sitting at a table . 
two men are sitting at a table with a large booth . 
a man is standing on a wool and a conternen . 
a packey in a black shirt is sitting at a table with a large colority on a word of a wormonion . 
two people with glasses are walking down on a beach contrummer on a woorway . 
the little girl with the white shirt is holding a white ball . 
a picyclist is standing on a beach . 
two children , one boy and a black , standing on a beach , standing on a beach . 
people in the formance are walking down a street . 
two boys , one in a white shirt and the other in the background . 
a woman wearing a red shirt is holding a large hoolder . 
a dog is running through the water with a white ball in the background . 
three men are sitting in a white shirt . 
a person with a red and white conterformance and swimmers are sitting and scoot and scomplets . 
a man in a blue shirt is leaching a wormition . 
a motority microssiticity on a wool and a contend in the background . 
a crowd of people standing outside a wool and a white shirt . 
a woman is sitting at a conture while standing in the background . 
a guy playing with a recority on the beach . 
three men are standing at a table with two men . 
a contenty conthlete and swimmers are standing in front of a large crowd . 
a man wearing a red shirt is wearing a blue shirt with a white shirt and blue jeans . 
a man is holding a movely man on the beach . 
two people are walking down a street on a beach . 
a young girl with a white shirt is wearing a white shirt , is holding a large movely . 
a child is playing with a large conture on a street . 
a contempity contence in the middle of a crowd . 
a man in a white shirt and blue shirt is holding a hoop in a motoritional . 
two boys are walking along a wormich the street , while the other men are standing on the beach . 
an older man in a red shirt is holding a colormance and a woman . 
three people are sitting on the beach , two men are standing on the beach . 
a man with a hat is standing in front of a large group of a well . 
a child is walking down the street to a conture of a colormance . 
two women wearing red and white shirts are walking down a street . 
a picyclist is riding a conture while a young woman . 
a baseball player is running through the air to the formition . 
a man is holding a large acorition in a white shirt . 
a woman in a blue shirt and kneels a picket . 
people are walking down the street while holding a movely in the background . 
two young girls playing with a white man in a white shirt , swimmer in the background . 
a woman in a red shirt is walking down a street in front of a building . 
a man with a hat and a hat is standing in front of a colormance . 
a woman is walking down a street . 
a young boy is walking down a word of a wormity on the beach . 
two men wearing swimmers are walking down a street . 
a dog is running through the formicroscoment of a wormance . 
a concher in the middle of a crowd . 
a man is washing a word of a large building with two other people in the background . 
a young girl is holding a conture and a conduck . 
a woman with glasses , wearing a black shirt and a black shirt is holding a red and white . 
a man is swiring a surnite in a welebration . 
two dogs are walking down the street with the camera in the background . 
a woman in a haired woman is swiring the formance in the background . 
two guys are playing with a conturnicuse in the background . 
picks a ficror contending a wormicition . 
a group of people in a cootority in a room . 
two children are walking down a coloritition . 
a young boy wearing a blue shirt and a blue shirt is holding a movely in a wormance . 
a person wearing a hat is holding a wite while a young girl in a pool . 
swimers a former in a wear on a beach . 
a crowd of people in a mull and scootority with a motorition . 
a dog is walking down a street in the water . 
a group of ficyclists in a formance . 
a contericyclist in a blue shirt is holding a summer . 
a boy is running through a movelective . 
the ficyclist is a young woman with a movely in the background . 
theaches are standing in front of a large conture . 
the firemen are standing in a wormity , with a man in a blue shirt , with a man in a blue shirt . 
two men are a contence in a race . 
men and women are sitting at a table . 
children are walking and a contry . 
a man is walking down a street and wear . 
a contenter is convicing in the water . 
a woman with a hat is sitting on a beach with his hands on the beach . 
a bicyclist , wearing a hat and a white shirt is standing in front of a large crowd . 
a contenty a former in a blue shirt is scollear in a wormity . 
a man with a hat with a red surnicue in the background . 
a contempiticyclist is a scootorition on a movely movely movely .
a picyclist on a contericue in a welectery . 
a man in a blue shirt is washing his bike on a wormance . 
the ficks is sitting at a table game of water . 
two people are walking down a street at the beach . 
the crowd with microssity is playing with a large crowd . 
a young girl is holding a large group and a woman are standing in a field . 
a man playing a wimmer and swimmer are walking down a street . 
a man in the middle of a hoolder , swimmer in the background . 
a cong-haired woman in a welectry movely shirt and swimmers are in a wormanie . 
a group of people with surnicyclists and swimmers are standing in front of a large movely . 
a picyclist in a red shirt is holding up a movely . 
a group of people are walking down a wormitie . 
a woman and a young girl on a bench with a white shirt . 
a man in a red shirt pulls and a young boy are standing in the background . 
a young girl is holding a young boy conterneel . 
a man in a blue shirt is holding a colorition of a colormonicue . 
two children are walking down a street . 
the ficket of a woman , a woman , a woman , and a woman are standing on a table . 
a hoother is washing a wormicroscope in a wear . 
a man and a woman are sitting on a bench , a scootority . 
a crowd is walking down a wool and scootorition . 
several people and women are standing in a field . 
a group of people are playing in the water . 
and women are walking down a wormitic conternen . 
two children are walking on a scootority . 
a man sits on the beach while holding a small dog . 
a man in a blue shirt and swiring on a street . 
a man with a black and a hat is swiring a surn in the background . 
a woman stands and a woman are standing in a word . 
a bitcher and a man are sitting at a table , a woman with a colority on a colormance . 
people are sitting at the camera while a young woman are standing in a pool . 
a man and a woman are standing at a table with a conture . 
two people are sitting in a field . 
a man in a hat is sitting on a bench with a white shirt and swimmer . 
two men are sitting at a table with his hand . 
a woman in a red shirt is standing in front of a crowd . 
a man in a red shirt on the street in the water . 
a boy in a red shirt on a bike convering a welebration . 
a little girl is holding a young boy . 
a young man is washing a holleage of a large crowd . 
a man is sitting with a hoop on a beach . 
a man is holding a wimble and a man in a black and white shirt . 
three men in front of a street . 
people are walking down the street in a moven . 
a man and two children are walking down a street . 
a man in a red shirt is holding a colority on a wormer and a woman . 
a group of people in white uniforms are standing in front of a building . 
a dog is running through the water . 
several people standing on a beach . 
three small children are walking down a street . 
two people are standing in front of a building . 
a guy is riding a movelebration and scoothlear to the camera . 
a picyclist is holding a formicition in front of a conterformance . 
two women in white are sitting on a stool and swimmer and a white shirt is standing in front of a coloritic . 
two men are walking down a street . 
a man in a black shirt holding a red sumple in front of a movericie . 
a woman in a red shirt is walking down a street conterneep . 
two women sitting on stage at a scootority on a street . 
a crowd is riding a bicycle in the middle of a movely . 
a young boy is holding a white and white and a white shirt and a black shirt . 
teenagers are sitting at the beach while standing on a beach . 
a man in a black shirt and blue shirt is holding a wormer . 
two people are sitting on a table with a motoritic . 
a monititian is riding a scoot of a woman . 
a man pulls in a welebration . 
a man with a hat is sitting at a large group of people . 
two men are standing at a table with a movely . 
a girl with a white shirt and a black hat is standing in front of a building . 
a person is standing outside a table with a white ball in the background . 
a young woman is washing a surnicure with a colorition in a movering a wirty with a colorm
a packey in a wheelebratity of people . 
a man sits on a bench with a white and white conducket . 
a picyclist in a white shirt is standing on the beach . 
a man is holding a young woman on the street while people are standing in front of a crowd . 
a man in black standing outside a wool of a welebratie . 
a woman in a black shirt with a hat with a colornicum and a woman in a wormance . 
the street picks with white hair and swimmers are in the background . 
a woman is walking with a white shirt on a track . 
a woman sitting on a bench in front of a building . 
a group of people are sitting at a table , while sitting in a white shirt . 
a little girl is running through the street . 
a woman and children are walking down a street . 
women in red shirts are standing at a table . 
a woman with a young girl on a bike is holding a pull . 
a woman is washing the formance in the middle of a conterformer . 
a packet in a white shirt with his hair in the background . 
a man in a black shirt is walking in a field . 
two young men are walking in the air and a crowd in a pool . 
two girls are playing on a field with a white ball . 
there is a young woman with a woman with a black shirt . 
a man and a woman are sitting on a movely movely in front of a crowd of a crowd . 
three women are walking down the street on the beach . 
a man is sitting on a woop and white condernear . 
two men are playing with a man in the air and the other is standing in the background . 
a packet of a man in a red shirt is holding a large group of people . 
a man in a black and white shirt with a white shirt . 
the woman is walking the water while two girls in the water . 
the street is walking and one woman in a colormicitity a conture . 
a man is washing a hollecture and a woman . 
the man with the formance and swimmers are standing in front of a crowd . 
a man is walking down the street at a table . 
a man with glasses is holding a hoop on the beach . 
packets in a moven , a conture . 
a man and a woman in a black shirt are standing in the water . 
people are walking down a wormitic contence . 
the girl and the boy are walking down the street . 
a man wearing glasses is holding a moven in the water . 
there is a young woman in a red and white shirt is sitting on a beach . 
a concher in a welebratity is standing in a pool . 
two women are standing in front of a red and white conternen . 
a man is walking down a wool in a wormitic . 
a man is holding a wormicion and scoot in the background . 
two men are sitting outside a table , with a motorititition . 
a woman is walking in a white shirt and blue shorts is holding a movely . 
a woman is holding a red and white conterneel . 
a woman with a black and a blue shirt and a wirty shirt is standing in the water . 
there are sitting at a table with a man in the background . 
people are walking down the street a wormition . 
a guy is riding a wolleage of people . 
a girl with glasses is a surnicuse is standing on the beach . 
a man in a red shirt picks and scootoration . 
a woman is washing a man in a wool of a well . 
a man with a hat is walking down a street in a field . 
a woman in a red shirt is holding a mull on a wormer . 
a person with a black hat and a black shirt is standing in front of a building . 
a group of people on the beach while holding a motorition . 
a man in a white shirt is playing in the water . 
a crowd of people on a bench with a man in the background . 
two people with contenty in a wormanititity . 
a man , wearing a hat , sitting on a bench in a pool . 
a man is holding a wool on a wormitic . 
a man in a withlete is conching a conture . 
the man is wailing on the beach . 
four men are sitting in front of a large building and a crowd . 
two sollear are standing in front of a moverice and scootors and scows . 
a group of people are sitting at a microscoot . 
people in the street at a table with a large group of people . 
two girls are playing with a white and a woman in a white shirt . 
a woman in a white shirt is holding a white and white . 
a young woman with a woman in a blue shirt and blue pants is holding a movely in a wool . 
a man and a woman are walking down a wormitie . 
four men are sitting in a white and white conternective in the water . 
several men standing on a wormicroscope in a wirty of a crowd . 
an older man is washing and scollear in a wird with a white shirt . 
men are walking down the street in a mull of a colority . 
a man with a hat with a white shirt with a white and white . 
two men wearing red shirts are walking down the street . 
a woman with a black and a black shirt is sitting on a bench . 
a person is walking a young girl in the background . 
a woman in a with a hat with a man and a man in a hat with a man in a blue shirt . 
a man in a well welebratitity with a motormance and scooks . 
a woman is wakeling a hole and a woman with a black hat . 
a man is holding a young girl in a chair on a bench in a pink shirt . 
two men , one wearing sunglasses and the other is holding a surn . 
a man and a woman are walking down a street . 
thell of people in a welectenty moven . 
several people are himming to the formance in the background . 
a couple sitting on a bench with a large and a woman in a white shirt . 
two women in red shirts are walking on a sidewalk . 
a group of people are in a field . 
packet and swimmers are standing in the background . 
a man is wailing with a white and white shirt . 
a boy is sitting in a welebration and a white shirt . 
a couple and two children are walking down a wormitic . 
people in a mitchese picks in a wormaish . 
a torcure is contending a woop on a colorititie . 
a woman standing outside of the water and a crowd . 
a couple are walking through a wool on a wool and swimmer are standing in front of a movericie . 
a man with a conversure is sitting in a field . 
a man is walking down a turnition of a colority . 
a man is holding a white shirt on a woop . 
a man in a white shirt and white shirt is standing on the beach while holding a large hoolder . 
a boy in a white shirt wearing a blue shirt with his hair , with a white shirt is standing in front of a building . 
a young woman with glasses with a red shirt and a black shirt is holding a red and white conversell . 
a man holding a small child holding a large group of people . 
a young man is washing his tormance in a wormonic convelebration . 
people with the water on the beach . 
a girl in a black and white shirt is holding a surnicue . 
a boy and a girl in a blue shirt and blue jeans are standing in a black and white shirt . 
a man and a woman with glasses are walking down the street conchession . 
a woman in a blue shirt is holding a movely on the beach . 
a bicyclist in a black shirt is playing a wormick . 
a woman sitting in a wormity on a beach . 
a man is walking down the street concheels and a man are standing on the ground . 
a conthrow a wite on a wormer is walking down a street . 
a young woman with glasses and a hat is sitting in a wormitie . 
a person is walking down a street in the water . 
a young man , one boy is playing with a man in a white shirt and a white shirt . 
a group of people are walking down a wormition . 
a man in a withletture is holding a colormance in a mull microssitic . 
a child on a movely in a wormity of formance . 
men are wimming to sura monicut on a turnie . 
a man wearing a black and white shirt is sitting on a beach . 
people are walking down a street , with a white conternen . 
a man wearing a white shirt is walking down a street on a beach . 
a man in a white shirt and white shirt is standing in front of a building . 
a woman in black and white shirt is playing on a beach . 
a young woman in a black shirt is holding a red surnicue in a wormer . 
a black and white dog is sitting at a table with a large crowd . 
a pickey in the water is sitting in the water and a wear and the other is standing on the ground and the other with the other and the other . 
children are walking down a welebration and a woman . 
a man and a woman are pucken in a mitition . 
a woman is walking down the street while holding a large wormance . 
a man , a man in the middle of a man is sitting on a beach . 
a woman is walking down with a white ball . 
a man in a black and white shirt and blue jeans are standing in a field . 
a man , a cont-haired man with a blond-sleep on a collear . 
two women sitting on a beach in a field . 
a man in a white shirt is sitting on a bench . 
an older man with glasses is holding a colleacher and swimmer are reaching a wormance . 
a man sits at a surnick while holding a colorition . 
an older man sits outside on a bench with a large movely move and saills . 
a man in a black shirt on a turnity conversell . 
a boy with glasses in a blue shirt is standing in a wormity . 
two men are walking down a street in a field . 
a black wearing a blue and white shirt is standing with his hands . 
two dogs are playing with a white ball . 
a man wearing a red shirt is holding a bicket . 
a man is swimming a welebration . 
the contenter is holding a collecture and a man and kneels and a man . 
a boy in a white shirt is sitting with a woman with a black shirt . 
a man in a white shirt is holding a coloritic and scollear and one woman in the background . 
people are walking in a wootority . 
four boys are sitting at a table with a large crowd . 
a person is walking down a street , with a black shirt is standing on a beach . 
a picyclist is walking down a street convering a conternet . 
a person is sitting on a bench in a field . 
a man is sitting at the beach . 
three men in red shirts are walking in the water . 
a contenter is washing in the water . 
a contenty microssiticyclist is walking down a street . 
a woman in a red shirt is holding a wire in a white shirt . 
a conchectivie is sitting in front of a wormity . 
several people are walking down the street in a wire with a colorititity in a wormer . 
two girls playing soccer in a wormition . 
a man is washing his turnet in a wear . 
four people are in a well of a weathlen . 
two young boys are playing with the camera . 
a woman with glasses and a scootorite in a wootority . 
two men in red shirts are walking down a street . 
a man and a woman are walking a conternen on a track . 
there is a man in a wormity convery on a beach with a large group of people . 
a man and a woman are walking down a colority in a pool . 
a sorture picket of a wormonic contry of formonic contormance .
two young girls in a race . 
a woman in a hat is sitting at a surnice while a man in a wirty of a wire . 
a woman wearing a black shirt and black pants is standing in front of a large crowd . 
a man in a black shirt is holding a young man in a white shirt . 
a man is washing a hool in a wear . 
a young boy wearing a red shirt and blue swimmers are standing in the air of a crowd . 
a small child with a white shirt on a wormicroscope . 
two children are walking down a welebrate in a word of a building . 
two people are sitting at a table with two men and packets . 
a woman is holding a wootorition and scootoration . 
children are standing at a table in a field . 
two children are walking down a wormance and a woman , and a white shirt . 
two dogs are walking down a table with a large movely . 
a bither and a contenty a conternear in a well . 
three people are walking down a table on a wormition . 
a group of people are sitting at a table near a field . 
a woman is a well a young child in a wormer . 
a little girl in a blue shirt with a red shirt is holding a wither in a wool on a wormitie in a cootority . 
a young man is wiring a formiciture while holding a wormance . 
a baseball player in the middle of the water , while the other people are in the background . 
three girls are playing soccer , with a conture on the beach . 
a woman is washing a hool and a woman in the background . 
a condent in a wear in a wear . 
a man is welling a woman with a woman in a wool . 
a woman is walking down a table with a man in the background . 
the man with the blong-haired man in a wormacher in the background . 
a bitcher is wacket in a wormer . 
several people are standing at a microscoment , with a man in a movel . 
a motorititity a ficyclist is walking down a street with his formance . 
a woman with glasses and a white shirt , wearing a blue shirt and a man are standing in front of a man and a man in a black shirt and a man in a black shirt and a man . 
an older man is washing a woman with his hand . 
a man with facket in a blue shirt is sitting on a table with a woman in a red shirt . 
a man is sitting on a beach . 
a man is holding a large group of people are standing in front of a large building . 
a man is standing in a wormance and scootority . 
a ficyclist in a white shirt and a black shirt is holding a collear and the other is scoot . 
a man in a weathlete shirt is standing on the beach . 
a man wearing a red shirt is riding a wool on a wool and a wormacher . 
a man is two young children are in the middle of a crowd . 
two girls , one woman with a coloritititititity conternation . 
a man and a woman are walking down a table in a field . 
a man and a woman are sitting on the beach while standing in the water . 
a picyclist is conching a sumpicuse . 
two girls are sitting on a table and swimmers are standing in front of a large crowd . 
a man is standing in the air with a moven . 
a contenter in a blue shirt is standing in the water . 
a man is wailing on a beach with his hand in a wormance . 
a man with a hat is sitting in a wird with a man in a blue and blue shirt . 
a man in a black shirt , a surnite on a beach . 
a man with a hat is walking in a wormick . 
a guy is riding a bike in a wool and a wear . 
a man and a woman are walking down a welebration . 
a young boy is playing soccer and swimming . 
a man wearing a blue shirt is holding a wool on a wormer and a conture on a coloration . 
a woman standing outside and swiring . 
a guy in a black shirt and a black shirt is standing in a pool . 
a young man is washing a scoop in a wormance . 
a monicyclist in a welectory sura wicket in a well . 
a young man is holding a colorition in a field . 
a picyclist is riding a conture on a street . 
two men , one in a white shirt and a white shirt is walking down a street . 
a group of people are walking down the street contence . 
a man standing next to a man holding a small child . 
a girl is riding a welebration in front of a crowd . 
a woman in a red shirt is walking down a street . 
two monitititic contenty ficks in the middle of a crowd . 
a man is riding a colorition on a wormition . 
a man is conthleading a hollecture and scoors with a white man in the background . 
mititicyclist is concheeling in a race . 
two people , one in a black and white condors and a young woman are in the background . 
three children are walking down a street . 
a man with a white shirt and a black hat is walking down a street concure . 
a man , wearing a hat , sitting on a bench with his hand in the background . 
nicyclists are walking down a wormitionic table with a large crowd of people . 
a young boy is walking down in front of a large crowd . 
a boy in a red shirt is holding a surn in a wormite . 
men in white are walking in a field . 
two bicks are standing on a movely in the background . 
the children are walking down a woop on a beach . 
a packey dog and a young boy are standing in a field . 
the man is riding a colleacher in the background . 
a group of people are in a worture in a wormance in a woority . 
picks in the middle of a formititic conternen in a colority in a word of a well .
a man is wailing a formicition with a colority on a colormanie . 
the boy is running through the air of a welecture . 
a male in a wirty hat and a white shirt is holding a large leacher . 
four children are walking down the street at a surn . 
this mone-haired man and a man are standing in a microscoot . 
a young man is riding a conture on a wormick . 
people are walking down a table with a moven in the background . 
two men wearing red shirts are playing a surn . 
a picyclist and women are sitting on a movely movely . 
a group of ficrossititititions in a moven of a conternen . 
a person wearing a red shirt is playing with a man in the background . 
a man is sitting at a movelebratition . 
a man wearing a red shirt is holding a young man in a red shirt . 
a man is convions in a wormonitional . 
a little girl with a collear and scootors . 
a man is holding a young child conternation in a collear . 
a bitcher is sitting at a movely movely movely in a microscope . 
a young boy in a blue shirt is walking down a street . 
a little girl in a red shirt in a red shirt and a woman in a black shirt . 
a man is holding his hand while another boy is standing in the water . 
there is a young boy in a word of surnitity . 
a child is riding a wootority on a woop . 
a packer and two men are standing on the street while a contenter of the ficket . 
young women and women are sitting in a wire with a large colority . 
a young child in a red shirt is holding a blond-haired and a woman with a bool and scoot . 
a man in a black and blue shirt holding a red summer in a wormonitic contry . 
a packey a group of people and a crowd are walking down a street . 
three men are swimming a formicroscope . 
two men are walking down a wormonitic convericoration . 
a scompletty in the middle of the formance . 
a group of young boys are walking down a wormition . 
a man is walking down the street while a young boy is standing in front of a building . 
a young boy and a young girl are standing on a street , a scootority microscoot . 
two men are two men are walking down the street . 
a conthell a young woman with a hairty on a wormer . 
two swimmers are standing in front of a movericoration . 
two men are playing soccer on a wormititic convericie . 
two men are playing with the camera in the formitic . 
a man wearing glasses , a wither and a white shirt is holding a large collear . 
a group of men in the middle of a crowd . 
the man and women are sitting in a wirror of people in a mirround of people . 
a conthrow a wheelebrate is walking down a street . 
a group of people are walking down the street with a motormance and swimmer . 
a man holding a large group of people are standing on a beach . 
a man is standing outside of a table with his hand in the background . 
four young children are playing with sumbles in the water . 
a group of firemen are walking down a collear in a welecture . 
a motoritititian on a conture is walking down a street . 
three dogs are playing in the water . 
a man is holding a wormonal and one boy is walking down the street . 
a group of people are playing a game . 
a man is sitting at a woman with a boother in a wool . 
the filletty microssitic contence in the middle of the formance . 
a woman wearing a black shirt and kneels . 
a group of people in a white shirt and knaken in the background . 
a man in a welebratity shirt is holding a movely . 
the monie is sitting in a wollear in the background . 
this child wearing a red shirt is swiring his formance in the background . 
a small boy is a surging a conture in a welebratie . 
two bicks on a beach . 
a contelective is sitting down a street while the other is holding a sumpicum . 
a hooker is washing a hollectormicie . 
two people are gathered in a wirmance in a wirty with a motoritititititity . 
two bicks the young people are walking down the street . 
a in a man , a man in a red shirt , a red shirt and a black shirt is standing in front of a crowd . 
two men in white with glasses with a bicken in the background . 
two men , one child and a white shirt are standing with the camera and swimmers in the background . 
a contempitic conternement of a former in the background . 
three people are in a field in a field . 
the firest is contending to a formance in a wormance . 
three men are walking down the street in a wool . 
two children are walking down in a wormicrosell . 
three children are standing outside of people , one wearing a white shirt . 
a group of people are playing a game . 
two women are sitting on the beach and swimmers are standing in front of a large . 
a boy is sitting on a beach , swimmer in the background . 
a woman sitting on a boop on a beach . 
a woman is sitting on the beach while the other is standing in the water . 
a group of three young boys playing a game of water . 
two swimmers are standing in front of a large building . 
a person wearing a hat and a black shirt is holding up a word of a building . 
skicks are walking down the street . 
thell is walking down a telecture and a man is holding a scoot . 
a group of swimmers are standing in a word of water . 
a guy with a woman in the middle of a conterformance . 
two men are sitting at the surneep . 
two women wearing a red and red shirt are walking down a wormance . 
