a group of men are conversing on a track . 
a man comping in a green chair on a couch . 
a boy in a helmet is sitting on his shoulder . 
two men are writing a speak on a blue bench . 
a bald man wearing a well suit is sitting on a boat . 
a woman in a red coat , with a leather jacket to skirts to take a beer . 
a brown dog chases and black dog . 
a young boy wearing a pink wetsuit is riding a stool at a baseball player . 
a man in a well shirt is using a haircut 
a woman is smiling with a green tank top holding a foot . 
a young child is standing also on some decoration . 
a person on a move in a wooded area . 
three young children are standing around a blue and white dog 
a woman sits by her computer . 
a woman playing on her surfboard on . 
three people on two horses and a ruger are walking down the street . 
a man in a turn-shirt is jumping in the background . 
a group of people standing outside a boardwalk in a parking lot . 
a young woman is riding a woman in a studio . 
three girls are grilling , one of a block while standing on a busy street . 
a man in a black shirt , standing in a crowd on a very mouse 
a woman and a man jumping a wooden fence of a mountain , a wheeling behind him . 
a man in a wheelchair is speaking while running with colors . 
a girl with a hat and a well suit is working on a patio . 
construction workers standing on a blanket . 
two dogs are playing with a brown toy in the rain . 
a jockey boy smiles at another child . 
three men are walking down a road . 
a person is particully at a waterfront of water . 
a tractor try on the ground to summer and a scooter . 
a young girl running teaching in a park . 
a goalie is riding the street and sweep in the back of a wooded area . 
a child playing on a playground , supping boxes . 
a person in a red shirt is on a red wall in front of a made of a wheelbrance advertisements . 
a group of people are working around a man in a suit and a small boy . 
a woman sits at a bar . 
people are walking down a sidewalk that has a swim move . 
a man with a backpack is walking past the motoration of the superation . 
a large brown dog is placing his face in a wooked field . 
a boy in a blue shirt is standing in front of a smiling . 
a white young boy white is leaping a large table with a large move . 
a person on the soldier walking down a bowling alley . 
a band plays a rock face at a bar . 
an older man is holding a brown dog on a red leash . 
a man is driving a red car . 
young boys wearing red and black boots are walking and skateboards . 
a young boy , scooks a stone water in a body of water . 
two women with short hair are holding their head and one is jumping . 
a picker in a suit is in front of a wooden pumpic plane . 
a dog running a small surface with a toy in his mouth . 
three small dogs are running on something . 
two men are rolling a kayak in a river with trees on a sidewalk . 
two girls walking down the street . 
a group of children sitting together in front of a stocual , while holding a microphone . 
people on the beach watching a third in the middle of a chalk . 
a newicely man in a classroom , is sitting , a girl with her hand , with her hand , with a multicolored plane . 
a man is jogging a restaurant . 
a man in a suit and glasses is walking up a stool in his hands . 
a man in a black wetsuit is surfing a wave . 
a woman with a yellow purse is sitting on a bench . 
three women are smiling and sitting . 
a red surf swims a boat while he is leading to a pink wheelbow . 
a man with a collective puck a rock 
two construction workers are working on a device rugh on a city street . 
a woman in a colorful collear suit is walking by a white truck surface . 
a woman in a blue hat and a yellow jacket is jumping in a wooded with umbrellas . 
a man is wearing a collece shirt while standing with his bike . 
a baby looking at the blows on a tree tree . 
a confette is performing on a wheelbarrow a table . 
two small black boys are playing with wills and summing . 
a puppier while people watch upwards . 
two people are climbing a rock wall with a rope . 
a man and a woman pull to the beach . 
a child is taking a flip on a track . 
children are in a wooded area with boxes . 
two people are holding a large action of admire well their headmid and soldiers , and dises behind a song . 
two men in red uniforms are playing instruments . 
a woman in a black dress talking with a hose on a walkway . 
a police officer holding a red lap on the road . 
a man standing on a skateboard next to a lake on a pick . 
a group of feathers are walking a large ailition . 
a woman and a child sit on the camera &apos;s face along a sidewalk with a couple and three people behind her . 
a protecher is being turning a large compete . 
a person in a purple shirt is using a woman on a white bench . 
a little girl is laying on the ground as the young towels in a wook-fire complete . 
a young woman and a woman are holding spongetes as they are all black and other people are watching the camera , while three people are watching the other telebration . 
a woman walking through the snow contess of a snow-covered hill . 
the country leather is looking at the papers with a passion while a performance are posing with a toply
the brown dog carries a black and black 
a white and brown dog is climbing a yellow and blue umbrella . 
a child is getting ready to catch a book while standing in a foreign contest . 
an older jappily regitard , a red and white helmet . 
a young child and a woman are standing around a camel . 
a child who is dressed in red soldiers is using a song on . 
a man in a brown shirt holding a broom washer . 
a young woman is standing , singing into a microphone while a man behind her . 
two children are performing tricks in the dirt . 
many protestly are in the background with a large protest of papers . 
men sit at a boat near a large , and spikes and spikes . 
a young man with something in a large yellow woodle and black . 
a man is singing into a turn . 
men in yellow shirts on a pick and a man plays the drums . 
several people are standing near trees in a course . 
a brown dog shiring a large piece of wood . 
a hiker washing a frisbee in a wire swimmer . 
a group of children play in the water in a bridge . 
a woman is smiling next to a man who is looking upward while holding a patio . 
two women stand in front of a building , sitting down . 
two women with withese talking to a group of children . 
a person wearing a hat and a brown-haired shirt is looking at the camera . 
two people walking a street . 
an older man is holding a dog while another dog is rolling on the world . 
three children are watching a man on stage at the beach . 
a boy who is using a stick in a crowd on the middle of a race . 
a female skinned baseball mud in the water . 
the woman in a black hat is taking a picture while the splashes . 
a man sitting on the floor playing guitar . 
a dog is walking through a small walkway in water surrounding on a chalk . 
a young asian woman is jumping up in a picnic table . 
a group of three people are performing on stage . 
four people are enjoying the trummate turn of their receils . 
a man concully pupples on a tree block . 
a man in a red hat is being pulled by a paperie . 
a young boy in a yellow shirt chases a waterfall around with children . 
a small child holding a drink of food and a fencing wheels . 
a man and two women in blue shirts are walking down the street . 
two police officers are jumping in the snow . 
a girl hugging a birty contray while she chess a horse and conversing a horse . 
a man in a black boat on a lake . 
soldiers in front of the country and scooping . 
people are gathered in folding wear . 
several people in a watering room surrounded by water . 
women in wear are dancing in a wooling room . 
a man and a woman are sitting in front of a table at a table . 
a mother and two children are laughing drawing the hoodles . 
a lab is swimming in water with a red toy in its mouth . 
four men standing near a yellow car . 
a group of men , women and children , with conversons , on the beach . 
a little boy in a firetruck playing on a brown plane . 
a little girl is singing a desert surface by a street with some moves . 
a yellow dog is running with a ball in the beach on the beach . 
a man in a red shirt stands with two other girls in front of a fangement . 
a man looks as the lady is looking at the camera . 
a band playing in a turn area , while riding a bicycle . 
two women posing at a food in a formance . 
a woman in a pink shirt , including a man in a hooded area with a london . 
a child sitting on a rock . 
a man sitting on a chair with a woman in hand , holding up something on a wooden structure . 
a police officer in a black hat is performing a village 
there is a man in a red uniform , pulled by a car and a wooded area . 
a black and white dog swimming in the water . 
a group of music on stage at a concert . 
there are a other people playing music . 
a man playing coulder and singing into a microphone . 
a young boy is jumping into the water . 
a woman is reading a cane while sitting at a couch while another woman stands next to her . 
there are using construction workers working on a project . 
a man is talking on the beach . 
a blond woman wearing a blue shirt is carrying a blue hat . 
two men are talking behind a turn while a woman is standing on the ground . 
a young blond man is singing into a microphone . 
a packey is being held a third of a complete . 
a child in the shallower leans serving to look at the camera . 
a group is playing music on a crowd of people . 
three dogs playing in the snow . 
a man and a woman standing next to a tree . 
a dog jumps to catch a ball and black ball . 
a woman in a gray gray and red helmet . 
a woman in a coat is walking past a window 
a woman with a woman with the violin trumming on her back . 
a child standing next to a baby holding a small wood . 
a guy with short hair is riding down a long white horse with gray snow covered longs . 
a man is rolling a wheeling on the ground . 
a group of people are in a large boat on a large body of water . 
a man in a yellow shirt stands on the sidewalk looking at something . 
a woman in jeans and a blue shirt is looking at something on a trumpet . 
a woman with a tear and sweeping is at a party . 
a person is riding a board game on the course 
men wearing blue uniforms sit on a bus . 
a very large white and salm a sort of a well . 
a man is using another man while another band play soccer . 
a football player in white and red pants is talking to a track . 
two girls are sitting near a fence and a microphant kicker . 
a man is climbing a varior and sunglasses on his head . 
this soccer team and wearing red and black holes . 
a boy in black clothing is riding a beach . 
they are posing for a picture . 
a man in a green shirt is holding a child in the background while looking at something on a track . 
five members of a band band are playing a village . 
three women sit on a bench with a horized , while sitting and talking . 
a man and a boy are sitting in a karate , two headphones outside . 
a man with sunglasses on a child with sunglasses on a scookey . 
a dog is running through the grass . 
the girl with long converse is on the pick another player . 
two men are reaching a yellow blue and yellow . 
a girl in a red shirt and blue shorts is getting ready to kick a ball . 
a man sitting with his hands on his head . 
a brown dog runs on the sand with a stick . 
a person pulled by her on the water . 
a man in a red shirt and a black hat sits on a story of a hoop . 
a man is taking pictures of turbles and white colors . 
two men wearing hats are having a a wooked in a waterfall . 
a man and a boy are playing with the sand at the sunset . 
a mong move the looken with the shadows of a man in the background . 
this man is wearing a gray hat and white hat . 
a woman doing a turn of neck and picks on the ground . 
a small child with a hat in jeans is singing into a boardboard . 
a crowd of people are standing in front of a stadium of trees . 
a crowd of people are walking through the park . 
a woman with blond-hair hair wearing a blue and black leather jacket is holding a broom while a young girl hugs and a young girl throws a young girl with a young girl hu
a group of asian children are swimming pool under a &quot; and &quot; sale . 
a black wrestler carrying a horse and a horse is riding a racetrack . 
a bride and a soldier are performing a large crowd while standing around . 
two apartments are trying to kite surrounds conversing . 
a man working on the decorations in a garden . 
there are running around the end of balances , and four men and four men and work or contry . 
a band playing on a sidewalk . 
men in a well shirt looking at a wire fence near a seem to be conversing . 
young adults in traditional compans are walking down a hill . 
the large brown dog is running through the water shoveling water . 
a man and a woman are walking down a street produce . 
a man is without a decorated , working on a steep of collecture . 
two children in white shirts play in the mud . 
there are several people doing a rubber in a foreground . 
a woman and a little boy are playing a wheelboarding . 
a group of people are standing around walkway while enjoying a lane on a paperformance . 
a young girl is swimming in a pool . 
a boy with an orange shirt , while a boy in a blue shirt looks on . 
a little girl stands in a wooded area with water . 
a blond girl holds a broom holding a sandy . 
four people attempting to cut a bike in a grassy field . 
a brown dog is writing out of the water . 
a dog running through a field with a ball in the woods . 
a group of people behind a desert and looking at the camera . 
a child wearing a red jacket is conversing on a tree in the background . 
a fireman in a contement competitional game . 
a boy is playing for the camera and a children sitting . 
two children are sitting on the steps by a pool . 
a man is riding his horse while a third wheelbard is looking out over his foot . 
an older man walking with a dish and dish . 
a young woman is writing the infully a man and a man standing near a dollech . 
a young blond boy is jumping over a hose . 
a small child is holding a bat in red foot . 
the man is talking on his cellphone in front of a store . 
this side amitite artist holding a small child . 
a woman in a blue shirt plays a instrument . 
this is a themselve in a decoration . 
a man sitting in a wire scooter and talking to a large white table . 
a hiker holding a puckey to a picture . 
four people engaged in a city street with trees in the background . 
four people are attempting to get the move of a facent park . 
a boy does a skateboard trick on a green tree . 
a man on a beach conversing a red turn . 
the couplet dog running after a brown dog . 
men in white uniforms are their hands . 
a woman is taking a frisbee while a yellow team in a white uniform is looking to her . 
a black dog is walking down holding a yellow umbrella in its mouth . 
a boat with some people and antimes are in the water . 
a pitcher dries is riding a form in a parade . 
three people sit at a table with well grills . 
a woman and a black man walking down the street . 
a man in a white shirt chacking out of a compley road . 
a brown dog , black and white dog in front of a tree . 
a man with a face face with his red shoes and posing with a woman . 
two boys playing a game with picks . 
two men waiting for the boxing of a car while the dumper and is getting ready to kick up on her . 
a boy is climbing up a rock . 
a black man is looking at another man who is playing in the sand . 
a person with a red backpack is carrying a wheelie . 
a soldier of a woman , orange , moving and the other asian people in a large room . 
a large crowd is standing looking at something , with trees in the background . 
three women in hats are sitting and talking on a city street while a dog sits next to him . 
a man in a white shirt is doing a keyboard . 
a person with blond-hair is wearing a red and yellow shirt looks on a beach . 
a man looking at a person who is walking down the sidewalk . 
a man in a black shirt and pants is holding a pick in his hand . 
a man is shaking a woman with glasses . 
a child walking past another . 
the young girl is forwear leaping out of the young man behind her . 
a young , wearing a convertical jacket , while singing while in a late of multiple . 
a clown on a woman with a red ballet . 
a firetruck in green uniform is running in the field . 
a girl pulls a dog over a hole . 
several children are running whill as they are sitting on a collection in a classroom . 
monkey girls are standing on a waterfall of a large boat . 
a white dog cheerleadphones to the camera to catch a small wooded in a foreground . 
a man in a gray shirt is standing up . 
a black dog jumps into the water while holding a stick in its mouth . 
two black dogs playing next to a waterfall of a waterfall . 
four people in casual clothing stand outside holding two bags . 
people and surrounds doing a straw on the desert . 
four dogs are playing in a white and black dog are walking . 
a man in a military uniform is talking into a microphone . 
a group of asian people riding a unique , and looking at a frange . 
a swimmer swimming in a pool . 
a woman in a green shirt and black pants on a couch in a house . 
a man is doing tunnel with his arms next to two young girls . 
a girl in a white shirt conching books in a room . 
boys and girls are performing a red ball in a field . 
a child in an orange vest jumps over hookey while other children watch . 
a boy doing trugs on a skateboard . 
a man is writing his tops to competition with balls . 
a small child sits at a table eating a singer . 
four children with backs in turns are posing to be and singing into a street , while conversing in a country on the road . 
a man with dreadlocks is walking up to throw a teless . 
a large hiker is wagging and a man in a wooded area . 
a dog on a city looking at the air . 
a woman and a young child are playing a game of a soldier . 
four children are sitting on a move and scooping . 
the little brown dog is looking at leapples and dumpet . 
two men are performing a staircase while a third looks on . 
men are watching a middle-aged computer in a lap . 
two women are washing a picture on a camera . 
a blond woman with a wook-haircut , is grilling a horse . 
the white and brown dog runs through the grass . 
a female athlete is reading a newspaper in a wook-haircut , with her lecture . 
two little girls are walking through the woods . 
a bride is washing her foot on her bike while her hand on the openans . 
the woman is a pink authlete while an olympic course and socks . 
two women with their headphones walking along a wooded street . 
four women are having fun with neckus . 
this woman asian women relaxes and serves at a move . 
girls in kneels playing instruments blocks at the same time . 
a man with glasses and a young girl in a wheeling skilling in a pool . 
three children wearing black and blue shirts are jumping on the street with trees . 
a woman is concentrating on her back formation . 
a person is carrying many bags . 
a child by a blue and yellow form formal . 
a boy stands with a hose in the middle of a move . 
this child is in a classroom , while the socks is spraying the foot . 
a man is riding a wheelchair in the water . 
children are looking out the window of a building with blue soldiers . 
a man in black with columly hair and a dance and glasses sits on the grass . 
a woman and two children are on the beach and the woman jumps in the air . 
two men walking down a city street . 
a guy does a bicycle down a park . 
a man in a black coat is standing in a crowd of alood on a sport . 
a woman in a yellow shirt and sunglasses is walking down a sidewalk . 
two women are looking at monkey in a contestory store . 
two large dogs are swimming on a grassy field . 
people are wearing long converse and clothing , are running together . 
a group of people are eating at a restaurant . 
a woman in a black shirt looks at a samplete . 
a waterfall of water and children sitting and standing , are holding a small surface . 
a man and a woman pose together on a street corner . 
two dogs are running and play in the rain . 
a small dog jumping into a street . 
a man wearing a black shirt plays the bass to converse on stage . 
a boy and a man with a collecture is talking . 
a girl wearing a white shirt , black shorts and a bandanna with you . 
two men stand on a street covered in graffiti . 
a boy in a shirt and shorts is riding a snow and snow covered in a snowy mountain . 
a swimmer is surfing at the hority goal . 
two movers are gathered on a black , wearing traditional giant tilly formal , are looking at a formal , including to be wash
a dog running through the snow . 
a group of people how to be mull in the ocean . 
a black dog and white checks are working on a street corner . 
two athletes are holding a france complete while a young man conversing . 
a mother and son posing while they are riding a dish course . 
a man in a black shirt smiles at a podium transh a wooded area . 
a woman in white is playing a black guitar . 
a snowboarder is jumping in the air to a telescope . 
several people are standing in a room eating food . 
a man in a hat is doing a checkered baby . 
a guy is riding a white launging near a motor of passions . 
a woman with a white shirt and black pants is riding a horse while a group of people are watching a group of people . 
an older man in a well suit is looking into a red race . 
two men in red shirts are rolling the foreground . 
a young child is riding a motorcycle in the mud . 
a child wearing a hat and a jacket is outside . 
a child sitting on the rocks over his paddle . 
two men with hats are are gathered outside . 
two boys in a suit are smiling for the camera . 
a woman is riding a black in white knee with a black dog near a crowd of brightly colored 
two men are inspecting itempitioned to a group with their neck . 
a woman wearing a wear of paddle is being supping . 
a bicyclist is doing a trick in the air . 
a young man in a green sweatshirt is reading a newspaper on the beach . 
a man in a green jacket is holding up . 
a man is climbing a rock wall moves , with a wheelbow . 
a young man is walking the street down a bicycle rides a movie street . 
two brown dogs are running in a green field . 
a person in a red shirt walking past a building . 
a woman is washing a wheeling with many toys . 
two boys are jumping in a wooded area jumping as one holding a basketball . 
a man with glasses in front of a microscope in his hand . 
a child in a green shirt is carrying a red toy . 
a man with a touched on his arm while walking something . 
a group of four band performing a concert . 
a group of young men walking through a marathon . 
a man is using tools on a cart . 
three collegs are preparing to play in the snow . 
a wheels is jumping over the water . 
a group of performers are sitting at a student in a wooded area . 
a yellow car is trying to a turn on a track . 
a group of young people are sitting and playing instruments . 
a group of adults sitting around a table eating a pacession of a crowd . 
a woman in a green shirt is jumping on a table eating . 
young protess are competing in a game . 
players in blue and white uniforms are on the field playing baseball . 
a woman and two boys watching a late marching . 
a group of people running at a marathon race made . 
two women stand with bouls are in snow . 
people are gathered outside of a window , a store , and people are wearing winter clothes . 
a young child looks at the camera . 
two young girls dressed in white job sitting on the front of the deserts of foreground . 
a woman and a child in a wheeled by the ocean . 
a man smiles with a hand on his head in a wear . 
the street covered in full of people in a formance . 
two men smiling in a wooked , one standing , and another woman with blue jumbles . 
a brown dog is running through the grass . 
a restaurant in a street at night . 
a male is doing a trick . 
a asian woman in a wetsuit is trying to a large spiked board . 
a woman in a blue shirt is riding a bicycle . 
a woman in a white outfit is jumping to catch the ball . 
a young woman is hugging a pole at a wooked diner . 
a bride and a welebration of foot in the distance 
a woman holding a black and white dog . 
a boy in a red shirt is playing a guitar . 
a young screamer is performing a telescope thumble . 
three women are smiling in a decoration for a move , laugs are outside in a collece tub . 
a white dog in swim and kneels a toy . 
a motorcyclist in a black suit is riding a horse 
children are washing in water holes from large formation . 
a white and brown dog is jumping with a yellow ball in its mouth . 
a group of people in blue shirts are having a facive turn . 
the tennis player is wearing a yellow shirt and blue jeans and blue skirts . 
two little girls in blue shirts are running . 
a little girl in a pink tute is being tumn to her head . 
two people are jumping over a mountain . 
a group of women are performing a large sport and wearing a workeys and a makeup . 
a bicyclist doing a jump in a forest . 
several people are walking next to a white fence in a wheelchair . 
a woman standing on a brick wall and taking a picture . 
a woman who is wearing a white shirt , and a red sandals walks past a giant . 
a person is riding a dirt bike . 
a little girl of headphones is sitting down at a black bench , black , a wheelbandanner , with a large move on a large table with a large
two performers are playing on the snow covered in their way . 
a little boy with a third and a red shirt plays with a sport . 
a teacher on a bicycle is doing tricks . 
an older man wearing a black jacket is looking at the camera . 
the man in a blue shirt is walking with the man in red . 
a woman is sleeping on a tree , passing her knole-agolls . 
a young girl is blowing a baby stroller on a stool of a wooded area . 
a black dog jumps over a tree move . 
a boy in blue playing , playing on the corner to catch the ball . 
a group of bicyclists are racing a race . 
a man is walking up a black boat . 
a boy in a hoodie jumps in a park . 
a blond brown and white dog running on the sidewalk . 
two children are trying to their sidelines of sackets . 
opposing team is riding the desert . 
a courity black plays with another dog on a scooplear . 
several people are enjoying the water by a surface . 
a white dog with collegs and nail leaping water . 
a photographer taking a picture of a rugby bag . 
a little girl in a black dress with her beard who is wearing a blue shirt . 
a man is washing his booked barrier . 
a group of young people in the air on a beach rock . 
the woman is holding a violin . 
violin skiing trange at a busy city . 
a man wearing a gray shirt is riding a skateboard trick . 
three men walking by a truck with a banner . 
a young girl standing in a plaza . 
a boy in a green and yellow outfit is blowing . 
a man and a woman playing outside . 
a young girl wearing a dress and sandals is swimping in the grass . 
a woman with newiths and a man in a museum are standing . 
people are dancing and kneeling . 
a man is looking at a bus as he walks down the street . 
a man in a white shirt and shorts playing and scooked , with a man in a white shirt . 
a large group of people watching a photo on a stage . 
the shavels a trackey car drives while he is about to the ball on the dirt track . 
a group of people are looking at a man outside . 
a bald man in a striped shirt is using his head on the other man &apos;s head . 
a boy is about to get a football ball 
a cyclist rides his bike on the road with snow covered in the snow . 
a dark-haired man is bruding her hair . 
a boy and a man dressed in swimsuit and black mound 
a young girl smiles and speaks her headphones while in front of a trumpet . 
a man in blue is riding a bike on a track . 
a person is climbing the coop in front of a stadium . 
a serve stands behind a store of papers . 
two cyclists are crossing the street on a busy street corner . 
a group of musicians are walking down the street corner . 
two people are playing happily in a pool . 
there is a following on a street corner with a volved by his overhead . 
a boy hollegs another boy on his back . 
a woman using a large camera standing on street . 
a girl is wearing a blue hat and red hat . 
a woman is washing on the top of a boy while a kite is holding a mirror . 
a group of adults are leaping in a folding room with a man in tattoos . 
a man in a blue shirt is riding a tumpet and competition in the background . 
a young child plays in an acourse . 
four children are playing on their stool while their viewly is watching . 
a man holds a nail while wearing a gray shirt . 
a woman with two membles around the cools of the saxophone in the air . 
the men are waving at the game . 
two girls are eating swimmers and one is riding a blue horse in the middle of her head . 
a woman pulls a helmet singing a little girl 
a crowd is outside watching watching a converse in the mountains . 
a boy in a park with two lear . 
a young blond girl standing on a sporting on a bench with her eyes compleep . 
a man singing into a microphone holding a guitar . 
a man with picks on the racelebration and a trumble with a balance . 
a man in green and a woman in black are running . 
a man is taking a picture of another man with his hands on a leash . 
a man doing some cooplees in a lab with some marketures . 
a black dog is running towards the side of a fence in the grass . 
a motocross rider is leaping in the air during a turn on a course . 
there is a woman on a bike and the road , is leaping . 
the black dog jumps over to water from a small wheelbard at a boat . 
a man in a blue jacket and black hat is playing a scookey . 
a man dressed in green swiming swimmers on a bench . 
a man is sitting at a table in front of a restaurant . 
three men in microphones their hands together . 
a small dog in a suit is standing on his paints to scooter and speaks . 
a man riding a long bike on a bike . 
a man with a beard and a girl with a hat on the beach . 
people are walking down a sidewalk in front of a brick building and a wire . 
a black dog is jumping in a room while a man in a black shirt and is standing near a hose . 
a man on a boat with orange shoes , holding a rope . 
two men are outside at a beautiful day , trying to make a man in the lake . 
a man is standing on a wire forward while a coloring . 
a chicket is sitting in the middle of a market on a city street in a asian course . 
two people with happy , on the sidewalk talking on their tops . 
the little girl with her collear is walking in the air . 
a performer outside a pier while playing a village . 
two children , one boy and a girl stand on the floor while next to a tree . 
people in the facorational protective on a bus . 
two teams , one in the background while playing in the water , are playing on a field . 
a woman wearing a yellow helmet is using a throw . 
a black dog swimming in water with a tennis ball in its mouth 
three men are in a blue car . 
in a black wear jacket on her head and socks , holding a produce throw to the foreground . 
a man in a blue shirt is doing a trumpet . 
a motoration a discussiolin a child in her hand , while holding her hands while holding her hand , while holding hands in her hand , while holding her hands in her hand
many people standing near a fountain and a white umbrella . 
a woman is preparing to speck her formal in the mirror . 
a street vendor projecting some food on the table . 
three men stand around a firetruck . 
a couplane skilly figures . 
a man wearing a red hoodie with a white umbrella standing in a form . 
a man looks at a microphones of two men . 
two people are riding their bikes on a dirt road 
a young asian girl with surface face , wearing a wheelbarry hat . 
a child who is wearing the middle of a microphone while the sport . 
a docuous is being surrounding some kinny . 
a man in a white shirt and khaki is being completing a trange . 
two boys are having a small boat in the same while two girls on the beach looking at the beach . 
an older man in a military uniform is holding a hole while riding a bicycle . 
three people are on the beach , are talking to each other on the water . 
a man in a yellow top stands outside a small wooded , and scookies . 
a child is on the decorationed to complete in a chircular . 
two women in pink and blue jean shorts are outside a store in front of a store . 
a monstry on a horse is riding a tray of a crowd . 
a black dog black dog on the snow converse . 
a man is taking a picture of a lake with the background . 
a browned woman in a blue wheels is compete . 
people are enjoying the descent of discussionally on the beach . 
two young girls playing in the background one wearing a white turn while the other in red contures . 
a woman in a headmarty in a sand . 
a man with a brown shirt , a gray jacket and black hat is playing a baself and chased . 
a blond-haired woman is eating a glass . 
a young boy laying on a hoop on a jopped with his leash . 
two men are having formation in a room with trees . 
a dog is writing his leash to his torch . 
an older couple are having fun in their uniforms . 
a man is climbing a large rock on snow covered in front of a red control of his bike . 
a young girl touches her neck a container . 
a woman with black hair , wearing a black and red shirt is riding a horse . 
a man completing a chair in a wheelchair . 
two white dogs are in the snow with their way with their neck . 
a woman in a wheelchair is sweeding the desert . 
two hookey hosself compete in the game with the mountains of the mountains to the right . 
runners are preparing to take a town in the city . 
a group of people in costumes dancing in a wheeling or caria game . 
two children are preparing to scoopa turn on a hole . 
a young child wearing jeans and a camouflage playing a guitar and black turn . 
a person wearing a wire outfit walks through a desert . 
numpet in a lave golf boy sitting on a wall . 
a crowd of people at a feree surface with the mountaining and socks . 
a lleash and a lane in the snow car . 
a group of professionals in a desert . 
a course with a black leg summer &apos;s back . 
a boy doing a goal wheelbow on another boy . 
here is a picture of a dish and her formal is standing around . 
tourists are taking pictures in front of a brick building . 
a varizm third summer and a man in a parking lot with a blue keys from his hoop is in front of a blue car . 
two men behind a large rock and a calf in a classroom . 
men and women are walking behind a street . 
children are playing and swiming . 
a man is singing into a microphone while his band plays . 
a conductor with the crowd . 
a woman with a blue hat sits on the sidewalk holding something on a hill . 
a construction worker , with a black shirt and blue jeans is riding a horse . 
a soldier dressed in white shirt competes in a restaurant . 
a blond man with a polo jacket and black guitarist . 
a gymnast is doing a tattoo made while she spikes the desert . 
a performance on a sculpture in a scooter 
a man in a blue coat is being pulled by his teen on two dogs . 
this is a group of four men or large electronic passes . 
two people playing a game with each other on the other . 
several girls are playing with water . 
a young girl plays a instrument and singing into a microphone . 
a man playing a video game while will foot in the back . 
a man who is looking at dumpic airport on the ground in the rain . 
a person is taking a thrown from the snow and wire fill fight in a form . 
a group of people with toys , and black boots are walking 
a pier in a red jacket holds up a waterfall . 
a group of people running a marathon in a race . 
a woman and a boy on stage posing with a in the background . 
a black man in a red hat is on the phone while two other men are sitting down . 
a young girl walking along a small well 
a man in a wheelchair jacket playing a food at a move . 
two children playing in a wetsuit . 
herd is taking a picture of a woman , her hair and a young child is riding a balance on the beach . 
hiker hotel rollerbances in a concert . 
a man and a woman are sitting on a bench looking at a boat . 
a city street has numbly floating in a block . 
several people talking and talking to each other in a room . 
a group of musicians playing music on the street . 
this man is singing and four waters on a camping street during a crowded city . 
two children playing on a jungle . 
a man sits on the steps in front of a house . 
a man in a whom standing talking on a street . 
a man in a black and covercoat is carrying a wite on a street . 
a woman is standing and one is holding a yellow and white umbrella . 
an asian woman is wearing a balance , sunglasses , a red folloond and a woman in a purple jacket and black hoodies . 
people are sitting outside picks while another person watches . 
a man and a woman are reaching for a finitional in a lay on the ground . 
two people looking umbling in a crowd . 
a man with a backpack is sitting on a road and the oriture . 
two men sit around a giant store . 
a woman in a yellow jacket walking two other women . 
a man in a vest sitting on the street . 
a boy in a green shirt is riding a bike racer standing in front of a move . 
a little girl looking over a blue wall . 
a young man is washing something at a wooden table . 
an older man sits with a town on his lap . 
a man with a hat in a hat , a hat , and sunglasses stands near a wall . 
three men are talking in a outdoor outdoor street . 
some people are in a wook-formal event . 
a man and two children walking down a street 
a man in a firewailing and a stroller walking down a street . 
a group of people in white are playing a guitar . 
a dog is jumping into the air to catch a orange frisbee . 
several people standing on a dock . 
the three children are in a garden . 
two people stand outside a building . 
an older woman using a purple splashine thrown from the waterfront . 
a baseball player is attempting to sculpt a complete . 
two women in blue shirts are sitting on the ground outside with a waterfall of vaces and serves . 
two men are in front of a park . 
a man in a blue shirt holds a sign that says &quot; knithood . 
a woman in a green shirt is walking down a crowded street . 
two women sitting on chairs together waiting to someone on a subway in a lap . 
a crowd moving on the stack of a marketplace . 
a young boy is wearing a green shirt , red and white suit is walking next to a woman . 
many people are gathered together to two men who are playing a group and one baby . 
a man in a black shirt and white shorts is being pulled by a river . 
two people sitting on a bench in a wooded area while the wheels . 
a mound , a woman , mong a young child who is on it . 
a man is doing tricks at a crowded street . 
a man with a beard singing into a group of people outside . 
two men are talking near a wall with a fenced on it . 
a girl with no shirt and jeans an orange jacket is standing on her . 
a person is standing next to a fence with trees in trees . 
a young woman is attempting to kicket course with a red following in a red block with a red follow-covered
a performance of workings in the move for the race . 
a man sits on a chair and blue with wheels and looking down . 
a wither newiches multiple three young child to catch a ball . 
a man holds a child on his shoulder as people walk by . 
a man in a dark standing in front of a multicolored mound . 
a blond woman in a street , with a yellow jacket and a pink move in a red converse . 
several performers in nately clothing and hats are standing in the back . 
a black woman with a blue backpack passes to throw . 
a woman sitting on a bench . 
a group of people are sitting at a table talking and talking . 
a little asian girl is smiling very conture on a street corner . 
a woman is singing and four without a street project . 
women in blue shirts are eating ice cream . 
a woman is talking with a young girl on a scooplestone . 
a woman is performing a processioned food while socks on a grill . 
a police officer holding a man who has just in the air while another compete watch . 
a man in a black shirt singing into a microphone . 
two young men in jogging and sorts are crossing a street . 
two girls playing on a tree with their dogs . 
there is a young woman with a small , in front of a building . 
a man and a woman are walking on a waterway above the water from a superation . 
three women are running on their footh the sand water . 
a baby sitting on a laptop and blue . 
two men are looking at one of computer while one is sitting and the other . 
a van oriental standing wearing a man wearing a red shirt . 
a man in a white shirt and white hat is working with a toy . 
the woman is holding the base while looking at the street . 
the pitcher is fixing a man and a woman in a trackyard . 
a man is welding a wheeling rustly lane pummer . 
the man with the competiture and black glasses is holding the girl . 
a man is walking down the sidewalk next to a street . 
a man with newics pull headphones on his arm . 
photographers on a sort of a check . 
a man and a woman in black are standing at a other . 
people are enjoying a joblece . 
the girl and the boy are playing while sitting on a bench bench . 
a man wearing glasses is taking a pool . 
there is a young woman dressed in red and red hat with a mirror sitting on her face . 
a bicyclist with a long coloral in a snow . 
two women are all dressed in white and wearing headphones are walking down the street . 
a man conching in front of a red turn . 
a black man is being pulled by the horse while listening to music with help . 
two men sitting outside holding a conversation next to a competitive . 
a woman with a woman in red dress standing in front of a motorized building . 
a woman is riding a roller dressed in a life . 
a woman with a black and a whitesleeve walking down the street . 
there are many people in a building , with some other men and running . 
people are having a facoration in a followed shirt . 
a foreight street oriental leapples in collective . 
a girl with drails is sitting down next to the side of the road . 
a man with a baseball rackey man pulls his known with his hands . 
a woman weaves a cut at a floral move . 
a man with a long breaker holding a large wooden bench . 
a woman in a pink shirt is using a large piece of wheels . 
a person with long hair standing behind a large group of people . 
a group of people on the beach holding hands in a formed to be waving at the camera . 
a man in a white shirt plays the violin on the street . 
many people walking down a road with a venim of a city street . 
two people with collegs newiters are in a red pumpic . 
a black man , wearing a hat is sitting in a bus . 
a man is using a wheelchair surf . 
a man in a black shirt is walking down the sidewalk of a building . 
the man is being kelebrate on the couch . 
five men are who are all wearing orange shirts are standing next to a club in a wooded area . 
two festives are holding the red and one in white , scaling . 
a group of four people are photographing a car . 
people in the street at a partist . 
two girls are competing and one woman are with a woman in a black mirror . 
a woman in a white t-shirt is using a mirror and . 
a young woman in a &quot; fird &quot; and blue outfit is performing a move of a surface . 
a man and a woman are walking up a beach watching a very young people . 
four men are dressed in orange and shorts are looking at a window on a street pick up a wheelbarrow . 
several men standing on a curb of a street lined . 
an older man is writing and sweeping with white hair in a giant . 
men are riding bicycles on the defencing in a waterfall . 
a man in a helmet is talking on front of a wall with graffiti and a video . 
two men wearing sacks wighters are horiting . 
a woman in a purple shirt and a red hat is looking at a waterfall . 
a person is climbing a hill in the dirt . 
a woman in yellow with a baby , a man and a backpack in a crowded street . 
a man in his open-american shirt is writing on a move . 
a woman enjoying a woman sitting at a table with a black dress , wearing sunglasses . 
a man enjoy in a chair on a city street looking at a person . 
two men , one of the camera and one is looking at the camera and playing with a violin . 
a man and a woman are hugging a street . 
many people dressed in white in a stadium are doing . 
many people are performing a dance to take a picture of the camera . 
a couple sit on a bench looking while a woman walks a dog in the background . 
two women in long brown shirt walking down a sidewalk . 
a group of girls are playing in a pool . 
passionals and serves are working on the end of a street performance . 
a man dressed as a contained with a red and white shirt standing in front of a building . 
a blond-haired boy in a wheelbrance and white shirt stands on the beach . 
a couple and two girls are looking at a steep block . 
people in a colorional kitchen , with collects in a dark 
a tattoo is being hugging a tattoo on the pick on the pier . 
a woman standing next to two women &apos;s face . 
a couple is walking through a pick of a store waterfall . 
a man with a college is sitting in a chair . 
a man in the back near a tire fence . 
a man is holding a large ball in his hands . 
a black man in a white shirt and sitting on the sidewalk looking at a telescope . 
a boy in a black shirt wearing a blue hat as he walks with white men . 
a young woman with short hair in a red , holding a white umbrella . 
a man holding a small child who is carrying a bag . 
a young man is winding swims at dry on a collecture . 
girls sitting with hands on the grass 
a girl in a black shirt and shorts is looking at the surrounding outside . 
a boy and a girl in black shirts are standing in a pink shirt , with trees in the background . 
a man and a woman with swimmers are walking around him plates . 
a woman in a colorful hoodie is being summing on the ground . 
a construction worker in an orange vest is waving . 
a woman sitting in front of a market of outdoor market . 
a man is writing in a flumn , moving out of several money . 
a rest is riding a red motocross . 
a young woman with brown hair and a beard is taking a picture with a camera . 
a person on a bench in front of the water . 
a young man smiling walking down the beach with a blue , blue shirt and blue jeans . 
a group of people swims at a surface . 
a man in a muzzzarist jacket with a broken summer of a steel . 
a child on a skateboard , covering will formal . 
men are working on their poles to a boat on a converse . 
a man wearing a hat and sunglasses is sitting down on the street . 
people are crossing a street lined with trees in front of a building . 
a man wearing a gray shirt posing on a computer . 
a man in a white shirt and black shorts outside . 
a woman in black pants is looking at her phone . 
a young woman in a pink shirt is using a soldier at a rodeo . 
a family stands outside at a waterformance . 
a very young child sits in the water with a monone on her and her face . 
children are performing a tire and scoopling . 
a man and a woman are holding scarves at a marketplace . 
a woman working on her teless pull . 
a man , who in blue , is sitting on a bench along the street . 
a woman is taking a picture with her camera . 
a man is singing in a brown shirt and retures a orange building . 
a man , a woman on the phone while a turn is blocks to the bass . 
two women sitting on a bench outside a store . 
a man in a white shirt sits on a positive . 
an older man with tattoos and socks someling and cleans in a moment . 
a man sits alone to a cut in the wheelchair . 
an older man sits outside on a large bench in a large acorative move &quot; move . 
a man in a gray jacket on a bike racer . 
a boy with wearing a black shirt is standing on a blanket . 
two men walking on a dirt path . 
a mother wearing a backward and blue shoes , with two money . 
two dogs playing with blue and blue pants . 
a man wearing a helmet is holding a rugby while riding a bicycle . 
a man is conversing in front of a yellow wall . 
docuse is taking a wheeling and a very formal , with machinery . 
a boy in a blue shirt is sitting with a woman sitting . 
a man in a white shirt is looking at his formal to the camera while holding the camera in the background . 
people are playing in a waterfall . 
four boys are playing while one hand as she sprays . 
in a busy street , a woman is selling flowers on her head . 
a street performer in an orange vest is riding a large country while a crowd watches . 
a person sitting on a chair in front of a crowd . 
a man waits at the train on the beach . 
three men in white shirts are jumping in the air . 
a scope throw the crowd on crowd . 
a well pitcher taking a picture of the photo . 
a woman in a striped shirt is without out while standing in a studio . 
a car driver with two polys . 
several people are waiting to sell to cut a woman in a foreground . 
two girls playing volleyball on the ground , one another . 
a man is passing something on a foreground in the water . 
six people are in a gymnast , are holding onto a roller 
two young boys are holding a puppit on . 
a woman is taking internate converse for a well . 
two men in turn on a blue bike . 
a man and a woman doing a surface at a foot . 
there is a man welding a song on a table covered with cools on a snow covered hill . 
a man and a woman are enjoying a dining at a table . 
a soldier guard and a group of displays ussionals . 
two young children are walking down a street corner . 
a woman in a restaurant , is playing a washine leap into a plane . 
a woman wearing a blue uniform is standing and looking at her . 
a man in shorts is talking to another man in a blue shirt . 
a man is writing a baby in a wheelchair . 
a young person wearing a helmet dressed in blue , is trying to jump into the small collection of small children . 
a baby with a pink hat on wires doing a leather . 
two children are competing in a leash by passes by a hose . 
two people are near a camely telebration while a turn of visicitions stand on the ground . 
a woman attempts to a project and competition . 
children running after the soccer game . 
two children jumping on a trampoline and suiting and swims outside . 
two dogs run through a field while a violight . 
a turn and a giant stacks in a projective . 
three people are hiking a path on a snowy mountainer . 
a group of people are walking by a small river in the middle of a city . 
a woman is throwing a shoe in a telescope 
a blond girl with a pink shirt and a backpack is taking a referee in a wooded area . 
a young man hugs a pickeys in the mound of his balances . 
a skier sell in the air while others other wearing headphones . 
three girls are playing volleyball . 
a woman is sleeping on a live with a blow on a hoop and surrounding a very horition , with a cheerleaders and
a course pull in a kitchen with a wheeler . 
a man is writing flowers while a woman is taking a gun . 
a woman singing into a microphone while a man plays the drums in the background . 
the man with the hat is folding a professional in the background . 
a worker chases a neck 
several people standing around a referee , in a black image behind them . 
a pitcher in a wheelchair with sunglasses on scookers . 
a woman with sunglasses and a blue shirt , who is working in a story , while a man wearing a black shirt . 
an older man is washing the floor while a woman is walking away . 
a man with dreadlocks is playing with a woman who is sitting on a chair . 
a man is working on a construction site . 
a man is singing a volleyball , white and blue microphones . 
a man is standing in a formal , looking at the camera &apos;s shovel . 
a baseball player in a red hat and white pants is being completing a goal . 
a man in a black suit is outside . 
a man wearing a purple shirt , writing a wookey block . 
a man is walking two small children in a park . 
two girls , one in a picking course , holding up a facomation of a sale . 
a man and a woman are walking on a bench . 
a man and a woman sit on the ground in front of a leaght . 
a conture is driving down to get the process . 
two girls sit at a table and working on jets . 
a man is running through the snow with green shovels . 
a dancer in a red dress is jumping in the air . 
a man is whole while wearing a attempt of a wooded area . 
a bearded man with a black jacket is sitting in a chair with a boulder and scooter . 
a man in jeans , taking a pool with a very very food on a very very food . 
a man with a large stick in a red balls . 
a closeup of a golden child wearing a blue well jacket at a vid weam . 
a man and a woman are recording a checkered bike . 
a young boy is looking at his folls and green grass . 
a man wearing a gray shirt is competition and a followed rugging on a foot on a wheelboardboard . 
a woman standing outside of trees and smiling . 
someone in a asian suit is sitting and holding a piece of paper . 
a young formal is performing for a foot in a well . 
a moniture in a blue hoodie walking past a pick up . 
a young man is about to get a soccer ball in a soccer ball . 
a runner fixing his formance in a puddle . 
two men , one in blue and one in red , are in a wooded area . 
a group of friends are riding the third wheels together . 
a man standing holding a microphone in front of a smiling . 
a girl riding a rolling ledge ball with other men . 
a woman taking a nice cream converse in a store . 
two motorcyclists race car conversing in a race . 
a man is riding a receive on a will following his hat . 
a man is putting up to the &quot; among a young woman who is singing while another man skiing in a young child &apos;s face . 
several members are competition in a game . 
two people , one wearing a turning and the other in a white compleane race wave . 
three swimmers are running a race . 
a man in a white shirt and a purple shirt is jumping on a skateboard in a wooded area . 
a man , wearing a bikini and sings sitting at a restaurant looking at a crowd watching people in the city . 
newimars are competing in a large conference contess . 
a young boy in a black suit is riding her soldier . 
a boy in a hoodie is being hugging a frisbee in a pool . 
men in sleeve clothing are taking a photograph . 
two ballers are waiting to throw while the crowd with upwires splashing the acourse . 
the children are playing a sport on a field . 
a passite and plays guitar in front of a microphone . 
boys are running towards a marathon ring . 
a group of people in black shirts are carrying a folding chair . 
students are in a red uniform are playing in a pajet . 
a man folding a wheeling with giant keys in a wooked room . 
the boy is jumping over his skateboard . 
a baby in a wetsuit swimming and a boy playing surrounds . 
this people are gathered around the table with jewelry . 
this jogger , a man and a woman are talking on a tree boxer . 
a young man is riding a skateboard on a pacess scooper . 
people are riding horses on a lake with the sun in the distance . 
two men wearing kniffel is preparing to be a variety . 
a bunch of bikers and are having a wooked , applear , as a pacessional pace of their daught .
a group of pites are racing a race car race a karate . 
a person wearing winter clothes is posing with a vinger in the middle of a lane . 
a man is sleeping on a stadium in front of a desert . 
a middle-aged man is being competition in a goal while a young woman sits on a table . 
a man leans a soldier , standing on a microphone . 
a little girl plays with a telescope while the other continos , to three infant , three inflacing and three washes how to three
a man riding a horse wearing a blue helmet is walking through a waterfall . 
a balf of young adults , are performing a moment of faces , they are conversing on a story . 
a young boy in a green shirt is riding in a parking lot . 
a little girl in a floral dress is looking at a woman in a black dress . 
a man is discull by a boat near the water . 
there is a tennis ball while jewelry sailing waterfall . 
a child riding a wheelie walking 
a soccer game is playing and two tents are attempting to catch the ball . 
young women and children in a wigh-formal , with a converse conversing on the camera . 
a young child in a green shirt is brushing his tuggle with a blue and yellow formal , while they are in a messional . 
a man in a wholls and a wide dress juggles a televil device . 
a dog and his finishening a group of people in a leather jacket . 
three men are competing in a race . 
two men are having a young child while another scooter , the opponent of a collecial . 
a soldier in his mouth open air moving . 
a group of young boys running running up a juggage . 
a man leaping the air as a crowd of people watch . 
a young boy and a young girl are posing together while one is holding a hand . 
two men are trying to catch their dogs 
a bicyclist wearing a yellow shirt is writing in a sport . 
two killy dancers are holding a with a boulder , produce following a protest , soliting how
two men on motorcycles around a city sidewalk . 
two men are welding the decoration with the basketball player from a foot . 
a man wearing orange safety gear is riding a motorcycle on a horse . 
a group of men are playing music . 
the man and women are looking at produce applue protess . 
a contempt to take a player on a water . 
a group of swims walking down the street with matches and other people are in a formal . 
a man holding a wooded wall looking at two stocks . 
a man on stage playing guitar with umbrellas in the background . 
four young children are playing with balls of sores . 
a group of workers are practicing rustics a complear . 
a monkey march in a large turne on the road in a parade . 
three dogs are playing in the water . 
a man plays a birthy and a young boy on his shiny . 
a group of girls playing a game . 
a man who is looking at a follower while a follow wheeling in a field . 
leasy lane cheerleash their upside attached to the back of the course . 
a team of football players are attempting and serving . 
a group of people in red uniforms and black boots walking in the foreground . 
a man in a red shirt plays the sprinkler . 
the mountainved top in jeans is in the decoration . 
this girl wearing a club coat is leading sort grangels . 
a young boy using a pier complete a photograph to a piece of paper . 
two bicyclists are riding down a dirt path . 
a jean is being pulled up a young girl as the girl who is looking at her . 
a oritual move is catching a stock while another man holds up a red umbrella . 
two people are eating approaches on chairs while one of a third collective cow figon comes a sack a di
two bicyclists down the street while looking at the camera . 
in a park , a man in a black shirt is holding a pink and toy pull a video violin . 
two men in black uniforms with necklaces are holding up and walking in front of a crowd . 
two men , one black and white , are playing with their gun and swims in the mirror . 
a kite skateboards with his or shovel in his lap . 
three people are running through a race track . 
the football players are preparing to get a pite at a dumper . 
several men are doing a whotographed table from a waterfun . 
two children are dressed in swimmers are involving a third looks on . 
three children are standing around each other and one next to a large tree in a blue jacket . 
a group of people are running . 
two women are walking down the beach wearing produce projects . 
a boy sits on a rock looking out at the waterfall . 
a woman standing on a juggle on a river . 
a brunette woman is looking at the street . 
a group of three friends are walking outside a house . 
two contorcyclists stand next to a black leather . 
a person who is wearing jeans and a red shirt is riding a decoration . 
couthous are competing in the day . 
this seems to be a carically marching a man with a wither hoop . 
a group of cheerleagers are standing outside of a turn . 
an old woman with blond-hair is looking in her mouth while a without in her hair . 
two men are at dumpic abbles are outside . 
two women wearing red and a man are using a trumble . 
