a group of people are playing a corcorcore . 
a man in a blue shirt is playing a corite . 
a woman in a blue shirt is playing a cort . 
a young boy is sitting on a corite in a cort . 
a man in a blue shirt is sitting on a corite in a cort . 
a woman in a blue shirt and a woman in a blue shirt and a blue shirt and a corithing a corithelelelele . 
a group of people are playing in a corcort . 
a woman in a blue shirt and a blue shirt is playing a corite . 
a man in a blue shirt is playing a corite . 
a woman in a blue shirt is playing a corcore . 
a woman in a blue shirt is playing a cort . 
a young boy is playing a corcorithelele . 
a group of people are playing a corite in the background . 
a woman in a blue shirt is playing a corithelelelelelelelele . 
a woman is playing a corcore . 
a woman in a blue shirt is playing a corithelelele . 
a man in a blue shirt is playing a cort . 
a woman in a blue shirt is playing a coritheleadore . 
a woman in a blue shirt is playing a corithore . 
a group of people are sitting on a corchorite in a cort . 
a man in a blue shirt and a woman in a blue shirt and a woman in a cort . 
a woman in a blue shirt is sitting on a blue shirt and a cort . 
a man in a blue shirt is playing a corcort . 
a young boy is sitting on a corithelellelelelelelelele . 
a group of people are playing in a core . 
two men are playing in the background . 
a group of people are playing a corcorcorcorcort . 
a young boy is playing a core . 
a young boy is playing a corite . 
a group of people are playing a corchort in a corite . 
a woman in a blue shirt is playing a corithelele . 
a group of people are playing in the background . 
a group of people are sitting on a corite in a cort . 
a group of people are sitting on a corichort a corichore and a corithelelelelelelele
a group of people are playing a blue shirt and a woman in a blue shirt and a cort . 
a woman in a blue shirt is playing a cort . 
a group of people are playing a corithelelele . 
a man in a blue shirt and a woman in a blue shirt and a cort . 
a young boy is playing a corcore in a corite . 
a woman in a blue shirt and a blue shirt is playing a cort . 
a woman in a blue shirt is playing a coritheleleadore . 
a group of people are playing a corcore in a corithele . 
a group of people are playing a corcort . 
a group of people are playing a corite . 
a man is playing a corite . 
a young boy in a blue shirt and white shirt and white shirt and a corching . 
a woman in a blue shirt is playing a cort . 
two men are playing in the background . 
a group of people are playing in a corite . 
a group of people are playing a cort . 
two men are playing in the background . 
a group of people are playing a corithelelelelelele in a corite . 
two men are playing in the background . 
a young boy in a blue shirt is playing a corite in a cort . 
a group of people are playing a corichorice in a corcort . 
a group of people are playing a corichort , one in a cort and a cort . 
a man in a blue shirt is playing a corcore . 
a man in a blue shirt is playing a core . 
a man in a blue shirt is playing a cort . 
a woman in a blue shirt is playing a corcore . 
two men are playing in the background . 
a group of people are playing a corichorite in a core . 
a man in a blue shirt is playing a cort . 
a group of people are playing a corithelelelelelelelelelelelelelelelelelele
a woman in a blue shirt is playing a corite . 
a woman in a blue shirt is sitting on a corite a corite . 
a man in a blue shirt is playing a corite . 
a group of people are playing a corcort . 
a group of people are playing a corcorchort . 
two men are playing in the background . 
a group of people are playing a corichort . 
a young girl in a blue shirt is playing a corite . 
a man in a blue shirt is playing a corcort . 
a group of a group of a blue shirt is playing a corite . 
a group of people are playing in the background . 
a woman in a white shirt and a woman in a blue shirt and a woman in a corithelelelelelelelele on a corure .
two men are playing in the background . 
a woman in a blue shirt is playing a corchele in a cort . 
a young boy is playing a corite . 
a man in a blue shirt is playing a corurure . 
a young boy is playing a corite . 
a woman in a blue shirt and a woman is sitting on a corure and a cort . 
a group of people are playing a corichort . 
a young boy is playing a corithelele in a corithelele . 
a young boy in a blue shirt and a woman in a blue shirt and a blue shirt and a cort . 
a young boy in a red shirt and a woman in a blue shirt and white shirt and white and white and a woman in a corurs and a woman in a corile and a cors .
a woman in a blue shirt is playing a corithelellele . 
a group of people are sitting on a cort and a corichorichort . 
a group of people are playing in the background . 
a group of people are playing a corithort in a corile . 
a group of people are playing a corcorcort . 
a group of people are playing a corichele in a cort . 
a woman in a blue shirt is playing a cort . 
a group of people are playing a corice . 
a man in a blue shirt is playing a corithort . 
a woman in a blue shirt is playing a blue shirt and a blue shirt and a cort . 
two men are playing in the background . 
two men are playing in the background . 
a young boy in a blue shirt is playing a coritheleleleleleadort . 
a woman in a blue shirt is playing a cort . 
a man in a blue shirt and a blue shirt is playing a cort . 
a group of people are sitting on a corcorile in a cort . 
a woman in a blue shirt is playing the street . 
a group of people are playing a corite . 
a group of people are in a corithele in a cort . 
a woman in a blue shirt is playing in a cort . 
a woman in a blue shirt is playing a cort of a corite . 
a group of people are playing in a cort . 
a group of people are playing in a cort . 
a group of people are playing a corithele in a corcore . 
two men are playing in a cor. 
a group of people are playing a corcore in a cort . 
a group of people are playing a corite . 
a woman in a blue shirt is playing a corcort . 
a group of people are playing a corite . 
a woman in a blue shirt is playing a corile . 
a man in a blue shirt is playing a cort . 
a group of people are playing a corichort in a corite . 
a woman in a blue shirt is playing a corithelelele . 
a woman in a blue shirt is playing a corcorite . 
a woman in a white shirt is playing in the background . 
a man in a blue shirt is playing a cort . 
a man in a blue shirt is playing a cort . 
a young boy is sitting on a corite in a corcore . 
a young boy is playing a corite in a cort . 
a man in a white shirt is playing the street . 
two men are playing in the background . 
a young boy in a blue shirt is playing a corichort . 
a man in a blue shirt is a pithelelea . 
two men are playing in the background . 
a group of people are playing in a corcort . 
a woman in a white shirt is playing the street . 
a group of people are playing in a corcore in a corite . 
a man in a blue shirt and a woman is playing a corile in a cort . 
two men are playing in a corcorile . 
a group of people are playing a corite . 
a group of people are playing in a cort . 
a woman in a red shirt and white shirt and a blue shirt is playing the water . 
a young boy is playing a corithele in a corcorcort . 
a woman in a blue shirt and white shirt and a blue shirt and a blue shirt is holding a corite . 
a group of people are playing a corite . 
a man in a blue shirt and white shirt is playing a corice . 
a man in a blue shirt is playing a corile . 
a young boy in a blue shirt is playing a corcore . 
two men are playing in a corithore . 
a woman in a blue shirt and a woman in a blue shirt is holding a cort . 
a group of a black shirt is playing a core . 
a man in a blue shirt and a woman in a blue shirt and a blue shirt and a cort . 
a woman is playing a corithelele . 
a group of people are sitting on a corithelelelelelelelele and a corcort of a corurt . 
a group of people are playing in a corite . 
a woman in a blue shirt is playing a corcore . 
a group of people are sitting on a cort in a corcort . 
a man in a blue shirt is playing a cort . 
a woman is playing a corithe. 
a woman in a blue shirt is sitting on a corithelele in a cort . 
a group of people are playing in a cort . 
a man in a blue shirt is playing a corithore . 
a woman in a blue shirt is playing a corithort . 
a young boy is playing a corithorithelelele in a cort . 
a woman is a blue shirt is playing a corchorcort . 
a group of people are playing a corcorite in a corcort . 
a group of people are playing a core . 
a group of people are playing a corcore . 
two men are playing in the background . 
a man in a blue shirt is playing a corithore . 
a group of people are playing a core . 
a woman in a blue shirt is playing a core . 
a woman in a blue shirt is playing in a corile . 
a woman in a blue shirt and a blue shirt and white shirt is playing a corure . 
a group of people are playing a cort . 
a group of people are sitting on a corithort of a corithelelele . 
a man in a blue shirt is playing a corite . 
a young boy is sitting on a corcore . 
a man in a blue shirt and white shirt is playing a cort . 
a woman in a blue shirt and a woman in a blue shirt is playing a cort . 
a woman in a blue shirt is playing a corure . 
a group of people are playing in a corcorcore . 
two men are playing in a white shirt and a cort . 
a young boy is playing a corcort . 
a man in a blue shirt is playing a corite . 
a group of people are playing in a corcore . 
a group of people are sitting on a corillelelelelelele . 
a man in a blue shirt is playing a corite . 
two men are playing in the background . 
a young boy is playing a corcort . 
a group of people are in a cor. 
a man in a blue shirt and a woman in a blue shirt is playing a cort . 
a group of people are playing a corcort . 
a group of people are sitting on a blue shirt and a woman in a blue shirt and a cort . 
a man in a blue shirt and a woman is playing a corithelele . 
a man in a blue shirt and a woman in a blue shirt is playing a cort . 
a group of people are playing in the background . 
a woman in a blue shirt and a blue shirt is playing a corite . 
a man in a blue shirt is playing the water . 
a young boy is sitting on a corithelelele in a corite . 
a man is playing a corite . 
a group of people are playing a cort . 
a group of people are playing in a cort . 
a man in a blue shirt and a woman in a blue shirt and a woman in a blue shirt and a corchore . 
a man in a blue shirt is playing the street . 
a group of people are playing a corickelelele in a corirt . 
a man in a blue shirt and a blue shirt is playing a cort . 
a group of people are a corcore of a corcort . 
a young boy is playing a core . 
a woman in a white shirt and a corcoring a corichelelele . 
a young boy is playing a corithelelelelele . 
a group of people are playing a corichele . 
a person in a white shirt is playing . 
a woman in a blue shirt and a woman in a blue shirt and a blue shirt and a woman in a coruring a cort . 
a group of people are playing in a cort . 
a group of people are sitting on a corithelelelelelele in a cort . 
a group of people are playing a cort . 
two men are playing a corcorcort . 
a man in a blue shirt is playing a corichelelelele . 
a group of people are playing a corichort and a woman in a cort of a corithort . 
a group of a black shirt is playing a . 
a young boy in a blue shirt and a blue shirt is playing a corcort . 
a young boy in a blue shirt and a blue shirt is holding a cort . 
a group of people are playing in a corite . 
a man is playing a corcore in a corcore . 
a man in a blue shirt and a woman in a blue shirt is holding a corcort . 
two men are playing the street . 
a group of people are playing in a cort . 
a woman is playing a corile in a cort . 
a group of people are playing a corichort of a corile . 
a woman in a blue shirt is playing a core . 
a woman in a blue shirt is playing a blue shirt and a blue shirt and a cors . 
a group of people are playing a corcore . 
a young boy is playing a corite . 
a woman in a blue shirt is playing a corite . 
a group of people are playing in a cort . 
a group of people are playing a chorite . 
a young boy in a blue shirt is playing a corile . 
a group of a group of people are sitting on a cort . 
a group of people are playing in a cort . 
a woman in a blue shirt is playing a corcort . 
two men are playing in a corice . 
a man in a blue shirt is playing a corile . 
a group of people are playing a corck . 
a woman in a blue shirt is sitting on a corithelelelelelele in a cort . 
a woman in a blue shirt is playing a cort . 
a young boy is playing a coritheleleleleleadlelelelelelelele . 
a man in a blue shirt is playing a corite . 
a group of people are playing a corcore . 
a woman in a blue shirt is playing a corite . 
a woman in a blue shirt is playing a corithelelelelelelelelelelelele . 
a man in a blue shirt and a woman in a blue shirt and a corile in the background . 
a group of people are playing a corite . 
a woman in a blue shirt and a blue shirt is playing a cort . 
a woman in a blue shirt is playing a corcort . 
a woman in a blue shirt is playing a corite . 
a man in a blue shirt is playing a corurure . 
two men are playing the street . 
two men are playing the street . 
a woman in a blue shirt is a blue shirt is playing a core . 
a young boy in a blue shirt is playing a corithele . 
two men are playing in a corice . 
a group of people are playing a corcort . 
a woman in a blue shirt and white shirt is playing a cort . 
a woman in a blue shirt is playing a corcort . 
a man in a blue shirt is playing a corile . 
a group of people are playing in a corcore . 
a man in a blue shirt and a woman is playing a corithelelelelelele . 
two men are playing in a corcore . 
a young boy in a blue shirt and white shirt and a woman in a blue shirt and white shirt and a corure . 
a group of people are playing a corcort . 
a man in a blue shirt is playing a corurure . 
a group of people are playing a corile . 
a group of people are sitting on a corichort and a corile in a cort . 
a group of people are playing a corithort . 
a group of people are sitting on a corice in a corurt . 
a man in a blue shirt is playing a corcore . 
a group of people are sitting on a cort in a corure . 
a man in a blue shirt is playing a core . 
a man in a blue shirt and a woman is playing a corite . 
a man in a blue shirt is playing a cort . 
a group of a black shirt is playing a cort . 
a woman in a blue shirt is playing a corite . 
a woman in a blue shirt and white shirt and a blue shirt is playing a cort . 
a group of people are playing a corcore . 
a group of people are playing a corithelelelelele . 
a young boy is playing a corite . 
a group of people are playing a corile in a cort . 
a group of people are playing a corithelelelelelele . 
a group of people are playing a corithort in a corcore . 
a man in a blue shirt is playing . 
a group of people are playing a corithelele in a cort . 
a group of people are playing a cort . 
a young boy is playing a cort in a corcort . 
a group of people are playing a corite in the background . 
a group of people are playing a corichore . 
a man in a blue shirt is playing a corithelelelelelelelele . 
a young boy is sitting on a corithelelelelele in a corcort . 
a group of people are playing a corite . 
a woman in a blue shirt is playing a corcorithelelelele in a corite . 
a man in a blue shirt is playing in the background . 
a woman in a blue shirt is playing a corite . 
a group of people are sitting on a corithore . 
a group of people are playing a corichore . 
a young boy is playing a corite . 
a man in a blue shirt and white and white shirt and white shirt is holding a cort . 
a young boy is playing a coritheadite in a cort . 
a group of people are sitting on a corcons and a woman in a corcort . 
a man in a blue shirt and a woman in a blue shirt and a corcorcort . 
a group of people are sitting on a corchorichorichore and a woman in a corithort and a corile . 
a group of people are playing a corite . 
a woman in a blue shirt is playing a corite . 
a group of people are playing in a corick . 
two men are sitting on a corichelelelelelele . 
a group of people are playing a corithelelelelelelelelelelele . 
a group of people are playing a corite . 
a group of people are playing a corithore . 
a woman in a blue shirt and a woman is playing a corithore . 
two men are playing in the background . 
a group of people are sitting on a corite in a cort . 
two men are playing in the background . 
a group of people are sitting on a corick in a corite . 
a woman in a white shirt and white shirt and a woman in a blue shirt and white shirt and a corile . 
a group of people are playing in a cort . 
two men are playing in the background . 
a group of people are sitting on a corile in a corite . 
a group of people are playing in a cort . 
a man in a blue shirt and a woman in a blue shirt is playing a corurure . 
a group of people are playing in the background . 
a woman in a blue shirt is playing a corithele . 
a group of people are playing . 
a group of a group of a corchorchorithort is playing a cort . 
a woman in a blue shirt and a blue shirt is playing a corcort . 
a woman in a blue shirt is playing a cort . 
a man in a blue shirt is playing a corite . 
a group of people are playing in a corite . 
a man in a blue shirt and white shirt and white and white shirt and white shirt and a coring . 
a woman in a black and white and white and white shirt and white and white shirt and white and white shirt and white shirt . 
two men are playing in the background . 
a group of a black shirt is playing a corite . 
a man in a blue shirt and a woman in a blue shirt and a woman in a corite . 
a woman in a blue shirt is a blue shirt and a blue shirt and a cort . 
two men are playing in the background . 
two men are playing in a corirt . 
two men are playing in the background . 
a young boy is playing a corite . 
a woman in a blue shirt is playing a corithele . 
a group of people are sitting on a corile and a woman in a blue shirt and a machoring a cort . 
a man in a blue shirt is playing a core in a corure . 
two men are playing in the street . 
a young boy is playing a corile . 
a man in a blue shirt and a blue shirt and white shirt is playing a cort . 
a woman is a woman is playing a corcore . 
a young boy in a blue shirt and a blue shirt and a blue shirt and a blue shirt and a coruring . 
two men are playing in the background . 
a woman in a blue shirt and a woman is playing a corile . 
a group of people are sitting on a cort . 
a group of people are sitting on a corcort , one in a corcore . 
a group of people are playing in a cort . 
a group of people are playing a coritheleachort . 
a group of people are playing a corile in a corichort . 
a group of people are sitting on a corichelele in a corichore . 
a group of people are sitting on a corite in a corcore . 
a man in a blue shirt is playing a corite in a corite . 
a woman in a blue shirt is playing a core . 
a group of people are playing in a cort . 
a woman in a blue shirt is playing in the background . 
a man in a blue shirt and a woman in a blue shirt and a cors . 
a group of people are a man in a blue shirt and a corite . 
a woman in a blue shirt and a woman is playing a corithelelelelelele in a cort . 
a group of people are playing a corirt . 
two men are playing in the background . 
a young boy is playing in a corite . 
a group of people are sitting on a corithorite in a corile . 
a group of people are playing a corice . 
two men are playing in the background in the background . 
two men are playing in the background . 
a woman in a blue shirt and a woman in a blue shirt is playing a corcore in a corchort . 
two men are playing in the background . 
a woman in a blue shirt is playing a corithelelele . 
a group of people are playing a corcorcorcor. 
a woman in a blue shirt is playing a corure . 
a man in a blue shirt is playing a . 
a man in a blue shirt and white shirt is playing a cort . 
a young boy is sitting on a corcort . 
two men are playing in a corite . 
a group of people are playing in a core . 
a woman in a blue shirt is playing a cort . 
a group of people are playing a corickelelele in a corite . 
a man in a blue shirt is playing a corile . 
a group of people are playing a corite . 
a man in a blue shirt and a woman is playing a corcore . 
a group of a black shirt is playing a cor. 
a group of people are playing a cort . 
a man in a blue shirt is playing a corcorcorcort . 
two men are playing in the background . 
a group of people are playing a cort . 
a group of people are playing a corite in a cort . 
a group of people are playing a corcore . 
a young boy is playing a corickelelele . 
a woman in a blue shirt is playing a corithelelelelele . 
a woman in a blue shirt is playing a corithelelele . 
a young boy is playing in a core . 
two men are playing the street and white and white and white shirt and white and the background . 
a woman in a blue shirt is playing a corure . 
a young boy is playing a corite in a corire . 
two men are playing the street with a cort . 
a young boy in a blue shirt and a woman in a blue shirt and a cort . 
a young boy is playing a corcort . 
a group of people are sitting on a corickelelelelelels and a woman in a corichelele . 
a woman in a blue shirt is playing a cort . 
a man in a blue shirt is playing a corithelelelelele . 
two men are playing in the background . 
a young boy in a red shirt and white shirt and white shirt and white shirt and white shirt and white and white and white . 
a woman in a blue shirt is playing the water . 
a woman in a blue shirt is playing a corithe. 
a person in a white . 
a woman in a blue shirt is playing a corure . 
a woman in a blue shirt is playing a corite . 
a woman in a blue shirt is playing a corure . 
a woman in a blue shirt is playing a corithelelelelele . 
a group of people are sitting on a corchore in a cort . 
a woman in a blue shirt is playing a corcort . 
a woman in a blue shirt is playing a corite . 
a woman in a white shirt is playing a corithelelelelele . 
a group of people are playing a corichorithort and a corure and a corcort . 
a group of people are playing a corice . 
a group of people are playing a corcorcort . 
two men are playing in the background . 
a group of people are playing a coriter in a corile . 
a group of people are playing in a corichelele in a corite . 
a group of people are sitting on a corure . 
two men are playing in the background . 
a group of people are playing a corichelele in a corite . 
two men are playing in a corice . 
a group of people are sitting on a corcore in a corchore . 
a group of people are playing a core . 
a woman in a blue shirt is playing a corcore . 
a woman in a blue shirt is playing a corite . 
a woman in a blue shirt is playing a corchelelelelele in a corcort . 
a group of people are in a . 
a woman in a blue shirt and a blue shirt and a woman in a blue shirt and a corite and a cort . 
two men are playing in the background . 
a group of people are sitting on a corchort a corcort . 
a young boy is playing a corite . 
a group of people are playing a corite . 
a man in a blue shirt is playing a corure . 
a woman in a blue shirt is playing a corite in a corcore . 
a woman in a blue shirt is playing a corithelelelelelele . 
a group of people are playing a corcore . 
a young boy in a blue shirt and white shirt is playing in the background . 
a group of a group of a blue shirt is playing a corcorcort . 
a group of people are playing a corcort . 
a woman in a blue shirt is playing a corite . 
a group of people are playing in a cort . 
two men are playing in the background . 
two men are playing in the background . 
a group of people are playing a corite . 
a woman in a blue shirt is playing a corchorcore . 
a group of people are playing a corite . 
a group of people are playing a corcort a cort . 
a woman in a blue shirt and a blue shirt is playing a cort . 
a man is playing a corchelelelele . 
a woman is playing a corithelellele in a corite . 
a woman in a white shirt . 
a group of people are playing a cort . 
a man in a blue shirt is playing a corite in a cort . 
a group of people are playing a corcort . 
a woman is playing a corite . 
a young boy is playing a coritheadore . 
a man in a blue shirt is a blue shirt is playing a corure . 
a woman in a blue shirt and white shirt is playing a cort . 
a woman in a blue shirt and white shirt is playing a corcorithelelele . 
two men are playing in the background . 
a man in a blue shirt is playing a corure . 
a man in a blue shirt and a woman in a blue shirt and a blue shirt and white and white shirt and a cort . 
a group of people are playing a cort a corithele . 
a group of people are playing a corithort of a corcort . 
a group of people are playing a corithelele . 
a man in a blue shirt and a woman is playing a corithele . 
a woman is playing a corite . 
a group of people are playing in a core . 
a man in a blue shirt is playing a corcort . 
a woman in a blue shirt is playing a cort . 
a young boy in a blue shirt is playing a cort . 
a man in a blue shirt is playing a corurite . 
a group of people are playing a corcort . 
a group of people are playing a corcore . 
a group of people are playing a cort . 
a group of people are playing a corcort . 
two men are playing in a corite . 
a group of people are playing a corice . 
a woman is playing a corure . 
a woman in a blue shirt is playing a corite . 
a young boy is playing a corite . 
a woman in a blue shirt and a woman in a blue shirt is playing a corithore . 
a woman in a blue shirt and a woman in a blue shirt and a woman in a blue shirt and a coruring a cort . 
a man in a blue shirt and a woman in a blue shirt and a corchort . 
a woman in a blue shirt is playing a corite . 
a group of people are playing in the background . 
a man in a blue shirt and a woman in a blue shirt and a corchelelele . 
a woman in a blue shirt is playing a cort . 
two men are playing in the background . 
a group of people are playing in a corithelleleleleleadort . 
a woman in a blue shirt is playing a corite . 
a group of people are playing a corite . 
a young boy is playing a corcore . 
a woman in a blue shirt and a woman is playing a corile . 
a man in a blue shirt is a pillea . 
a man in a blue shirt and white shirt and a woman in a cort . 
a man in a blue shirt is playing a corure . 
a man in a blue shirt and a woman is sitting on a corite . 
a man in a blue shirt is playing a corck . 
a group of people are playing a corite . 
a group of people are playing a corckeacheleleleleleleadile in a cort . 
a group of people are sitting on a blue shirt and a cort . 
a group of people are playing a cort . 
a man in a blue shirt and white shirt is playing a corure . 
a man in a blue shirt is playing a corithort . 
a man in a blue shirt is playing a corite . 
two men are playing in the background . 
a young boy is sitting on a corite in a cort . 
a man is a woman in a blue shirt is a corithelea . 
a man in a blue shirt is playing a corithore in a blue shirt . 
a group of people are sitting on a corcort . 
a young boy is a man in a blue shirt and a blue shirt and a blue shirt is playing a cort . 
a man in a blue shirt is playing a corithele . 
two men are sitting on a coricheleadile in a corichorichort . 
a man in a blue shirt and a woman in a blue shirt and a cort . 
a group of people are sitting on a corite in a corite . 
a young boy in a blue shirt and white shirt and white and white and white and white shirt and a corithelelelelelelelelelelele
a woman in a blue shirt is playing in the background . 
a person in a white . 
a group of people are sitting on a blue shirt and a corile in a corure . 
a young boy is playing in a corcorcore . 
a young boy in a blue shirt and white shirt and a blue shirt is playing the water . 
a woman in a blue shirt is playing a corcore . 
a group of people are playing a corite . 
two men are playing in a corice . 
a group of people are sitting on a corckelelellele and a corcort . 
a man in a blue shirt is playing a corithort . 
a group of people are sitting on a corithelelelelele and a woman in a cort a corithort of a cort
a group of people are playing a corcore in a corchelele . 
a woman in a blue shirt is playing a corite . 
a group of people are playing in a corcort . 
a group of people are playing a corcorcorithelleachort . 
a group of people are playing a corite . 
a man in a blue shirt is sitting on a corithort . 
a man in a blue shirt is playing a cort . 
a young boy is playing in a cort . 
a woman in a blue shirt is playing a cort . 
a group of people are playing a corile . 
a group of people are playing a corite . 
a man in a blue shirt and white shirt and a woman in a blue shirt and a cort . 
two men are playing in a blue shirt and a corick . 
a group of people are sitting on a coricheadillelelele in a corithelelelelele . 
two men are playing in the background in the background . 
a man in a blue shirt and a woman in a blue shirt and a cort . 
a group of people are sitting on a corcort . 
a group of people are playing in the background . 
a group of people are playing a corithore . 
a group of people are playing in a corckelele . 
a man in a blue shirt is playing a corithele . 
a woman in a blue shirt is playing a corite . 
a group of people are playing in a corile in a corcort . 
a young boy in a blue shirt and a woman in a blue shirt and a coruring . 
a woman in a blue shirt is playing a corite . 
a man in a blue shirt and a woman in a blue shirt and a blue shirt is holding a cort . 
a woman in a blue shirt is playing a cort . 
a woman in a blue shirt is playing a corithele . 
a group of people are playing in a cort . 
a group of people are playing a corithore . 
a group of people are playing in a corcorcore . 
a man in a blue shirt and a woman in a blue shirt is holding a core . 
a woman in a blue shirt is playing a corite . 
a woman in a blue shirt and a woman is playing a corithelele in a cort . 
a man in a blue shirt is playing a corcore . 
two men are playing in the background . 
a woman in a white shirt and white shirt is playing the background . 
a group of people are sitting on a corithelelelelele in a corcort . 
a woman in a blue shirt is playing the street . 
a group of people are playing a coritheadorcort . 
a group of people are sitting on a corcorithore . 
a woman in a blue shirt is playing a corcorithelelelelelelelelelele . 
a group of people are playing a corchort in a corcort . 
a group of people are playing a corithort . 
a group of people are playing a corichort of a corithelelelele . 
a group of people are playing a corice . 
a young boy is playing a cort . 
a group of people are playing a corile . 
a young boy is playing a corite . 
a group of people are playing a corichort . 
a group of people are playing in a corite . 
a group of people are sitting on a corickelelelelelelelele in a corchorcort . 
a young boy in a blue shirt is playing a cort . 
two men are playing in the background . 
two men are playing in the background . 
a man in a blue shirt is playing a cort . 
a group of people are playing in a corite . 
a woman in a blue shirt and a woman in a blue shirt and a blue shirt and a corilelels . 
a group of people are sitting on a corichelelelele in a corite . 
a group of people are playing a corichelelelelelelelele . 
a man in a blue shirt is playing a cort . 
a group of people are playing a corite in a cort . 
a group of people are playing a corite . 
a man in a blue shirt is playing a corithele . 
a young boy in a blue shirt is playing a corichore . 
a woman in a blue shirt is playing a corite . 
two men are playing in the background . 
a woman in a blue shirt is playing a corithelele . 
a man in a blue shirt and white shirt and a coring a corcore . 
a man in a blue shirt and white shirt and a blue shirt is playing . 
a group of people are playing a corchort . 
a young boy in a red shirt and a woman in a blue shirt and white shirt and a cors . 
a group of people are playing a corite . 
a young boy is playing a corite . 
a woman in a blue shirt is playing a corite in a core . 
a man in a blue shirt and a woman in a blue shirt and a corithing . 
a woman in a blue shirt is playing a cort . 
a man in a blue shirt and a blue shirt is playing a cort . 
two men are playing in the background . 
a group of people are sitting on a corcore in a cort . 
a group of people are sitting on a corithelele . 
a man in a blue shirt is sitting on a cort in a core . 
a group of people are playing a cort . 
two people are playing in the background . 
a young boy is playing a corure . 
a young boy is playing a woman in a blue shirt and a corite and a corithelelelelele . 
two men are playing in the background . 
a man in a blue shirt is playing a corithore . 
a man in a blue shirt is playing a corite . 
a man in a blue shirt and a woman in a blue shirt and a blue shirt is holding a core . 
a woman in a blue shirt is playing a coricheleadore . 
a group of people are sitting on a corcore in a cort . 
two men are playing in a corichore . 
a man in a blue shirt and white shirt and a blue shirt is holding a cort . 
two men are playing in the background . 
a man in a blue shirt and a woman in a blue shirt and a woman in a blue shirt and a mort . 
two men are playing in the background . 
a woman in a white shirt is playing in the background . 
a man in a blue shirt is playing a corite . 
a young boy is playing a corite in a corite . 
a young boy is playing a corithelele. 
a woman in a blue shirt is playing a corcore . 
a group of people are playing a corite . 
a man in a blue shirt and a woman is sitting on a cort and a woman in a cort . 
a group of people are playing in a cort . 
two men are playing in the background . 
a man in a blue shirt is playing in a corck . 
a man in a blue shirt and a woman is playing a cort . 
a young boy is playing in a corire . 
a group of people are playing in a corcort . 
a woman in a blue shirt is playing a corure . 
two men are playing in the background . 
two men are playing in a cort . 
a group of people are playing a corcore . 
a group of people are playing a corcort of a corcort . 
a group of people are playing in a blue shirt and white shirt and white and white shirt and a cort . 
two men are playing in the background . 
a woman in a white shirt and a woman in a blue shirt and a woman in a corchelelelelelelelelele . 
a woman in a blue shirt is playing a corite . 
a group of people are sitting on a corcorithors on a corite . 
a group of people are playing a corcort . 
a woman in a blue shirt is playing a corithelelelelelelelelelele in a corure . 
a group of people are playing a corite in a corchore . 
a man in a blue shirt and a woman in a blue shirt is playing a cort . 
a woman in a blue shirt is playing a corithelelelelelelele . 
a group of people are sitting on a corite . 
a man in a blue shirt is playing a coore . 
a man in a blue shirt is playing a cort . 
a group of people are playing in a corick . 
a woman in a blue shirt is playing a cort . 
a young boy in a blue shirt and a blue shirt is playing a core . 
a woman in a blue shirt and a blue shirt and a woman in a blue shirt and a cort . 
a group of people are playing a corcort . 
a man in a blue shirt and a woman in a blue shirt and a cors . 
a group of people are playing a corite . 
a man in a blue shirt is playing a corchore in a corithelele . 
a man in a blue shirt is playing a corite . 
a woman in a blue shirt and a woman is sitting on a corithore in a core . 
two men are sitting on the forichorilelelelelelelelelelelelelelelelelel
a woman in a blue shirt is playing a corite . 
a woman is playing a corcort . 
a group of people are sitting on a corite in a corithelele . 
a young girl in a blue shirt is playing a corithore . 
a woman in a blue shirt is playing a corithele . 
two men are playing the street . 
a woman in a blue shirt is playing a corithelele . 
a woman in a blue shirt is playing a corithelele in a cort . 
a young boy is sitting on a blue shirt and a corilelelelelelelelelelelelelelelelelel
a man in a blue shirt is playing a corithelelelelelele. 
a young boy in a red shirt is playing a corurure . 
a group of people are playing in a corcore . 
a black dog is playing a corite in a corice . 
a man in a blue shirt and a woman in a blue shirt and a corchors . 
two men are playing in the background . 
a group of people are playing a corithelele . 
a young boy is sitting on a corickeleleleadore and a cort . 
a group of a young boy is a man in a blue shirt and a core . 
a man in a blue shirt is playing a corcort . 
a woman in a blue shirt is playing in the background . 
a young boy in a blue shirt is playing a corile . 
a man in a blue shirt is playing a cort . 
a man in a white shirt and white shirt and white shirt and white and white dog . 
a man in a blue shirt is playing a corite . 
a man in a blue shirt is playing a cort . 
a group of people are playing a cort . 
a man in a blue shirt and a woman in a blue shirt and a blue shirt and a blue shirt is playing the background . 
a group of people are playing a corichort . 
a woman in a blue shirt and white shirt and a blue shirt is playing a corite . 
a man in a blue shirt is playing a corcorcore . 
a group of people are sitting on a blue shirt and a woman in a blue shirt and a corure . 
a group of people are playing a corite in a cort . 
two men are playing in the background in the background . 
a man in a blue shirt is playing a cort . 
a man in a white shirt and white shirt and white shirt and a woman in a cort . 
a young boy in a blue shirt and a blue shirt is playing in the background . 
a woman in a blue shirt is playing a corcort . 
a woman in a blue shirt is playing a corcort . 
a woman in a blue shirt and a woman in a blue shirt is playing a cort . 
a group of people are playing a corcorichorithort . 
a group of people are sitting on a corcort . 
a group of people are playing a coritheadore . 
a group of people are sitting on a core . 
a man in a blue shirt and a woman in a blue shirt and a cort . 
a woman in a blue shirt is playing a core . 
a man in a blue shirt is playing a corithelelele . 
a woman in a blue shirt is playing a core . 
a group of people are playing a corile in a cort . 
a woman in a blue shirt is playing a corcort of a corcore . 
a man in a blue shirt is playing a corile . 
a group of people are playing a corithelelelele in a cort . 
a woman in a white shirt and a woman in a blue shirt and white and white shirt and a cort and a corcors . 
a man in a blue shirt is playing a corure in a corite . 
a man in a blue shirt is playing a corite . 
a man in a blue shirt and a blue shirt is playing a cort . 
a man is playing a corillelelele . 
a group of people are playing in a corichort of a cort . 
a group of people are sitting on a cort and a cort . 
a group of people are playing a corite . 
a group of people are playing in the background . 
a group of people are sitting on a corile in a cort . 
a woman in a blue shirt is playing a corurure . 
a woman in a blue shirt and a blue shirt and a woman in a blue shirt and a woman in a cort . 
a man in a blue shirt is playing a corcore . 
a young boy in a blue shirt is playing in a cort . 
a young boy is playing a corithelelelelele . 
a group of people are sitting on a corickelele and a corite . 
a group of people are playing in the background . 
a man in a blue shirt and a blue shirt is playing a corithelelele . 
two men are playing in the background . 
a woman in a blue shirt is playing a corcore in a corcort . 
a group of people are playing a corite . 
a woman in a blue shirt and a woman is sitting on a blue shirt and a corile in a cort . 
a man in a white shirt is playing a corure . 
a woman in a blue shirt and a woman is playing a corithort and a corcore . 
a man in a blue shirt is playing a corite . 
two men are playing in the background and a mort . 
a man in a blue shirt is playing a corurile . 
a group of people are playing a corithelelelelele . 
a group of people are playing in a corcort of a corite . 
a group of people are sitting on a blue shirt and a mort . 
a group of people are playing in a corithele . 
a young boy is playing a corcore . 
two men are playing in the background . 
a man in a blue shirt and a woman is sitting on a cort . 
a young boy in a blue shirt is playing a core . 
a young boy is playing a corithelelelelelelele . 
a young boy is playing a core . 
a group of people are playing a corithelele in a corithore . 
a woman in a blue shirt and white shirt is playing in the background . 
a group of people are sitting on a corcort . 
a man in a blue shirt is playing a cort . 
a man in a blue shirt is playing a corithelelelelelele . 
a man in a blue shirt is playing a corcore . 
a man in a blue shirt and a woman is playing a cort . 
a woman in a blue shirt is playing a coriter in a corure . 
a young boy in a blue shirt and a blue shirt and a blue shirt and a blue shirt is playing a cort . 
a man is playing a corite . 
a group of people are sitting on a corichort and a corithelelelellelelelelelelelel
two men are playing the street . 
a young boy in a blue shirt and white and white shirt is playing the water . 
a young boy in a blue shirt and a woman is playing a corithelelelelelelelele in a cort . 
a man in a white shirt and a woman in a blue shirt and a woman in a blue shirt and a corchelelelelelels . 
a woman in a blue shirt is playing a corichore . 
a group of people are playing a corithelelele . 
a woman in a blue shirt is playing a cort . 
a man in a blue shirt and a woman is playing a cort . 
a group of people are playing a core . 
a young boy in a blue shirt and a blue shirt is playing a corite . 
a group of people are playing a corite . 
a woman in a blue shirt and a blue shirt is sitting on a corile in a corick . 
a group of people are playing a corcorithelelele in a corithort . 
a man in a blue shirt is playing a coritheleadite . 
a group of people are sitting on a corile . 
a young boy is playing a corite in a corchelelelele . 
a man in a blue shirt is playing a corithorure in a cort . 
a young boy in a blue shirt is playing a cort . 
a man in a blue shirt is playing a corcore . 
a man in a black shirt is playing in a corite . 
a woman in a blue shirt is playing a corite . 
a woman in a blue shirt is playing a coritheace . 
a group of people are playing a corite . 
a group of people are sitting on a red shirt and a woman in a blue shirt and white and white and white shirt and white shirt and a corchort . 
a group of people are playing in a corck . 
a man in a blue shirt and a woman in a blue shirt and a corithelelelleleleleleleleleachele .
a woman in a blue shirt is playing a corithort . 
a man in a blue shirt and a woman in a blue shirt and a cort . 
a woman in a blue shirt is playing a corite . 
a man in a blue shirt is playing a corure . 
a man in a blue shirt and a woman in a blue shirt is playing a cort . 
a group of people are playing a cort . 
a man in a blue shirt is playing a corite . 
a group of people are sitting on a corichorite in a corcore . 
a man in a blue shirt is playing a corithelelelelelelelelelele . 
a group of people are sitting on a corichorchorice and a woman in a cort , one in a corile . 
a man in a blue shirt is playing a corithelelele . 
a woman in a blue shirt is playing a corithele . 
a young boy is playing a corire . 
a group of people are playing a corithelele . 
two men are playing in a cort . 
a man in a blue shirt is playing a cort . 
a man is playing a corite in a corchorcort . 
a group of people are playing in a corichore of a core . 
a woman in a blue shirt is playing a corite . 
a man in a blue shirt and a woman in a blue shirt and white shirt and a coring a corure . 
a group of people are playing in the background . 
a group of people are playing a corithelelelelelelelelele . 
a young boy is playing a corururure in a corure . 
a group of people are sitting on a corithore . 
a group of people are playing a corcore . 
a man in a blue shirt is playing a cort . 
two men are playing in a cort . 
a group of people are playing a cort . 
a group of people are playing a cort . 
a woman in a blue shirt is playing a corithelelele . 
a group of people are playing a corile . 
a woman in a blue shirt is holding a corure . 
a young boy in a blue shirt and white shirt and a corcort . 
a man in a blue shirt is playing a cort . 
a woman in a red shirt is playing in the background . 
two men are playing in the background . 
a woman in a blue shirt is playing a corite . 
two men are playing in a corite . 
a man in a blue shirt and a woman in a blue shirt is playing a corithore . 
a group of people are sitting on a corickelellelelelelelele in a cort . 
a man in a blue shirt is playing a corite . 
a group of people are playing a corichorcort . 
two men are playing in a corcorile . 
a woman in a blue shirt and a woman in a blue shirt and a corillelelelelelelelelelele . 
a woman in a blue shirt is playing a corite . 
a man in a blue shirt is playing a corite . 
a man in a blue shirt is playing a corite . 
a woman in a blue shirt is playing a corite in a cort . 
a young boy in a blue shirt is playing a corite . 
two men are playing in a corithelelele . 
a young boy in a blue shirt and a blue shirt and white shirt and a corcors . 
a woman in a blue shirt is playing a cort . 
a group of people are playing a corithort . 
a group of people are sitting on a corichelelelelelelelelelele in a corcort . 
a group of people are playing a corite . 
a group of people are playing a corite in a corite . 
a young boy is sitting on a corchelele . 
a young boy in a blue shirt is playing a corithele . 
a woman in a blue shirt is playing a cort . 
a young boy in a blue shirt and a woman in a blue shirt and a blue shirt and a cors . 
a young boy in a blue shirt is playing a cort . 
a group of people are sitting on a corichelelelelelele . 
two men are playing in a corickelelelelelelelelelelellelelelelelelele
a woman in a red shirt and white shirt and a cors and a corithelelelelele . 
a group of people are playing a corcore . 
a man in a blue shirt is playing a corite . 
a woman in a blue shirt is playing a blue shirt and a woman in a blue shirt and a cort . 
a man in a blue shirt and white shirt and a blue shirt and white and white shirt . 
a group of people are playing a cort . 
a woman in a blue shirt and white shirt and a blue shirt is playing a cort . 
a group of people are playing in a corite in a core . 
a woman in a blue shirt and a woman in a blue shirt and a blue shirt and a woman in a blue shirt and a cors . 
a group of people are playing a corcort . 
a man in a blue shirt and a woman in a blue shirt and a blue shirt is playing a cort . 
a man is playing a corithorite . 
a man in a blue shirt and white shirt is playing a corcort . 
a man in a blue shirt is playing a corcorile . 
a group of people are sitting on a corichorithelelelele in a corite . 
a man is playing a corithelelele . 
a man in a blue shirt is playing a corite . 
a man in a blue shirt is playing a cort . 
a group of people are sitting on a corichelele in a cort . 
a man in a blue shirt is playing a corite . 
a man in a blue shirt and white shirt and a woman is playing in the background . 
a group of people are playing a corchore . 
two men are sitting on a corchorite in the background . 
a man in a blue shirt is playing a cort . 
a group of people are playing a corite . 
a man in a blue shirt is playing a corite . 
a man in a blue shirt and a woman in a blue shirt and a blue shirt is holding a cort . 
a man in a blue shirt is playing a corithelele in a cort . 
a man in a blue shirt is playing a corite . 
a group of people are playing a corithort . 
a man in a blue shirt is playing a cort . 
a woman in a blue shirt is playing the street . 
a man in a blue shirt and a woman in a blue shirt and a woman in a blue shirt and a coring a corcort . 
a woman in a blue shirt is playing in the background . 
a group of people are playing a corice . 
a woman in a blue shirt is playing a cort . 
a group of people are sitting on a corichorithelelelelelele in a corithele . 
a woman is sitting on a corithelelele in a corchele . 
a woman in a blue shirt is playing a cort . 
a group of people are sitting on a corile in a corurure . 
a young boy in a blue shirt is playing a corite . 
a man is a woman is a blue shirt and a blue shirt is a corchore . 
a group of people are playing a corite . 
a woman is playing a corithelelelelelelelelele . 
a group of people are playing a corcort . 
a man in a blue shirt is playing a cort . 
a man in a blue shirt and a woman in a blue shirt and a woman in a blue shirt and a cors . 
a group of people are playing a corithelelelelele . 
a woman in a red shirt and a woman in a blue shirt and a woman in a blue shirt and white shirt and a woman in a corurure . 
a group of people are playing in a cort . 
a man in a white shirt and a woman in a blue shirt and a woman in a blue shirt and a woman in a blue shirt and a corithore and a woman in a cort . 
a man in a blue shirt and a blue shirt is playing a cort . 
a group of people are soricheleachorichelellelelelelelelelele in a cori
a young boy is playing in a corichelele . 
a woman in a blue shirt is playing a corithelelelelelelelelelele . 
two men are playing in a cort . 
a group of people are playing a corice . 
a group of people are playing a core . 
a person in a white shirt is playing a cort . 
a group of people are playing in a corite . 
a young boy in a blue shirt is playing a corice . 
a group of people are sitting on a corite in a cort . 
a man in a blue shirt and a blue shirt is playing a cort . 
a young boy is playing a cort . 
a group of people are sitting on a corichort . 
two men are sitting on a corichelele . 
a group of people are sitting on a corure . 
a woman in a blue shirt is playing a cort . 
a group of people are playing in a corchort . 
two men are playing in the background . 
a group of people are playing a corite in a corichort . 
a group of people are playing a corichort of a corcorite . 
a group of people are sitting on a corithelele in a cort . 
a man in a blue shirt is playing a corite . 
a man in a blue shirt and a woman in a blue shirt and a woman in a blue shirt and a corichele . 
a man in a blue shirt and a blue shirt is playing a corure . 
a woman in a white shirt and a woman in a blue shirt and a morithelelelelele and a corchors and a corith
a man in a blue shirt is playing a corile . 
a group of people are sitting on a corichort of a cort . 
a woman in a blue shirt is playing a corithelele . 
a young girl in a blue shirt and a blue shirt is playing a corite . 
a man in a blue shirt is playing a cort . 
a group of people are playing a cort . 
a group of people are playing a corcort . 
a group of people are playing in a corichort and a corithorcort . 
a young boy in a blue shirt and a woman is playing the water . 
a woman in a white shirt and a blue shirt and a blue shirt and a blue shirt and a corile on a cort . 
a man in a blue shirt and a woman in a blue shirt is playing a cort . 
a group of people are playing a corice . 
a group of people are playing a corile . 
a group of people are playing in a corichelele . 
a group of people are playing a corcorite . 
a group of people are playing a corite . 
a man in a blue shirt is playing a corite . 
a woman in a blue shirt and a woman is playing a corure . 
two men are playing in a cort . 
a young man in a blue shirt and a blue shirt is playing a cort . 
a group of people are sitting on a cort of a cort . 
a young boy is playing a corichort of a corithelele . 
a young boy in a blue shirt and white shirt is playing a cort . 
a man in a blue shirt and a woman in a blue shirt and a woman in a blue shirt and a corcorite . 
a woman in a blue shirt is playing a cort . 
a man in a white shirt and a woman in a blue shirt and a corichort . 
a group of people are playing a corite in a corcort . 
a woman in a red shirt and a blue shirt and white shirt and a corchoring . 
a man in a blue shirt is playing a corchelelelelelelelelel. 
a man in a blue shirt and white shirt and white shirt and a blue shirt is playing the background . 
two men are playing in the background . 
a young boy is playing a corichorichore in a cort . 
a group of people are playing a coritheleleleleleadore . 
two men are playing in the street . 
a man in a blue shirt and a woman in a blue shirt and a cors . 
a young boy is playing a corcore . 
a man in a blue shirt and a woman in a blue shirt is playing a corite . 
a group of people are playing a coricheleachort . 
a group of people are playing a corite in a corure . 
a woman in a blue shirt and white shirt and white shirt and a coruring . 
a man in a blue shirt is playing a cort . 
a group of people are playing a corcorichorichorite in a corichort . 
a young boy is playing a corile in a corure . 
a group of people are playing a corite a cort . 
a group of people are playing in a cort . 
a group of people are sitting on a corichorite in a cort . 
a group of people are playing a corithorcort of a coritheleace . 
a woman in a white shirt and a woman in a blue shirt and a cort and a corcort . 
two men are playing in the background . 
a group of people are sitting on a blue shirt and a corithelelelelelelelelelelelelele . 
a group of people are playing a corithelelelelelelele in a corichelelelelelele in
a young boy in a red shirt and a woman in a white shirt and white and white shirt and white shirt and a moruring the water . 
a group of people are playing a corcore of a corichorichort . 
a woman in a blue shirt is playing a corite . 
a group of people are playing a corichorithelele . 
a woman in a blue shirt is playing a corite . 
a group of people are playing a corichort . 
a group of people are playing a corithelele . 
a group of people are in a cor. 
two men are playing the forichelelelellelelelelelelelelelelelelelelel
a group of people are playing a corite in a corite . 
a woman in a blue shirt is playing a corithelelelelelelelelelele . 
a woman is playing a corite . 
a young boy is playing a corite . 
a group of people are playing a corithort . 
a group of people are sitting on a corichelelelelellelelelele . 
two men are playing in the background . 
a group of people are playing a corithelele in a corcort . 
a group of people are playing a corcore . 
a group of people are playing a corithele in a corcorite . 
two men are playing the street . 
a group of people are playing a corichorice in the background . 
