a man in a man in a man in a man in a coror. 
a man in a man in a man in a man in a man in a corororor. 
a man in a man in a man in a man in a cororor. 
a man in a man in a man in a man in a corcor. 
a man in a man in a man in a man in a man in a cororororororor. 
a man in a man in a man in a man in a man in a man in a cororcorororor. 
a man in a man in a man . 
a man in a man in a man in a man in a man in a corororororororicoror. 
a man in a man in a man in a coror. 
a man in a man in a man in a man in a man in a cororororor. 
a man in a man in a man in a man in a cororor. 
a man in a man in a man in a man . 
a man in a man in a man in a cororor. 
a man in a man in a man in a man in a coror. 
a man in a man in a man in a cor. 
a man in a man in a man in a man in a corir. 
a man in a man in a man in a coror. 
a man in a man in a man in a man in a coror. 
a man in a man in a man in a man . 
a man in a man in a man in a man in a cororor. 
a man in a man in a man in a man in a cororiroror. 
a man in a man in a man in a man in a man in a coror. 
a man in a man in a man in a man in a cororor. 
a man in a man in a man in a man in a man in a cororororor. 
two in a man in a man . 
a man in a man in a man in a cor. 
a man in a man in a man in a man in a cor. 
a man in a man in a man . 
a man in a man in a man in a man in a man in a coriror. 
a man in a man in a man in a man in a cororor. 
a man in a man in a man in a man in a coror. 
a man in a man in a man in a man in a cororor. 
a man in a man in a man in a man in a corororor. 
a man in a man in a man in a man in a man in a cororororicor. 
a man in a man in a man in a man in a man in a corororor. 
a man in a man in a man in a cor. 
two a man in a man in a man in a corororor. 
a man in a man in a man in a man in a cororor. 
a man in a man in a man in a man in a corirororor. 
a man in a man in a man in a man in a corororor. 
a man in a man in a man in a man in a man in a corororor. 
a man in a man in a man in a man in a cororor. 
a man in a man in a man in a man in a coror. 
a man in a man in a man in a man in a cor. 
a man in a man in a man in a man in a cor. 
two in a man in a man in a corororororor. 
a man in a man in a man in a man in a coror. 
a man in a man in a man . 
a man in a man in a man in a man in a corororororor. 
a man in a man in a man in a man in a man in a coricorororor. 
two man in a man in a man . 
a man in a man in a man in a man in a corororor. 
two man in a . 
a man in a man in a man in a man in a man in a corororor. 
a man in a man in a man in a man in a cororororiror. 
a man in a man in a man in a man in a cororororor. 
a man in a man in a man in a man in a coror. 
a man in a man in a man in a man in a cor. 
a man in a man in a man in a coror. 
a man in a man in a man in a man in a cor. 
a man in a man in a cor. 
a man in a man in a man in a man in a man in a corororororor. 
a man in a man in a man in a man in a man in a corororor. 
a man in a man in a man in a man in a man in a corororiror. 
a man in a man in a man in a man in a corororor. 
a man in a man in a man in a man in a man in a coror. 
a man in a man in a man in a man in a coror. 
a man in a man in a man in a man in a coror. 
a man in a man in a man in a man in a cororor. 
a man in a man in a man in a coror. 
a man in a man in a man in a cor. 
a man in a man in a man in a man . 
a man in a man in a man in a man in a cor. 
a man in a man in a man in a man in a man in a coror. 
two in a man in a man in a coror. 
a man in a man in a man in a man in a cororororor. 
a man in a man in a man in a corororor. 
a man in a man in a man in a man in a man in a coriroror. 
a man in a man in a man in a man . 
a man in a man in a man in a man in a man in a man in a cororororor. 
a man in a man in a man in a man in a man in a cororicororor. 
a man in a man in a man in a man in a man in a man in a cororor. 
a man in a man in a man in a man in a man in a cororor. 
a man in a man in a man in a man in a man in a corileeeeeeeelee. 
a man in a man in a man in a man in a cororororir. 
a man in a man in a man in a man in a cororororiroror. 
a man in a man in a man in a man in a cororororor. 
a man in a man in a man in a man in a cororor. 
a man in a man . 
a man in a man in a man in a coror. 
a man in a man in a man in a man . 
a man in a man in a man in a man in a corororor. 
a man in a man in a man in a man in a corororor. 
a man in a man in a man in a man in a cororororor. 
a man in a man in a man in a man in a cor. 
a man in a man in a man in a man in a man in a corororor. 
a man in a man in a man in a coror. 
two people in a man in a man in a coror. 
two a man in a man in a man in a man in a cororor. 
a man in a man in a man in a man in a corororor. 
a man in a man in a man in a man in a corororor. 
two a man in a man in a man in a corororcororor. 
two man in a man in a man . 
a man in a man in a man in a man in a cor. 
a man in a man in a man in a man in a man in a corororororororor. 
a man in a man in a man in a man . 
a man in a man in a man in a man in a man in a cororororor. 
a man in a man in a man in a man in a coror. 
a man in a man in a man in a cororor. 
a man in a man in a man in a man in a corir. 
a man in a . 
a man in a man in a man in a man in a man in a coricor. 
a man in a man in a man . 
a man in a man in a man in a man in a man in a cor. 
a man in a man in a man in a man in a cororor. 
a man in a man in a man in a man in a coror. 
a man in a man in a man . 
a man in a man in a man in a man in a corororor. 
a man in a man in a man in a man in a man in a cororor. 
a man in a man in a man in a coror. 
a man in a man in a man in a coricor. 
a man in a man in a man in a man in a cororororor. 
a man in a man in a man in a man in a coror. 
a man in a man in a man in a man in a cororor. 
a man in a man in a man in a man in a cororcor. 
a man in a man in a man in a coror. 
a man in a man in a man . 
a man in a man in a man in a man in a man in a coricororor. 
a man in a man in a man in a man . 
two man in a man in a man . 
two a man in a man in a man in a cororor. 
two man in a man in a man . 
two people in a man in a man in a cororororor. 
a man in a man in a man in a man in a man in a coror. 
a man in a man in a man in a man . 
a man in a man in a man in a man in a cororor. 
two man in a man in a man . 
a man in a man in a man in a man in a man in a cororororor. 
a man in a man in a man in a cororor. 
a man in a man in a man in a man in a man in a corororor. 
a man in a man in a man in a man . 
a man in a man in a man in a man in a corororor. 
a man in a man in a man in a man in a cor. 
a man in a man in a man in a man . 
a man in . 
a man in a man in a man in a man in a man in a corororcor. 
a man in in . 
a man in a man in a man in a man in a man in a man in a cororororicoror. 
a man in a man in a man in a man in a cororor. 
a man in a man in a man in a man in a man in a corororororororor. 
a man in a man in a man in a man in a cor. 
a man in a man in a man in a coror. 
two man in a man in a man in a cor. 
a man in a man in a man in a man . 
a man in in . 
a man in a man in a man in a man in a man in a man in a cororororororor. 
a man in a man in a man in a cor. 
a man in a man in a man in a man . 
a man in a man in a man in a man in a man in a cororor. 
a man in a man in a man in a man in a cororor. 
a man in a man in a man in a man . 
a man in a man in a man in a man in a man in a man in a cororor. 
a man in a man in a man in a cororor. 
a man in a man in a man in a man . 
a man in . 
a man in a man in a man in a man in a coror. 
a man in a man in a man in a man . 
a man in a man in a man in a man . 
a man in a man in a man . 
a man in a man in a man in a man in a corir. 
a man in a man in a man in a man in a corororor. 
a man in a man in a man in a man in a corororor. 
a man in a man in a man in a man in a corororor. 
a man in a man in a man in a man in a coror. 
a man in a man in a man in a man in a coror. 
a man in a man in a man in a man in a corororor. 
a man in a man in a man in a man in a man in a corororor. 
a man in a man in a man in a man in a corororor. 
two in a man in a man in a cororor. 
a man in a man in a man in a man in a coror. 
a man in a man in a man in a man in a coror. 
a man in a man in a man in a man in a cor. 
a man in a man in a man in a man in a cororororor. 
a man in a man in a man in a man in a cororororor. 
a man in a man in a man . 
a man in a man in a man in a man . 
two in in . 
a man in a man in a man in a man in a man in a cororororor. 
a man in a man in a man in a man in a coror. 
a man in a man in a man in a man in a cororcoror. 
a man in a man in a man in a man in a man in a cororcororor. 
a man in a man in a man in a man in a corirororor. 
a man in a man in a man . 
a man in a man in a man in a corororor. 
a man in a man in a man in a coror. 
a man in a man in a man in a man in a cororor. 
a man in in . 
a man in a man in a man in a man . 
a man in a man in a man . 
a man in a man in a man in a man in a man in a cororor. 
a man in a man in a man in a coror. 
a man in a man in a man in a man in a coror. 
a man in a man in a man in a man in a man in a cor. 
a man in a man in a man in a man in a cororororor. 
a man in a man in a man in a cororor. 
a man in a man in a man in a man in a cororororor. 
a man in a man in a man in a man in a cororor. 
a man in a man in a man in a man in a cororor. 
a man in a man in a man . 
a man in a man in a man in a man in a man in a corororicoriroror. 
two man in a man in a man in a cororor. 
a man in a man in a man in a man in a man in a man in a cororororororor. 
a man in a man in a man in a man in a coror. 
a man in a man in a man in a man in a cororororir. 
a man in a man in a man in a man in a cororor. 
two a man in a man in a cororororor. 
a man in a man . 
two a man in a man in a corororor. 
a man in a man in a man in a cororor. 
a man in a man in a man in a cor. 
a man in a man in a man in a man in a cororcor. 
a man in a man in a man in a man in a man in a coricororirororor. 
a man in a man in a man in a cor. 
a man in a man in a man in a coror. 
a man in a man in a man in a man . 
a man in a man in a man in a man in a corororor. 
a man in a man . 
a man in a man in a man in a man in a coror. 
a man in a man in a man in a coror. 
a man in a man in a man in a man in a coror. 
a man in a man in a man in a coror. 
a man in a man in a man in a coror. 
a man in a man in a man in a man in a cororor. 
a man in a man in a man in a cororororor. 
a man in a man in a man in a man in a man in a cororor. 
a man in a man in a man in a man in a coror. 
a man in a man in a man in a coror. 
a man in a man in a man . 
a man in a man in a man in a man in a corororor. 
a man in a man in a man in a man in a cor. 
a man in a man in a man in a man in a man in a man in a cororororor. 
a man in a man in a man in a man in a cororor. 
a man in a man in a man in a man in a cororor. 
two man in a man in a man . 
a man in a man in a man in a man in a coror. 
a man in a man in a man in a man . 
a man in a man in a man in a man in a coror. 
a man in a man in a man in a man in a man in a man in a corcorororor. 
a man in a man in a man in a man in a corororororor. 
two a man in a man in a man in a coror. 
a man in a man in a man in a man in a coror. 
a man in a man in a man in a man . 
a man in a man in a man in a man in a cor. 
a man in a man in a man . 
two in a man in a man . 
a man in a man in a man in a man in a man in a corirororir. 
a man in a man in a man in a man in a corir. 
a man in a man in a man in a man in a corororor. 
a man in a man in a man in a man in a man in a corororor. 
a man in a man in a man in a cor. 
a man in a man in a man in a man in a coror. 
a man in a man in a man in a man in a cororororor. 
a man in a man in a man in a man in a cororor. 
a man in a man in a man in a man in a coror. 
a man in a man in a man in a cor. 
a man in a man in a man in a corororor. 
a man in a man . 
a man in a man in a man in a man in a corororor. 
a man in a man in a man in a man in a corororor. 
a man in a man in a man in a man in a man in a cororiroricorororor. 
a man in a man in a man in a man in a cor. 
a man in a man in a man in a man in a corororiroror. 
a man in a man in a man in a man in a corirororor. 
a man in a man in a man in a man in a man in a coror. 
a man in a man in a man in a man . 
a man in a man in a man in a man in a cor. 
a man in a man in a man in a man in a coror. 
a man in a man . 
a man in a man in a man in a coricor. 
a man in a man in a man in a man in a man in a cororor. 
a man in a man in a man in a man in a cor. 
a man in a man in a man in a man in a cororor. 
a man in a man in a man in a man in a coror. 
two a man in a man in a man in a corororor. 
a man in a man in a man in a man in a corirorirororor. 
a man in a man in a man in a man in a coror. 
a man in a man in a man . 
a man in a man in a man in a corororor. 
a man in a man in a man in a man . 
a man in a man in a man in a cor. 
a man in a man in a man in a man in a cororcoror. 
a man in a man in a man in a cororororor. 
a man in a man in a man in a man in a coror. 
a man in a man in a man in a man in a man in a cororororor. 
a man in a man in a man in a man in a coror. 
a man in a man in a man in a man . 
a man in a man in a man in a coror. 
a man in a man in a man in a man in a cor. 
two man in a man in a man in a coror. 
a man in a man in a man in a coror. 
a man in a man in a man in a cor. 
a man in a man in a man in a man in a corororor. 
a man in a man in a man in a man in a coror. 
a man in a man in a man in a man in a corororor. 
a man in a man in a man in a man in a man in a cororororor. 
a man in a man in a man in a man in a cororororor. 
a man in a man in a man in a coror. 
a man in a man in a man in a man in a corir. 
two man in a man in a man in a cor. 
a man in a man in a man in a cororor. 
a man in a man in a man in a man in a cororororor. 
two man in a man in a man in a cor. 
a man in a man in a man in a man . 
a man in a man in a man in a man in a man in a cororor. 
a man in a man in a man . 
a man in a man in a man in a man in a cororororor. 
a man in a man . 
a man in a man in a man in a corororor. 
a man in a man in a man in a man in a corirorororor. 
a man in a man in a man in a corororor. 
two man in a man in a man . 
a man in a man in a man in a man in a man in a cororor. 
two a man in a man in a man in a cor. 
a man in a man in a man in a man in a man in a man in a corororororororor. 
a man in a man in a man in a coror. 
a man in a man in a man in a cororor. 
a man in in . 
a man in a man in a man in a man in a coricor. 
a man in a man in a man in a man in a man in a corororororororor. 
two a man in a man in a man in a cororor. 
a man in a man in a man in a cor. 
two a man in a man in a man in a coror. 
a man in a man in a man in a man in a coror. 
a man in a man in a man in a coror. 
a man in a man in a man in a coror. 
a man in a man in a man in a cororor. 
a man in a man in a man in a man in a man in a corcor. 
a man in a man in a man in a man in a cor. 
a man in a man in a man in a corir. 
a man in a man in a man in a cor. 
a man in a man in a man in a coror. 
a man in a man in a man in a man . 
a man in a man in a man in a man in a corororororor. 
a man in a man in a man in a man in a man in a corcoriror. 
a man in a man in a man in a man in a coror. 
a man in . 
a man in in . 
a man in a man in a man in a man in a coror. 
a man in a man in a man in a man in a coror. 
a man in a man in a man in a man in a man in a man in a man in a corororororororor. 
a man in a man in a man . 
a man in a man in a man in a man in a cor. 
a man in a man in a man in a man in a corirororcororor. 
a man in a man in a man in a man in a corororor. 
a man in a man in a man in a cor. 
a man in a man in a man in a coror. 
a man in a man in a man in a man in a man in a cor. 
a man in a man in a man in a man in a cororororor. 
a man in a man in a man in a man in a cororiroror. 
a man in a man in a man in a man in a man in a corororororor. 
a man in a man in a man . 
a man in a man in a man in a cor. 
two in a man in a man . 
a man in a man in a man in a man in a man in a cororicoror. 
a man in a man in a man in a man in a coricoror. 
a man in a man in a man in a man in a man in a cororororororor. 
a man in a man in a man in a man in a coror. 
a man in a man in a man in a coror. 
a man in a man in a man in a coror. 
a man in a man in a man in a man in a man in a man in a corororcor. 
a man in a man in a man in a man in a man in a corirororororor. 
a man in a man in a man . 
a man in a man in a man . 
a man in a man in a man in a man in a man in a corororcorororor. 
a man in a man in a man in a man . 
a man in a man in a man in a man in a cororor. 
a man in a man in a man in a cor. 
a man in a man in a man in a man in a coror. 
a man in a man . 
a man in a man in a man in a man in a man in a coror. 
a man in a man in a man in a man in a man in a corororor. 
a man in a man in a man . 
a man in a man in a man in a man . 
a man in a man in a man in a coror. 
a man in a man in a man in a man in a coror. 
a man in a man in a man in a man in a man in a corororororor. 
a man in a man in a man in a man in a man in a cor. 
a man in a man in a man in a man in a cororororor. 
a man in a man . 
a man in a man in a man in a man in a man . 
a man in a man in a man in a coror. 
a man in a man in a man in a cor. 
a man in a man in a man . 
a man in a man in a man in a man in a cororororor. 
a man in a man in a man in a man in a cor. 
a man in a man in a man in a cor. 
a man in a man in a man in a man in a man in a coror. 
a man in a man in a man in a man . 
two man in a man in a man in a corororor. 
a man in a man in a man . 
a man in a man in a man in a man in a coricor. 
a man in a man in a man in a man in a man in a cororororor. 
a man in a man in a man . 
two a man in a man in a man in a cor. 
a man in a man . 
a man in a man in a man in a cororororororor. 
a man in a man in a man in a man . 
a man in a man in a man in a man in a cororor. 
a man in a man in a man . 
a man in a man in a man in a man in a corororororor. 
a man in a man in a man in a cor. 
a man in a man . 
a man in a man . 
a man in a man in a man in a man in a corororor. 
a man in a man in a man . 
a man in a man in a man . 
a man in a man in a man in a man in a coricor. 
a man in a man in a man in a man in a cor. 
a man in a man in a man in a cor. 
a man in a man in a man . 
a man in a man in a man in a man in a corororororor. 
a man in a man in a man in a man in a cororororororor. 
a man in a man in a man in a man in a coror. 
a man in a man in a man in a man in a cororororor. 
two in a man in a man in a cororor. 
a man in a man in a man in a man in a cor. 
a man in a man in a man in a man in a corororororororor. 
a man in a man in a man in a man in a man in a coror. 
a man in a man in a cor. 
a man in a man in a man in a man in a coricororor. 
a man in a man in a man . 
a man in a man in a man in a man in a man in a corororororor. 
a man in a man in a man in a man . 
two a man in a man in a man in a cororor. 
a man in a man in a man in a coror. 
a man in a man in a man in a man in a cororororor. 
a man in in . 
a man in a man in a man in a man in a man in a man in a cororororicororor. 
a man in a man in a man in a coriroror. 
a man in a man in a man in a man in a man . 
a man in a man in a man in a coror. 
a man in a man in a man in a coror. 
a man in a man in a man . 
a man in a man in a man in a man in a man in a cororororororir. 
a man in a man in a man in a man in a man in a coricor. 
a man in a man in a man in a man . 
a man in a man in a man in a man in a coror. 
a man in a man in a man in a coror. 
a man in a man in a man in a man . 
a man in a man in a man in a man in a cororor. 
a man in a man in a man in a coror. 
a man in a man in a man in a man in a corororor. 
two man in a man in a man in a cororor. 
a man in a man in a man in a man in a man in a corcoror. 
two a man in a man in a man in a cororor. 
a man in a man in a man in a man . 
a man in a man in a man in a man in a man in a coricorororor. 
a man in a man in a man in a man in a man in a cororororor. 
a man in a man in a man in a cororor. 
a man in a man in a man in a man in a coror. 
a man in a . 
two man in a man in a man in a man in a cororororor. 
a man in a man in a man in a man in a coror. 
a man in a man in a man in a man in a cororor. 
a man in a man in a man in a cor. 
a man in a man in a man in a man . 
a man in a man in a man in a man in a cor. 
a man in a man in a man in a man in a coror. 
a man in a man in a man in a man in a corororor. 
two in a man in a man . 
a man in a man in a man in a man . 
a man in a man in a man in a man in a coror. 
a man in a man in a man in a man . 
a man in a man in a man in a corororor. 
a man in a man in a man in a man in a cororor. 
a man in a man in a man in a man in a man in a cororir. 
a man in a man in a man in a cor. 
a man in a man in a man in a cor. 
a man in a man in a man in a man in a corororor. 
a man in a man in a man in a man in a cor. 
a man in a man in a man in a man in a cororor. 
a man in a man in a man in a cor. 
a man in a man in a man in a man in a man in a cororororor. 
a man in a man in a man in a man in a coror. 
a man in a man in a man in a man . 
a man in a man in a man in a man . 
a man in a man in a man . 
a man in a man in a man in a man in a coriroror. 
a man in a man in a man in a man in a coror. 
a man in a man in a man in a cor. 
a man in a man in a man in a man . 
a man in a man in a man in a man in a cororor. 
a man in a man in a man in a man in a man in a man in a corororororororororororor. 
a man in a man in a man in a man in a cororororor. 
a man in a man in a man in a man in a cororor. 
a man in a man in a cor. 
a man in a man in a man in a man in a corororor. 
a man in a man in a man in a man in a cororororor. 
two in in . 
a man in a man in a man in a coror. 
a man in a man in a man in a man . 
a man in a man in a man in a man in a coror. 
a man in a man in a man in a man . 
a man in a man in a man in a man in a corororororor. 
a man in a man in a man in a cor. 
a man in a man in a man in a man in a corororor. 
a man in a man in a man in a man in a coriror. 
a man in a man in a man in a man in a man in a coror. 
a man in a man in a man in a cor. 
a man in a man in a man in a man . 
a man in a man in a man in a man in a corororororor. 
a man in a man in a man in a man in a cororor. 
a man in a man in a man in a man in a cororor. 
a man in a man in a man in a coror. 
a man in a man in a man in a man in a corororor. 
a man in a man in a man in a man in a coror. 
a man in a man in a man . 
a man in a man in a man in a man in a corororor. 
a man in a man in a man in a man in a cor. 
a man in a man in a man in a man in a man in a coriror. 
two a man in a man in a man in a man . 
a man in a man in a man in a man in a man in a man in a man in a corororororor. 
a man in a man in a man in a man in a cororor. 
a man in a man in a man in a cororor. 
a man in a man in a man in a man in a man in a man in a cororcororor. 
a man in a man in a man in a man in a man in a cororororor. 
a man in a man in a man in a man in a cororor. 
a man in a man in a man in a cororor. 
a man in . 
a man in a man in a man in a man in a corororor. 
two a man in a man in a man in a coror. 
a man in a man in a man in a man in a coror. 
a man in a man in a man in a man in a coror. 
a man in a man in a man in a man in a corir. 
a man in a man in a man . 
a man in a man in a man in a cororororor. 
a man in a man in a man in a man in a man in a cor. 
a man in a man in a man in a man in a man in a coror. 
two man in a man in a man in a cororor. 
a man in a man in a man in a cor. 
a man in a man in a man in a cor. 
a man in a man in a man in a coror. 
a man in a man in a man in a man in a corororor. 
a man in a man in a man in a man in a man in a coricor. 
a man in a man in a man in a man in a cor. 
a man in a man in a man . 
a man in a man in a man in a man in a corir. 
a man in a man in a man in a man in a cororor. 
a man in a man in a man in a cor. 
a man in a man in a man in a man in a man in a cororororir. 
a man in a man in a man in a corirororor. 
a man in a man in a man in a man in a man in a cororiror. 
a man in a man in a coror. 
a man in a man in a man in a man in a man in a corororcor. 
a man in a man in a man in a man in a cororororor. 
a man in a man in a man in a man in a coror. 
a man in a man in a man in a man in a corororororor. 
a man in a man in a man in a man . 
a man in a man in a man in a man in a coror. 
a man in a man in a man in a man in a cororiror. 
two a man in a man in a man in a cororororororor. 
a man in a man in a man in a man in a corororor. 
a man in a man in a man in a man . 
a man in a man in a man in a man in a man in a man in a cororororororor. 
a man in a man in a man in a cor. 
a man in a man in a man in a man in a corororor. 
a man in a man in a man in a cor. 
a man in a man in a man in a man in a cororor. 
a man in a man in a man in a cor. 
a man in a man in a man in a man in a coror. 
a man in a man in a man in a man in a coror. 
a man in a man in a man in a man in a man in a coricoror. 
a man in a man in a man in a man in a man in a corororir. 
a man in a man in a man in a coror. 
a man in a man in a man in a man in a cororiror. 
a man in a man in a man in a cororor. 
two man in a man in a man in a coror. 
a man in a man in a man in a man in a coror. 
a man in a man in a man in a man . 
a man in a man in a man in a man in a man in a man in a corororcororicoror. 
a man in a man in a man in a man in a man in a cororicor. 
two a man in a man in a man in a man . 
a man in a man in a man in a man in a man in a cororir. 
a man in a man in a man in a man . 
a man in a man in a man in a man in a cororor. 
a man in a man in a man in a man in a cor. 
a man in a man in a man in a man in a cororor. 
a man in a man in a man in a man in a coror. 
two in a man in a man in a coror. 
a man in a man in a man in a man in a corororororororororor. 
a man in a man in a man in a cororor. 
two man in a man in a man in a coror. 
two in a man in a man in a cororor. 
a man in a man in a man in a cor. 
a man in a man in a man . 
a man in a man in a man in a man in a man in a coricor. 
a man in a man in a man in a man in a man in a coror. 
a man in a man in a man in a man in a cororor. 
a man in a man in a man in a man in a cororor. 
a man in a man in a man in a man in a cororor. 
a man in a man in a man in a man . 
a man in a man in a man in a man in a corororor. 
two a man in a man in a man in a cororor. 
a man in a man in a man in a coror. 
two man in a man . 
a man in a man in a man in a man in a man . 
a man in a man in a man in a man in a cororicoror. 
a man in a man in a man in a cor. 
a man in a man in a man in a man in a man in a cororororor. 
a man in a man in a man in a man in a coricoror. 
a man in a man in a man in a man in a cororor. 
a man in a man in a man in a man in a cor. 
a man in a man in a man in a man in a cor. 
a man in a man in a man in a man in a corororor. 
a man in a man in a man in a coror. 
a man in a man in a man in a man in a man in a cororororororicor. 
a man in a man in a man . 
a man in a man in a man in a man in a cororor. 
a man in a man in a man in a cor. 
a man in a man in a man in a man in a man in a coror. 
a man in a man in a man in a man in a cor. 
two man in a man in a man . 
a man in a man in a man in a coror. 
a man in a man in a man in a man in a man in a cororor. 
a man in a man in a man . 
a man in a man in a man in a man . 
a man in a man in a man in a man in a corororor. 
a man in a man in a man in a man in a man in a coricor. 
a man in a man in a man in a man in a cororor. 
a man in a man in a man in a man in a man in a cororcororororor. 
two a man in a man in a cororor. 
a man in a man in a man in a man in a man in a man in a corororirororororor. 
a man in a man in a cor. 
a man in a man in a man in a man in a cororor. 
a man in a man in a man in a coror. 
a man in a man in a man in a man . 
a man in a man in a man in a coror. 
a man in a man in a man in a man in a man in a corcoricor. 
a man in a man in a man in a cor. 
a man in a man in a man in a man in a man in a cor. 
a man in a man in a man in a cor. 
a man in a man in a man in a man in a man in a man in a coricorororor. 
a man in a man in a man . 
two in a man in a man in a coror. 
a man in a man in a man in a coror. 
a man in a man in a man in a man in a man in a man in a cororororor. 
a man in a man in a man . 
a man in a man in a man in a cor. 
two in a man in a man . 
a man in a man in a man . 
a man in in . 
a man in a man in a man in a man in a cor. 
a man in a man in a man in a man in a cororororororor. 
a man in a man in a man in a coror. 
a man in a man in a man in a coror. 
a man in a man in a man in a corororor. 
a man in a man in a man in a man . 
a man in a man in a man in a man in a cororor. 
a man in a man in a man in a man . 
a man in a man in a man in a man in a man in a cororor. 
a man in a man in a man in a man in a cor. 
a man in a man in a man in a man in a cororor. 
a man in a man in a man in a corir. 
a man in a man in a man in a man in a man in a corororororor. 
a man in a man in a man in a man in a cororor. 
a man in a man in a man in a man in a cororor. 
a man in a man in a man in a man in a cor. 
a man in a man in a man in a man . 
a man in a man in a man in a man in a coror. 
a man in a man in a man in a man in a man in a corororor. 
a man in a man in a man in a man in a cor. 
a man in a man in a man in a man in a corcororor. 
a man in a man in a man in a man . 
a man in a man in a man in a man in a cororor. 
a man in a man in a man in a man in a coror. 
a man in a man in a man in a man in a man in a man in a cororororor. 
two a man in a man in a corororororor. 
a man in a man in a man in a man in a cor. 
a man in a cor. 
a man in a man in a man in a man in a man in a coror. 
a man in a man in a man in a man in a cor. 
a man in a man in a man in a man in a coror. 
two man in a man in a man . 
a man in a man in a man in a man in a cororor. 
a man in a man in a man in a man in a coricoror. 
a man in a man in a man in a man in a man in a corororororor. 
a man in a man in a man in a man . 
a man in a man in a man in a man in a corororor. 
a man in a man in a man . 
a man in a man in a man in a man in a coror. 
a man in a man in a man in a man in a man in a corirororororor. 
a man in a man in a man . 
a man in a man in a man in a man in a cororor. 
a man in a man in a man in a man . 
a man in a man in a man in a man in a coror. 
a man in a man in a man in a man in a coror. 
a man in a man in a man . 
a man in a man in a man in a man in a man in a man in a cororor. 
a man in a man in a man in a man in a cororororor. 
two man in a man in a man in a coror. 
a man in a man in a man in a man . 
a man in a man in a man in a coror. 
a man in a man in a man in a man in a cor. 
a man in a man in a man in a man in a coror. 
two a man in a man in a corororor. 
a man in a man in a man in a man . 
a man in a man in a man in a man in a cor. 
a man in a man in a man in a man . 
a man in a man in a man in a man in a man in a coror. 
a man in a man in a man in a corororor. 
a man in a man in a man in a man in a corororor. 
a man in a man in a man in a man in a cororir. 
a man in a man in a man in a man in a coror. 
a man in a man in a man in a man in a corororor. 
a man in a man in a man in a corororor. 
a man in a man in a man in a man in a man in a cororor. 
a man in a man in a man in a man . 
two a man in a man in a man in a man in a cororor. 
a man in a man in a man in a man in a cor. 
a man in a man in a man in a corir. 
a man in a man in a man in a man in a cororororor. 
a man in a man in a man in a man in a man in a man in a cororororor. 
a man in a man in a man in a man in a man in a coror. 
a man in a man in a man in a man in a cororor. 
a man in a man in a man in a man in a cor. 
a man in a man in a man in a man in a cororor. 
a man in a man in a man in a coror. 
two a man in a man in a man in a corororor. 
a man in a man in a man in a man in a coror. 
a man in a man in a man in a man in a man . 
a man in a man in a man in a man in a man in a corcoror. 
a man in a man in a man in a man in a man in a corororor. 
two man in a man in a man . 
two a man in a man in a man in a cororor. 
a man in a man in a man in a man in a corororororor. 
a man in a man in a man in a man in a corororor. 
two in a man in a man in a cor. 
a man in a man in a man in a man in a cororor. 
a man in a man in a man in a coror. 
a man in a man in a man in a man in a man in a cororororcororor. 
a man in a man in a man in a man in a man in a coror. 
two a man in a man in a man in a coror. 
two a man in a man in a man in a corororororororor. 
a man in a man in a man in a man in a coricoricoror. 
two man in a man in a man in a coror. 
a man in a man in a man in a man in a coror. 
a man in a man in a man in a corororor. 
a man in a man in a man in a man in a man . 
a man in a man in a man . 
a man in a man in a man in a man in a man in a man in a cororororor. 
a man in a man in a man in a man in a cororororiror. 
a man in a man in a man in a man in a man in a cororororororor. 
a man in a man in a man in a man in a man in a man in a cororor. 
a man in a man in a man in a man in a coror. 
a man in a man in a man in a man in a man in a corororor. 
a man in a man in a man in a man in a coror. 
a man in a man in a man in a cororororororor. 
a man in a man in a man in a man in a man in a man in a cororor. 
a man in a man in a man in a cor. 
a man in a man in a man . 
two in a man in a man in a coror. 
a man in a man in a man in a man in a man in a coror. 
a man in a man in a man in a man in a cororor. 
a man in a man in a man in a man in a cororor. 
two a man in a man in a man in a corir. 
a man in a man in a man in a man in a man in a cororor. 
a man in a man in a man in a coror. 
a man in a man in a man in a man in a man in a man in a coricorororororor. 
a man in a man in a man in a man in a cor. 
a man in a man in a man in a man in a man . 
a man in a man in a man in a cor. 
a man in a man in a man in a man in a coror. 
a man in a man in a man in a man in a cororororor. 
a man in a man in a man in a man in a man in a coricororororor. 
a man in a man in a man in a man in a coror. 
a man in a man in a man in a man in a man in a cororor. 
two man in a man . 
a man in a man in a man in a cororor. 
a man in a man in a man in a man in a coror. 
a man in a man in a man in a man in a cororir. 
a man in a man in a man in a man . 
a man in a man in a man in a coror. 
a man in a man in a man in a cor. 
a man in a man in a man in a man in a cororor. 
a man in a man in a man in a cor. 
a man in a man in a man in a man in a man in a cororor. 
a man in a man in a man in a cor. 
a man in a man in a man in a man in a man in a man in a cor. 
a man in a man in a man in a man in a man in a cororororor. 
a man in a man in a man in a man in a corororororicoror. 
a man in a man in a man in a man . 
two a man in a man in a man in a cororororor. 
a man in a man in a man in a man in a cororor. 
two man in a man in a man in a cororor. 
a man in a man in a man in a man in a coror. 
a man in a man in a man in a cor. 
a man in a man in a man . 
a man in a man in a man in a man in a man in a cororcororor. 
a man in a man in a man in a man in a coror. 
a man in a man in a man in a man in a coricoror. 
two a man in a man in a man in a corororor. 
a man in a man in a man in a man in a man in a cororicororor. 
a man in a man in a man . 
a man in a man in a man in a man in a cororor. 
a man in a man in a man . 
a man in a man in a man in a man in a cor. 
a man in a man in a man in a man in a man in a corororicororcoror. 
a man in a man in a man . 
a man in a man in a man in a man in a coror. 
a man in a man in a man in a man in a man in a cororor. 
a man in a man in a man in a man in a coror. 
a man in a man in a man in a man in a corororicor. 
a man in a man in a man in a man in a cororor. 
a man in a man in a man in a man in a man in a cororororir. 
a man in a man in a man . 
a man in a man in a man in a man in a corororor. 
a man in a man in a man . 
a man in a man in a man in a man in a cororor. 
a man in a man in a man in a man . 
a man in a man in a man in a man in a man in a corororororiror. 
a man in a man in a man in a cororor. 
a man in a man in a man in a man in a coricor. 
two man in a man in a man . 
a man in a man in a man in a cororor. 
a man in a man in a man in a corir. 
a man in a man in a man in a man in a man in a cororor. 
a man in a man in a man in a man . 
a man in a man in a man in a coror. 
a man in a man in a cororor. 
a man in a man in a man in a man in a corororor. 
a man in a man in a man in a coror. 
a man in a man in a man in a man in a coricoror. 
a man in a man in a man in a coror. 
a man in a man in a man in a man in a cororororcororororor. 
a man in a man in a man in a coror. 
a man in a man in a man in a man in a cor. 
a man in a man in a man in a corororor. 
a man in a man in a man . 
a man in a man in a man in a man in a coriror. 
a man in a man in a man in a coror. 
a man in a man in a man in a man in a man in a corir. 
a man in a man in a man in a man in a cororor. 
a man in a man in a man in a man in a man in a cororor. 
a man in a man in a man in a man in a cororororororicorororor. 
a man in a man in a cor. 
a man in a man in a man in a man in a man in a man in a corirororicor. 
a man in a man in a man in a man . 
a man in a man in a man in a man in a man . 
a man in a man in a man in a man in a corororor. 
a man in a man in a man in a man in a corcoror. 
a man in a man in a man in a man in a cororororor. 
a man in a man in a man in a man in a corororor. 
a man in a man in a man in a man in a cororororororor. 
a man in a man in a man in a man in a cororor. 
two man in a man in a man . 
a man in a man in a man in a man in a corororor. 
a man in a man in a man in a man in a cor. 
a man in a man in a man in a man in a man in a man in a cororicororor. 
a man in a man in a man in a man . 
a man in a man in a man in a man in a coror. 
a man in a man in a man in a man in a coricororororororor. 
a man in a man in a man in a man in a man in a man in a man in a man in a corororcorcorcoror. 
a man in a man in a man in a man in a man in a corororor. 
a man in a man in a man in a man in a corororor. 
a man in a man in a man . 
a man in a man in a man in a man in a cororiroror. 
a man in a man in a man in a man in a cor. 
a man in a man in a man in a man in a coriror. 
a man in a man in a man in a man in a man in a cororor. 
two man in a man in a man in a corororor. 
a man in a man in a man in a cor. 
two man in a man in a man in a man in a man in a cororor. 
a man in a man in a man in a man in a corororor. 
a man in a man in a man in a man in a man in a man in a corororororororor. 
a man in a man in a man in a man in a corororor. 
a man in a man in a man in a man in a man in a man in a cororicorororcoror. 
a man in a man . 
a man in a man in a man in a man in a man in a cororor. 
a man in a man in a man in a man in a corororororor. 
a man in a man in a man in a man in a man in a cororcororororor. 
a man in a man in a man . 
a man in a man in a man in a man in a man in a man in a coror. 
a man in a man in a man in a man in a cor. 
a man in a man in a man in a man in a man in a corororororororor. 
a man in a man in a man in a man in a cororor. 
a man in a man in a man in a man in a cororor. 
a man in a man in a man in a coriror. 
a man in a man in a man in a cororor. 
a man in a man in a man in a coror. 
a man in a man in a man in a cororor. 
a man in a man in a man in a man in a man in a cororororor. 
a man in a man in a man in a man in a man in a man in a cororororor. 
a man in a man in a man in a man in a corororor. 
a man in a man in a man in a man in a cororiror. 
a man in a man in a man in a man in a corororor. 
a man in a man in a man in a man in a man in a corororor. 
a man in a man in a man in a cororor. 
a man in a man in a man in a man in a man in a man in a corcorororcororicororor. 
a man in a man in a man . 
two a man in a man in a man in a coror. 
a man in a man in a man in a man in a man in a coricor. 
a man in a man in a man in a man in a man in a man in a man in a cororororirorororicororcorco
a man in a man in a man in a man in a coror. 
a man in a man in a man in a man in a coror. 
a man in a man in a man in a man in a cororcorororor. 
a man in a man in a man in a man in a corororor. 
a man in a man in a man in a man in a man . 
a man in a man in a man in a man in a cor. 
a man in a man in a man in a man . 
a man in a man in a man in a coricor. 
a man in a man in a man in a man in a coror. 
a man in a man in a man in a man in a man in a man in a cororororororcoror. 
two a man in a man in a man in a cororororor. 
a man in a man in a man in a man in a man in a cororororor. 
a man in a man in a man . 
a man in a man in a man in a man in a corororororor. 
a man in a man in a man in a man in a man in a cororor. 
a man in a man in a man in a cororor. 
a man in a man in a man in a man in a cororor. 
a man in a man in a man in a man in a man in a man in a corororor. 
two in a man in a man . 
a man in a man in a man in a man . 
a man in a man in a man . 
a man in a man in a man in a man . 
two man in a man in a man . 
a man in a man in a man in a man in a corororororor. 
two a man in a man in a man in a man in a cororororcoror. 
a man in a man in a man in a man in a man in a corororcorororororor. 
a man in a man in a man in a man . 
a man in a man in a man in a man in a man in a man in a corororicorororor. 
a man in a man in a coror. 
a man in a man in a man in a man in a man in a cororcoror. 
a man in a man in a man in a man in a cororororor. 
two man in a man in a man . 
a man in a man in a man in a cororor. 
a man in a man in a man in a man in a coricororor. 
a man in a man in a man in a man in a corororor. 
a man in a man in a man in a man in a man in a cororcoror. 
a man in a man in a man in a man in a man in a corcoria . 
a man in a man in a man in a man in a man in a cororororororcoror. 
a man in a man in a man in a man in a man in a cororicor. 
a man in a man in a man in a man in a cororor. 
a man in a man in a man in a man in a man in a coror. 
a man in a man in a man in a corororor. 
a man in a man in a man in a man in a corororor. 
a man in a man in a man in a man in a coror. 
a man in a man in a man in a man in a cor. 
two a man in a man in a man in a cororor. 
a man in a man in a man in a coror. 
a man in a man in a man in a man in a cororororororor. 
a man in a man in a man in a man in a corororor. 
a man in a man in a man in a man in a coror. 
a man in a man in a man in a man in a man in a corororororor. 
a man in a man in a man in a man in a corororor. 
two man in a man in a man in a man . 
a man in a man in a man in a man in a coricororicor. 
a man in a man in a man in a man in a cororor. 
a man in a man in a man in a man in a cororor. 
a man in a man in a man in a man in a cor. 
a man in a man in a man in a man in a corororir. 
a man in a man in a man in a corororor. 
a man in a man in a man in a man in a man in a cor. 
a man in a man in a man in a man in a coror. 
a man in a man in a man in a man in a cororororor. 
a man in a man in a man in a man in a corororororor. 
a man in a man in a man in a man in a man in a man in a corororor. 
a man in a man in a man in a cor. 
a man in a man in a man in a cororicoror. 
a man in a man in a man in a man in a man in a corcororororor. 
a man in a man in a man in a man in a man in a cororor. 
a man in a man in a man in a man . 
a man in a man in a man in a man in a cor. 
a man in a man in a coror. 
a man in a man in a man in a man in a man in a cororororor. 
a man in a man in a man in a man in a man in a corororor. 
a man in . 
a man in a man in a man in a man in a cororororor. 
a man in a man in a man in a coror. 
a man in a man in a man in a man in a man in a man in a cororicorororcorcor. 
a man in a man in a man in a cororororor. 
a man in a man in a man in a man in a coror. 
a man in a man in a man in a man in a cororor. 
a man in a man in a man in a man in a cororororor. 
a man in a man in a man in a man in a corororor. 
a man in a man in a man in a man in a cor. 
a man in a man in a man in a man in a man in a corororor. 
a man in a man in a cor. 
a man in a man in a man in a man in a cor. 
a man in a man in a man in a man in a man in a corororcororororor. 
a man in a man in a man in a man in a cororcoror. 
a man in a man in a man . 
a man in a man in a man in a man in a man in a corororor. 
a man in a man in a man in a man in a corororor. 
a man in a man in a man in a man in a cororicororor. 
a man in a man in a man in a man in a cororororor. 
a man in a man in a man in a cororor. 
a man in a man in a man in a coror. 
two man in a man in a man in a coror. 
a man in a man in a man in a man in a man in a corcororcoror. 
a man in a man in a man in a man in a coror. 
a man in in . 
a man in a man in a man in a coror. 
a man in a man in a man in a man in a cor. 
a man in a man in a man in a man in a cororor. 
a man in a man in a man . 
a man in a man in a man in a cororor. 
a man in a man in a man in a man in a coror. 
a man in a man in a man in a man in a man in a coricorororor. 
two in a man in a man in a coror. 
a man in a man in a man in a man in a cororororor. 
a man in a man in a man in a man in a man in a coriror. 
a man in a man in a man in a man in a corororor. 
a man in a man in a man in a corororor. 
a man in a man in a man in a corcoror. 
